{"totalPage":66,"total":2356,"page":46,"pageSize":36,"list":[{"title":"换双鞋子会更好","id":9366,"date":"2017/5/14 20:51:00","imageFilename":"0fea368b83d17689eb09f47dedae0cda.jpeg","bigImageFilename":"32e9f0cab3ac09b6f889cf756347e9da.jpeg","tags":["好身材"]},{"title":"浑然一体","id":9330,"date":"2017/5/14 21:11:00","imageFilename":"c9e910e65cc9e9a47f6cfdfd6c289a62.jpeg","bigImageFilename":"4f929dff8b28ea0ae4942843eb091798.jpeg","tags":["美腿"]},{"title":"你好","id":9336,"date":"2017/5/14 21:09:00","imageFilename":"3581d0ebd830c3efdba9102d4992dc07.jpeg","bigImageFilename":"7acef1857b710fe3c09b61b698e2cc71.jpeg","tags":["美"]},{"title":"柜子和地板很搭","id":9362,"date":"2017/5/14 20:53:00","imageFilename":"a74e78aa65acaaba546a495b7b8c6f8b.jpeg","bigImageFilename":"9df9bb375d44cac88afd177138b96c76.jpeg","tags":["美腿"]},{"title":"大气球","id":9358,"date":"2017/5/14 20:54:00","imageFilename":"b2cc194a74fd94f92ab28e625bb2798b.jpeg","bigImageFilename":"1610d0e97aa0a6f97d634c3c02f5c18d.jpeg","tags":["大"]},{"title":"这是哪里","id":9328,"date":"2017/5/14 21:13:00","imageFilename":"d1b19ed8acc928c07fbbca99bc740cbd.jpeg","bigImageFilename":"3a23bcb200c87868f30ea99953fe4e9c.jpeg","tags":["美腿"]},{"title":"衣服不太合适","id":9322,"date":"2017/5/15 21:14:00","imageFilename":"595b8cef1130f816264a2ed34cdbbe4a.jpeg","bigImageFilename":"91ea21b94fd49a17af87a2ae70167a24.jpeg","tags":["大"]},{"title":"紫色毛衣","id":9300,"date":"2017/5/15 21:12:00","imageFilename":"a36e87fbbea6760056c12bb904634efb.jpeg","bigImageFilename":"e654d2d8c17d9c3736a30632f15f519f.jpeg","tags":["大"]},{"title":"有点紧","id":9290,"date":"2017/5/15 21:10:00","imageFilename":"9e5d847a234eafc12e3d69df72576623.jpeg","bigImageFilename":"3b0fd87cd92a96cb30cd6a4473129950.jpeg","tags":["大"]},{"title":"太热了","id":9288,"date":"2017/5/15 21:11:00","imageFilename":"f30663f430ffed7eb50793c7582e3979.jpeg","bigImageFilename":"a04c65f2aefce4cd8c8ad6b4fd1cd59a.jpeg","tags":["大"]},{"title":"大不列颠","id":9270,"date":"2017/5/15 21:16:00","imageFilename":"f7ab1f0c455fddeba4b61dfa55f71d23.jpeg","bigImageFilename":"7bf8b965fe215e60541f6aeeb178f1a9.jpeg","tags":["大"]},{"title":"准备动作","id":9248,"date":"2017/6/1 21:46:00","imageFilename":"8726f1815f0d4d925b5d07483316972a.jpeg","bigImageFilename":"211ddca6a5da88de356de07ad3983627.jpeg","tags":["好身材","美腿"]},{"title":"地板凉不凉","id":9236,"date":"2017/6/1 21:47:00","imageFilename":"b66a8eee1a2b1759162d13238a672bb3.jpeg","bigImageFilename":"fe115d3bcb5bf14a95aa0537b3c9ceff.jpeg","tags":["美腿"]},{"title":"对比","id":9234,"date":"2017/6/2 21:56:00","imageFilename":"10b8ea6815f935bd422778e854562c58.jpeg","bigImageFilename":"9ad0e47cc583bfffe70da79029c560cd.jpeg","tags":["美腿"]},{"title":"出门化个妆","id":9286,"date":"2017/5/15 21:11:00","imageFilename":"8c3bfc358f45b8f7fa1731ca54f17f74.jpeg","bigImageFilename":"822fa702ee669c770b8ab3f22d4b2e0a.jpeg","tags":["大"]},{"title":"对比","id":9232,"date":"2017/6/2 21:56:00","imageFilename":"5d0e166dc2d8fd289d6354c2e7cf2231.jpeg","bigImageFilename":"a44758a649fa529ab4fcab6d87498a2b.jpeg","tags":["美腿"]},{"title":"碧海蓝天","id":9226,"date":"2017/6/2 21:57:00","imageFilename":"e27e3fb11ec52ce0c3b257f4c17e841b.jpeg","bigImageFilename":"819997acd5b19382336132f3ee45346a.jpeg","tags":["美腿"]},{"title":"健身前拍一张","id":9224,"date":"2017/6/2 21:57:00","imageFilename":"47e61f5625f14a1de2da3f4a3dd75a0f.jpeg","bigImageFilename":"c0fdf8072f5271325c9bc06e762587f0.jpeg","tags":["好身材","美腿"]},{"title":"drink","id":9212,"date":"2017/6/2 21:59:00","imageFilename":"bf0448485a8a8df78ffd262ed26e6e7e.jpeg","bigImageFilename":"c5ec371db0b64b2ed8ae0d1bb6f89f79.jpeg","tags":["美腿"]},{"title":"有点累了","id":9216,"date":"2017/6/2 21:58:00","imageFilename":"6978ee986626b2781ebd74c71447f60f.jpeg","bigImageFilename":"147646ab69d630046b79693f22f13add.jpeg","tags":["美腿"]},{"title":"这是什么","id":9144,"date":"2017/6/3 06:29:00","imageFilename":"0d775f5df95b2b6ad88ef2faf45910be.jpeg","bigImageFilename":"9d01c5978d9bf28e886540f79a803ee5.jpeg","tags":["在路上","美腿"]},{"title":"晨练","id":9168,"date":"2017/6/3 05:57:00","imageFilename":"b91abb2251b08a08cd3198008f3bd0bd.jpeg","bigImageFilename":"44b79e3804abd99cb97b7c04048e9737.jpeg","tags":["趣图"]},{"title":"休息一会儿","id":9140,"date":"2017/6/3 06:29:00","imageFilename":"a38dcda020864a301458710d0d9bac6c.jpeg","bigImageFilename":"101bc5ecdad467fbf7339b583f9c6b4b.jpeg","tags":["在路上","美腿"]},{"title":"好姐妹","id":9206,"date":"2017/6/2 21:59:00","imageFilename":"532018f0149118aab1e7d84fa4c7b14a.jpeg","bigImageFilename":"d1998fbb968bad401318fc7450ae8efe.jpeg","tags":["美腿"]},{"title":"一对儿","id":9138,"date":"2017/6/3 06:30:00","imageFilename":"bedd1804cba3fe5039c41c21174756e8.jpeg","bigImageFilename":"5e71f7c93956bff88106859115de8b0b.jpeg","tags":["好身材","美腿"]},{"title":"海风","id":9126,"date":"2017/6/3 06:30:00","imageFilename":"283f1f580acc4af9ecb154cf69685b5a.jpeg","bigImageFilename":"7a22efd74140af14bca15966b239601a.jpeg","tags":["好身材"]},{"title":"猜猜什么车","id":9116,"date":"2017/6/3 06:48:00","imageFilename":"bb75cc1b00206e8d261feb53f7fbbfc3.jpeg","bigImageFilename":"60fce623ccdf65676e81a4141f1af4bf.jpeg","tags":["在路上","美腿"]},{"title":"准备出门","id":9114,"date":"2017/6/3 06:50:00","imageFilename":"d1b4861c114bf3adf0b444b13a9a67bb.jpeg","bigImageFilename":"cbf0e45ac4e77bf2ecb1c51785806223.jpeg","tags":["美腿"]},{"title":"鞋子不错","id":9106,"date":"2017/6/3 06:50:00","imageFilename":"495ae35345e9e9a2b7d87954e6440519.jpeg","bigImageFilename":"7b17a7f8885204ce2c8bb3af8c9504cf.jpeg","tags":["美腿"]},{"title":"地下凉","id":9102,"date":"2017/6/3 06:51:00","imageFilename":"2c2e125c76e8565f9bb807ad0c77a431.jpeg","bigImageFilename":"341998211018ee25c62b4457c8cf8eab.jpeg","tags":["美腿"]},{"title":"准备睡了","id":9082,"date":"2017/6/3 06:52:00","imageFilename":"9a690d45bdae143aeac403f8644c18a4.jpeg","bigImageFilename":"e72d318795f4bd4f84bd998c53998d7c.jpeg","tags":["美腿"]},{"title":"会中小憩","id":9076,"date":"2017/6/3 06:53:00","imageFilename":"7f5d4b8ddb4ed5a511d5f2f1327ab47c.jpeg","bigImageFilename":"3bc38022603ef0a9d6bdd98680ab6206.jpeg","tags":["美腿"]},{"title":"地下凉","id":9074,"date":"2017/6/4 17:42:00","imageFilename":"4a6a5357bd7a0d947e5416cdcc88029c.jpeg","bigImageFilename":"99628895872f87066d4be34ad50198b7.jpeg","tags":["美腿"]},{"title":"听音乐","id":9080,"date":"2017/6/3 06:52:00","imageFilename":"d3f7d0dccb32c7e130996b4ef4692540.jpeg","bigImageFilename":"5aa3ddb412580fb4dfab2d61088ea54f.jpeg","tags":["大"]},{"title":"泡个澡","id":9070,"date":"2017/6/4 17:43:00","imageFilename":"fbc3ecc4a88ede56dd1e5fdd55a62b8f.jpeg","bigImageFilename":"d2bff35dbd013a0b49ac60f8a7921e1c.jpeg","tags":["美腿"]},{"title":"什么手机","id":9058,"date":"2017/6/4 17:43:00","imageFilename":"fb94a62466fd9e193da4d967f2733324.jpeg","bigImageFilename":"d034f8327d2ad1de062c4b4f66c85cc5.jpeg","tags":["贵在真实"]}]}