{"totalPage":66,"total":2356,"page":15,"pageSize":36,"list":[{"title":"海洋世界","id":18263,"date":"2019/7/14 14:36:00","imageFilename":"9f6b821fa59003c638deafdbe2d1848d.jpeg","bigImageFilename":"b8ef9ad384d868f03a7f4d20a2d895bd.jpeg","tags":["大","好身材"]},{"title":"新来的女同事","id":18252,"date":"2019/7/9 02:08:00","imageFilename":"7ac82559c1d52ab60aeef7e63f1b3676.jpeg","bigImageFilename":"341f5c523b91e8600097bb4b134dd67e.jpeg","tags":["美腿","贵在真实"]},{"title":"做什么好吃的","id":18251,"date":"2019/7/5 05:43:00","imageFilename":"f917703f0c96461fbe512e7a6d112262.jpeg","bigImageFilename":"d5c856d5d3c2ddba0135753b3e23c74b.jpeg","tags":["大","好身材","美腿"]},{"title":"蓝天白云","id":18250,"date":"2019/7/5 03:20:00","imageFilename":"53fa42cf55d6c89a63e404863cccb472.jpeg","bigImageFilename":"f6f3acd17a8f00330585b30b285f885e.jpeg","tags":["美腿"]},{"title":"什么包","id":18249,"date":"2019/7/5 03:08:00","imageFilename":"e4158d82766e688ab088f5a07ac83c65.jpeg","bigImageFilename":"3eec3fe977dbd9a6f2197f499b3b7c80.jpeg","tags":["美腿"]},{"title":"偷得浮生半日闲","id":18248,"date":"2019/7/3 03:51:00","imageFilename":"2cd01322d50fbfd4dba38625215efc35.jpeg","bigImageFilename":"a58c85d2b7594feeed67827c021e6c80.jpeg","tags":["美腿","贵在真实"]},{"title":"太热了","id":18247,"date":"2019/7/1 11:28:00","imageFilename":"f3973d018e83b07a91e7cac2ec6a58bc.jpeg","bigImageFilename":"a894ef7cc3de05a532488c53ef32c49a.jpeg","tags":["美腿"]},{"title":"想念秋天","id":18246,"date":"2019/7/1 11:26:00","imageFilename":"ce43ab4a2bf148c5b9ff32b42bba8379.jpeg","bigImageFilename":"9698beafd252d987c741fe3b7376d490.jpeg","tags":["美腿"]},{"title":"什么鞋","id":18245,"date":"2019/7/1 08:14:00","imageFilename":"f0000195cfa9b2cdd71453d5a87ea48d.jpeg","bigImageFilename":"59ac6b37a42a44935045f89ab7b6d846.jpeg","tags":["在路上","好身材","美腿"]},{"title":"什么包","id":18262,"date":"2019/7/14 14:36:00","imageFilename":"07ed63724a9254f825887439a10a1d8f.jpeg","bigImageFilename":"053ae0ad7e29f5c1101882d5cd15ea48.jpeg","tags":["好身材"]},{"title":"吊坠不错","id":18261,"date":"2019/7/12 10:00:00","imageFilename":"b973a8cacef2c944b5229619e11f8563.jpeg","bigImageFilename":"aea10a89166f2db91f3b2b39116ad57b.jpeg","tags":["大"]},{"title":"今天没迟到","id":18260,"date":"2019/7/12 07:21:00","imageFilename":"30d1230e7e0f07d4de0e21252f11a880.jpeg","bigImageFilename":"2ab4b9b85696a187843423d4e4f8f55e.jpeg","tags":["在路上","大","贵在真实"]},{"title":"开往哪里的车","id":18259,"date":"2019/7/12 07:08:00","imageFilename":"8a433bc8900ec56a68dfa0a9588c6dff.jpeg","bigImageFilename":"d2cd41bc9cf2bbcc652fb9c7a4bec9ab.jpeg","tags":["贵在真实"]},{"title":"沙发挺舒服","id":18258,"date":"2019/7/12 06:49:00","imageFilename":"96918cef7e0718908fc51413ef9eb6a7.jpeg","bigImageFilename":"b96d0434be4ce04cba1c586eea1e9e0e.jpeg","tags":["美腿"]},{"title":"脸上是什么","id":18257,"date":"2019/7/10 05:05:00","imageFilename":"6eb63f9c8c43debb313f085c62adac54.jpeg","bigImageFilename":"ff087677abe24e2b542e7e8b8aae3b28.jpeg","tags":["大","好身材"]},{"title":"小心玻璃","id":18256,"date":"2019/7/10 05:05:00","imageFilename":"1ec00efa4813eca022b30f3f5fdf0104.jpeg","bigImageFilename":"bf7f37e6de4fd20fd63f4c102a1f11a7.jpeg","tags":["好身材","美腿"]},{"title":"怎么红了","id":18255,"date":"2019/7/9 11:36:00","imageFilename":"bbb26d8796389ec430fef7345da2adc8.jpeg","bigImageFilename":"d8b7a3c03f6f8c41c41f06544ff6fd6c.jpeg","tags":["大"]},{"title":"不文明","id":18244,"date":"2019/6/28 04:29:00","imageFilename":"172e93661620e6b3e0c5a67c8c20ae53.jpeg","bigImageFilename":"809d87b861999eb29f021f7cc824636b.jpeg","tags":["美腿","贵在真实"]},{"title":"黑白分明","id":18254,"date":"2019/7/9 09:17:00","imageFilename":"1ac5cf0e726894c8c4c2121807d2774b.jpeg","bigImageFilename":"fabfaa5021f2be1ff03832be4779b3b2.jpeg","tags":["美腿"]},{"title":"有点平","id":18243,"date":"2019/6/27 02:05:00","imageFilename":"ad8b71de79df18add6e2d4e2a6c96012.jpeg","bigImageFilename":"7540af6349885d51e8c476e0e818af4f.jpeg","tags":["好身材","美腿"]},{"title":"单身狗","id":18241,"date":"2019/6/24 02:45:00","imageFilename":"babaf616c5168c078cd02e2ce0f79e81.jpeg","bigImageFilename":"6440459a79891871aa74e13dc5bf7594.jpeg","tags":["在路上","好身材","美腿"]},{"title":"虔诚","id":18240,"date":"2019/6/21 16:14:00","imageFilename":"5004b6d5babfd3e7a2ded66a80918814.jpeg","bigImageFilename":"881206fd2b6ef6b462221a33ccff5892.jpeg","tags":["大","好身材","贵在真实"]},{"title":"减肥中","id":18239,"date":"2019/6/21 11:07:00","imageFilename":"b6a8ded0910a21829e000fce27273bac.jpeg","bigImageFilename":"3bf9f9fefbae69c6980bd4e663fe9975.jpeg","tags":["大","贵在真实"]},{"title":"小马乖乖","id":18242,"date":"2019/6/24 05:14:00","imageFilename":"2be4e313f38030515f2c30d4da392237.jpeg","bigImageFilename":"df74b42d0983a59e945ecdb5d9fbf0d6.jpeg","tags":["大"]},{"title":"抢购中","id":18238,"date":"2019/6/18 10:09:00","imageFilename":"680586d6e002c11461aea04950bc8dca.jpeg","bigImageFilename":"646fc2bc181df6623d2f9ea6ec26a46d.jpeg","tags":["好身材","美腿"]},{"title":"玩啥呢","id":18236,"date":"2019/6/14 11:33:00","imageFilename":"e0990f9ea99d41fa40f14cd6c9400b6b.jpeg","bigImageFilename":"42c0a42b5f751c78c6f4408d3b5656ce.jpeg","tags":["大","好身材","贵在真实"]},{"title":"玩球","id":18237,"date":"2019/6/18 02:05:00","imageFilename":"0e148b7bcd55f68ce16dc6b9374581a7.jpeg","bigImageFilename":"4e48e957d790680b7756ab091abe35ec.jpeg","tags":["大","好身材"]},{"title":"不算胖","id":18235,"date":"2019/6/14 08:59:00","imageFilename":"498ea8725fadaa12ca077be3d65abf79.jpeg","bigImageFilename":"0b77799c007f4cb8ae706e8da75a9f13.jpeg","tags":["美腿"]},{"title":"后面是什么","id":18234,"date":"2019/6/11 12:39:00","imageFilename":"2d211ee7dae2a73dd22ee19482fc6735.jpeg","bigImageFilename":"6a467a77ab48e777b2f688a120d942c5.jpeg","tags":["大"]},{"title":"午后咖啡","id":18233,"date":"2019/6/10 06:13:00","imageFilename":"d3faa7f96c8ac6174d4bc95753645db8.jpeg","bigImageFilename":"373b009a3c3b3af35db9b82a5feb90b0.jpeg","tags":["大"]},{"title":"请注意素质","id":18232,"date":"2019/6/10 06:11:00","imageFilename":"027d80f8f0b05ec4e86c59d45096655e.jpeg","bigImageFilename":"86f9022126ae4bea6b3da90dbeec7e80.jpeg","tags":["在路上","美腿","贵在真实"]},{"title":"什么车","id":18231,"date":"2019/6/6 06:45:00","imageFilename":"bc5a05b58faf325e51f81d74ad276a6a.jpeg","bigImageFilename":"6b3f7686c8cf0745cc99f638c1e99852.jpeg","tags":["在路上","美腿"]},{"title":"这件衣服好看吗","id":18230,"date":"2019/6/5 07:22:00","imageFilename":"c87e466ba37553c1971bcf3f07c2cfe0.jpeg","bigImageFilename":"aa8a3f06c621a8688b7c5b29dae8fa1c.jpeg","tags":["大","好身材"]},{"title":"儿童节快乐","id":18229,"date":"2019/6/1 14:59:00","imageFilename":"568cdabae9dbeadc032b886bd245c341.jpeg","bigImageFilename":"e743157293c7644ecbd47424b076680f.jpeg","tags":["好身材","美腿"]},{"title":"六一快乐","id":18227,"date":"2019/6/1 14:45:00","imageFilename":"f7e0c3728eeffc30c6e17b7edbfd45dd.jpeg","bigImageFilename":"ede190b845a76574bd100dc1afe08ba4.jpeg","tags":["大","贵在真实","趣图"]},{"title":"有点短","id":18228,"date":"2019/6/1 14:49:00","imageFilename":"0f1fc3838c99a401116d223df73e38c9.jpeg","bigImageFilename":"5e064c4e178d768f3e0ffeae1b621e76.jpeg","tags":["在路上","好身材","美腿"]}]}