{"totalPage":66,"total":2356,"page":34,"pageSize":36,"list":[{"title":"慢点","id":17266,"date":"2018/7/20 22:42:00","imageFilename":"af9bb0b3f34dcd7ae2acb305583855f6.jpeg","bigImageFilename":"88487c89bf03ae46c58ba9314b11db89.jpeg","tags":["美腿"]},{"title":"两颗樱桃","id":17263,"date":"2018/7/20 22:40:00","imageFilename":"fd79f5d408fab575fe4c32cfa01c435b.jpeg","bigImageFilename":"b9124d90d419c102b764f71d6d93ffe5.jpeg","tags":["大","好身材","美腿"]},{"title":"你说什么","id":17260,"date":"2018/7/20 15:14:00","imageFilename":"c967d3f4cbfce219d98fd8369ee5bb50.jpeg","bigImageFilename":"2e16eaa7a2cb9b37fab86c1dbc6e5d9c.jpeg","tags":["美腿"]},{"title":"惬意的午后","id":17244,"date":"2018/7/11 14:58:00","imageFilename":"798fa1388692fc9c4ddd8fde05e544b2.jpeg","bigImageFilename":"b826a2a210ad53f32f95149cc7a795f8.jpeg","tags":["美腿"]},{"title":"喝粥","id":17251,"date":"2018/7/13 12:26:00","imageFilename":"d324a16a9767a61247ead56e55d6c191.jpeg","bigImageFilename":"9f092aef967b7d264f280ae190031130.jpeg","tags":["贵在真实"]},{"title":"谁送的花","id":17239,"date":"2018/7/10 08:58:00","imageFilename":"3fd019bf86681608f20088916403baea.jpeg","bigImageFilename":"f698e259c74408a9fed333faba24d0c6.jpeg","tags":["大","好身材"]},{"title":"白的晃眼","id":17254,"date":"2018/7/19 11:52:00","imageFilename":"b438f38d03d4fd261be51e651e175e3e.jpeg","bigImageFilename":"06552b3b445a039442cfd7439558c729.jpeg","tags":["大"]},{"title":"来早了","id":17257,"date":"2018/7/20 13:07:00","imageFilename":"d51a067e752128fca76622f98b80e9bc.jpeg","bigImageFilename":"1fb6b77b182ea9c63b0d7ae424e0dab4.jpeg","tags":["大","好身材"]},{"title":"天热了喝点水","id":17236,"date":"2018/7/6 13:40:00","imageFilename":"820341c027f95ca54037ef0b8759a2d9.jpeg","bigImageFilename":"ff590e8da3f4d2a989d7c8a93945db60.jpeg","tags":["美腿"]},{"title":"天热就要去游泳","id":17231,"date":"2018/7/5 16:09:00","imageFilename":"59fdb3e6cc3ebeb16974232391a7a22a.jpeg","bigImageFilename":"02a62f48df16fcb0b93e0b0c1b20de77.jpeg","tags":["大"]},{"title":"再来一盘精品五花","id":17247,"date":"2018/7/12 21:37:00","imageFilename":"c8e38afbb35bf5ef8cb3e141cdbcb1a8.jpeg","bigImageFilename":"d3c56c06800f5d7be0745677a4710c79.jpeg","tags":["趣图"]},{"title":"花开","id":17233,"date":"2018/7/5 16:20:00","imageFilename":"e6f2852eccd9de2b1978b648d5b5be13.jpeg","bigImageFilename":"ef18649ad4b65f79eb79976670f7e713.jpeg","tags":["美腿"]},{"title":"这是什么手机","id":17223,"date":"2018/7/2 21:09:00","imageFilename":"e9e9734ca58d43cb03b138df153d9960.jpeg","bigImageFilename":"c0cdb907035205ca63e41b13d694c3bd.jpeg","tags":["大"]},{"title":"什么袋子","id":17227,"date":"2018/7/3 08:56:00","imageFilename":"2423aa181da3751232f66980447fb2b8.jpeg","bigImageFilename":"c017e9fa1794b3e8e87cdfa86aad3829.jpeg","tags":["美腿","贵在真实"]},{"title":"大草莓","id":17214,"date":"2018/6/28 16:25:00","imageFilename":"72e90b3590466f77b7b5ac738f59b5ac.jpeg","bigImageFilename":"fff29b9c68eb03b82e0a6906f44b9a37.jpeg","tags":["大"]},{"title":"me,me,","id":17220,"date":"2018/6/29 21:07:00","imageFilename":"a39efd281216a7e5397e9e6db131f123.jpeg","bigImageFilename":"7424512069df553e7fd241b6c6e83bf9.jpeg","tags":["美腿"]},{"title":"蓝天白云","id":17211,"date":"2018/6/27 18:08:00","imageFilename":"fefe3c393a97721be820d64ed31edf50.jpeg","bigImageFilename":"8cf19a3ea60440740bd914a63a003f84.jpeg","tags":["大"]},{"title":"等车","id":17204,"date":"2018/6/25 18:35:00","imageFilename":"ce42002f4d89956f6f1c608017945f8a.jpeg","bigImageFilename":"47a5d86c72c7948b4fda9987e3265f4f.jpeg","tags":["在路上","好身材"]},{"title":"草坪不错","id":17217,"date":"2018/6/29 10:39:00","imageFilename":"73e8d177296f8cb82d165aec5be3e9cf.jpeg","bigImageFilename":"02d82128abc3c699a0dfd01f578fb736.jpeg","tags":["美腿"]},{"title":"你选哪一个","id":17201,"date":"2018/6/23 21:04:00","imageFilename":"20b90ecb60983f7b6e46f81c9aa53324.jpeg","bigImageFilename":"b4f9624d04585c95430c451351df3580.jpeg","tags":["美腿"]},{"title":"球队","id":17198,"date":"2018/6/23 20:51:00","imageFilename":"75e4244b51810a131165bf7e202bb417.jpeg","bigImageFilename":"b29d8f60c6829babb57682040d569de3.jpeg","tags":["大","欧美","美腿"]},{"title":"热","id":17195,"date":"2018/6/23 10:55:00","imageFilename":"565db022bfe2950b36e67a92326a0192.jpeg","bigImageFilename":"29759fedc21ca1bbbb29d07642ff4fb7.jpeg","tags":["大"]},{"title":"都是什么植物","id":17189,"date":"2018/6/23 10:42:00","imageFilename":"385a2a86091caef018788dcb5452b618.jpeg","bigImageFilename":"aaac8d83ed53b6f1b9fce821be427a9c.jpeg","tags":["美腿"]},{"title":"圣诞快乐","id":17192,"date":"2018/6/23 10:44:00","imageFilename":"505e8e8354acb61b95d4839c4c82f377.jpeg","bigImageFilename":"38a1cf007099c5030c2fd3ade1bb6e9d.jpeg","tags":["好身材"]},{"title":"睡得真香","id":17173,"date":"2018/6/22 22:43:00","imageFilename":"2170369078c5b338885e6e5f9663441f.jpeg","bigImageFilename":"d1a044107e106e547a3bd984e887c356.jpeg","tags":["美腿"]},{"title":"去吃火锅","id":17186,"date":"2018/6/22 22:57:00","imageFilename":"7e15b28cd97f524a3a733caa9e112196.jpeg","bigImageFilename":"705c301cb838787d4c8e0c3491eca892.jpeg","tags":["美腿"]},{"title":"请告诉我正确答案","id":17183,"date":"2018/6/22 22:56:00","imageFilename":"1b7b48b14bb6c9b48c4f2c3c4dc43df2.jpeg","bigImageFilename":"5b190295f0264576c7615ae97d76ccfe.jpeg","tags":["大"]},{"title":"穿哪双出门","id":17170,"date":"2018/6/22 22:35:00","imageFilename":"4323831e9754f5ca1407623abe47632c.jpeg","bigImageFilename":"285ff858c2a902678a600be10845e5e7.jpeg","tags":["美腿"]},{"title":"叼住衣服","id":17176,"date":"2018/6/22 22:54:00","imageFilename":"b373e5b4f16198de1e6f01abf50103fa.jpeg","bigImageFilename":"672d67877179ef0b5fb431519171fc0e.jpeg","tags":["大","好身材"]},{"title":"红","id":17180,"date":"2018/6/22 22:55:00","imageFilename":"793e4ad5fed12774c02edc52958f7226.jpeg","bigImageFilename":"558e0e4311e5882afc60f20ae769adc9.jpeg","tags":["美腿"]},{"title":"电梯空调坏了","id":17160,"date":"2018/6/22 07:45:00","imageFilename":"c9d2ab594f8737d69e894a73af72546b.jpeg","bigImageFilename":"ed3481f38d8b51cc1b11f3bed044d3a0.jpeg","tags":["大"]},{"title":"地板擦的很干净","id":17163,"date":"2018/6/22 20:41:00","imageFilename":"7675e96320df84f2740b3636732f5b9a.jpeg","bigImageFilename":"10765eebd648069694d732ced9223533.jpeg","tags":["美腿"]},{"title":"窗外空气不太好","id":17167,"date":"2018/6/22 22:25:00","imageFilename":"18d8f47898b6c81aaec365fc1aa03112.jpeg","bigImageFilename":"51668d852b2b4ec34f6bc24fb798e8da.jpeg","tags":["美腿"]},{"title":"早点睡吧","id":17157,"date":"2018/6/20 23:56:00","imageFilename":"eed41e636faaa4e208de912911044c76.jpeg","bigImageFilename":"eb083d690a1659d4e58f3309480c1543.jpeg","tags":["美腿"]},{"title":"端午节了","id":17148,"date":"2018/6/15 13:21:00","imageFilename":"a5299b547ec4b7f4a65d119baab984b7.jpeg","bigImageFilename":"41f29bec4a0bfe0f17e9e5784d8ecdf2.jpeg","tags":["大"]},{"title":"刚刚好","id":17154,"date":"2018/6/20 23:55:00","imageFilename":"179abf042725f380c2bd76dcae0e9ebb.jpeg","bigImageFilename":"4a3ec64fe1c2f167f8298decd47b8111.jpeg","tags":["大"]}]}