{"totalPage":66,"total":2356,"page":23,"pageSize":36,"list":[{"title":"衣服要掉了哦","id":17975,"date":"2019/1/29 09:00:00","imageFilename":"6ce7397ba143c6cb3e9e9baf042a41c9.jpeg","bigImageFilename":"1fc1c3bdb5a92534ddbb7511e67852db.jpeg","tags":["大","好身材"]},{"title":"什么充电器","id":17972,"date":"2019/1/28 15:08:00","imageFilename":"616a93060824eea66f8088d985729830.jpeg","bigImageFilename":"9b15cf88936d63c6ab70b42f89ec8c87.jpeg","tags":["大","好身材","美腿"]},{"title":"行李都收拾好了","id":17971,"date":"2019/1/28 15:07:00","imageFilename":"dc52cfc7c5817190bf31a3b93a04c5b8.jpeg","bigImageFilename":"2f0184623d7a20469a556d07ca597b8e.jpeg","tags":["好身材","美腿"]},{"title":"加点玻璃水","id":17969,"date":"2019/1/28 15:05:00","imageFilename":"7688730f9e05d14e76941aef80a69775.jpeg","bigImageFilename":"e316759bba2ec4a782e256a08260ede3.jpeg","tags":["美腿"]},{"title":"这是什么花","id":17970,"date":"2019/1/28 15:06:00","imageFilename":"b32e9fc20a925ada8f3f73039fad0851.jpeg","bigImageFilename":"f437ddb5264b7cf417514b6aaaf99fbf.jpeg","tags":["好身材","美腿"]},{"title":"两个手机呢","id":17968,"date":"2019/1/28 10:20:00","imageFilename":"4d4947a352c6cbf8a02cf4396b92718c.jpeg","bigImageFilename":"951505ee79b1917f4ce899e6929dff63.jpeg","tags":["在路上","美腿"]},{"title":"去买衣服","id":17967,"date":"2019/1/28 09:05:00","imageFilename":"1ab1d1bd3e7396cac7683eb24f02fb62.jpeg","bigImageFilename":"f788e4bfce9c5ac031f2ea3ac620fa7e.jpeg","tags":["在路上","美腿"]},{"title":"花团锦簇","id":17966,"date":"2019/1/28 06:49:00","imageFilename":"9422cdc7cf4e5771a96428f65667a0ef.jpeg","bigImageFilename":"cf3dfd45c3dd973b1e8458c73f6f8847.jpeg","tags":["在路上"]},{"title":"开灯","id":17965,"date":"2019/1/28 05:17:00","imageFilename":"5e07b8bf4649ae2d8f7d91225758f0e3.jpeg","bigImageFilename":"d009a970c4c19d03143c4583bc2e2db0.jpeg","tags":["大","好身材"]},{"title":"蹲下休息会儿","id":17964,"date":"2019/1/27 11:18:00","imageFilename":"d170d239d51b1f678e05a00cda20bc3a.jpeg","bigImageFilename":"d1d2b39bb487039a2d48959dfc96e9ae.jpeg","tags":["好身材","美腿"]},{"title":"湖景房","id":17963,"date":"2019/1/27 11:09:00","imageFilename":"0e5df9405fece7ff26b715584ca7f629.jpeg","bigImageFilename":"68f6bbb5e668639fd4c3e07b36db1761.jpeg","tags":["美腿"]},{"title":"什么车","id":17962,"date":"2019/1/27 11:07:00","imageFilename":"2a27f8f98f5d0b5dbe9d224e8e9339d2.jpeg","bigImageFilename":"25a6f0cf5149655529a027395a947582.jpeg","tags":["好身材","美腿"]},{"title":"方形垃圾桶","id":17961,"date":"2019/1/27 11:06:00","imageFilename":"066d447c96bf32be1c293f2b6c633271.jpeg","bigImageFilename":"6421cfb3cbae15c75c094e83b9513774.jpeg","tags":["美腿"]},{"title":"桌子凉不","id":17959,"date":"2019/1/26 09:01:00","imageFilename":"955c956809bae8299352572f5a140faf.jpeg","bigImageFilename":"97457447a182bdded58c00b88413ae99.jpeg","tags":["美腿"]},{"title":"几号线","id":17960,"date":"2019/1/26 09:01:00","imageFilename":"1cfd1ffa96ca53b083f9ef7a2b3fe8ff.jpeg","bigImageFilename":"c063e8adbf30d2f020423994aa434df7.jpeg","tags":["在路上","贵在真实"]},{"title":"SONGS","id":17958,"date":"2019/1/26 03:58:00","imageFilename":"c7f9172cc4540740a6edb47be73ace26.jpeg","bigImageFilename":"112c43295e17e830e3bf9e0b8a33cc21.jpeg","tags":["美腿"]},{"title":"拉起窗帘","id":17957,"date":"2019/1/26 03:57:00","imageFilename":"0e7bf9e00d9189ce2099d3121b1b248b.jpeg","bigImageFilename":"938f99b0b2bb2be70070807be5780749.jpeg","tags":["好身材","美腿"]},{"title":"什么车","id":17955,"date":"2019/1/25 14:49:00","imageFilename":"348c37db9925f7f08c0e8db06b741909.jpeg","bigImageFilename":"59dbb3f39e49dc8fc6eb13b380229429.jpeg","tags":["美腿"]},{"title":"多重","id":17954,"date":"2019/1/25 13:03:00","imageFilename":"62e8eda4c77c3608b4a3a015fe84ff64.jpeg","bigImageFilename":"6ce30fdd22764ab2783d0498b4af20a4.jpeg","tags":["好身材"]},{"title":"王者荣耀","id":17956,"date":"2019/1/25 14:52:00","imageFilename":"d2fa87f11688c3fa1c404313f7d8d3a2.jpeg","bigImageFilename":"0b120908dac4a11b10850555d49f501a.jpeg","tags":["贵在真实"]},{"title":"第一天上班别迟到","id":17953,"date":"2019/1/25 13:01:00","imageFilename":"0d7fe87bea932b72d602c513a1aea4f1.jpeg","bigImageFilename":"9e74756ca62c0088630ed5d6192a0e8b.jpeg","tags":["好身材","美腿"]},{"title":"过马路","id":17951,"date":"2019/1/25 11:40:00","imageFilename":"fcefe1eb8e02a607e9f660ad30705d5c.jpeg","bigImageFilename":"4f45d04688aa47d3dd026dc4f21e85a5.jpeg","tags":["美腿"]},{"title":"早","id":17950,"date":"2019/1/25 11:31:00","imageFilename":"4f26220f4885bcb2ab21776d56d5cdff.jpeg","bigImageFilename":"bef692300917c9d399fd095c1cabce0a.jpeg","tags":["美"]},{"title":"气球气球","id":17952,"date":"2019/1/25 13:01:00","imageFilename":"4265bd454d367803d06cdd2115af4d54.jpeg","bigImageFilename":"00c54e0219a9e66986b408aae21c6e41.jpeg","tags":["好身材"]},{"title":"你选哪一个","id":17949,"date":"2019/1/25 10:39:00","imageFilename":"9de28849a11feb72feae69c36e4dcbc2.jpeg","bigImageFilename":"1f16a1ae1f8373ed5cc79c0219215830.jpeg","tags":["在路上","美腿"]},{"title":"一袭长发","id":17948,"date":"2019/1/25 10:38:00","imageFilename":"3e0931f98e37c77e674120c667ccb3a2.jpeg","bigImageFilename":"376dee6358514fef74b49534fe8a222f.jpeg","tags":["美腿"]},{"title":"什么纸巾","id":17946,"date":"2019/1/25 10:37:00","imageFilename":"2fa9d4373288e244666b2f69b561e367.jpeg","bigImageFilename":"359f2ce6c6a8e71c591de2cf724376e3.jpeg","tags":["美腿"]},{"title":"什么车","id":17947,"date":"2019/1/25 10:37:00","imageFilename":"90e3ae10dff821f91a0c9fba390b8f01.jpeg","bigImageFilename":"902bf5b49508b708be5fbd8761fa45e5.jpeg","tags":["美腿"]},{"title":"买的什么","id":17945,"date":"2019/1/24 09:23:00","imageFilename":"9b05fc585bb56db57ecb48b8fbc84b44.jpeg","bigImageFilename":"85ab2fdb77017b66a236577aae54caca.jpeg","tags":["美腿"]},{"title":"这是哪里","id":17944,"date":"2019/1/24 09:22:00","imageFilename":"a7c7c81c3c726bbfd0c1b22a54d5fb69.jpeg","bigImageFilename":"24a32df230d03e752bb19f334d8a6823.jpeg","tags":["在路上"]},{"title":"什么植物","id":17943,"date":"2019/1/24 05:07:00","imageFilename":"0c4508828dd8b04a9f810ce1044361fd.jpeg","bigImageFilename":"156a7cd8f011005ec89546f87900715f.jpeg","tags":["在路上","好身材"]},{"title":"鱼尾裙","id":17942,"date":"2019/1/24 04:54:00","imageFilename":"dab20f80403f71c68a94757e0f4fd3f1.jpeg","bigImageFilename":"fd192341df3f69e71453b46f637794bb.jpeg","tags":["大","好身材","美"]},{"title":"鸡毛掸子？","id":17941,"date":"2019/1/23 09:41:00","imageFilename":"4b06c14d5c2dc990f4aea7eaa9ea4f9d.jpeg","bigImageFilename":"85280015b7cacf88e0175de69a8ed2e5.jpeg","tags":["好身材"]},{"title":"蓝色毛线","id":17940,"date":"2019/1/23 05:03:00","imageFilename":"d4a3a2ea144bebded1992e1ec777f142.jpeg","bigImageFilename":"912ef33795344123a6f3591fcb604955.jpeg","tags":["好身材","美腿"]},{"title":"冷不冷","id":17938,"date":"2019/1/22 05:06:00","imageFilename":"7e858f7f2678b9a7be5e51cea519219a.jpeg","bigImageFilename":"fcb739aa0c891330a870552f24a673a5.jpeg","tags":["大"]},{"title":"快开始了","id":17939,"date":"2019/1/23 05:02:00","imageFilename":"c12021398c109adc4077dd6e20c771dd.jpeg","bigImageFilename":"ec5783acafba94543a0b54e8e5bf540b.jpeg","tags":["好身材"]}]}