{"totalPage":66,"total":2356,"page":41,"pageSize":36,"list":[{"title":"效果不错","id":14329,"date":"2017/9/28 20:52:00","imageFilename":"5cc5afe1dc2d0e87aee1dbc059086b6f.jpeg","bigImageFilename":"e5898d248780a01703a2988e91c935cb.jpeg","tags":["好身材"]},{"title":"什么灯","id":14317,"date":"2017/9/28 20:53:00","imageFilename":"fe7db5b37a0e414412bb3d5679f64303.jpeg","bigImageFilename":"db8167e5cd2f7c4dab81e8da2792ae8b.jpeg","tags":["好身材"]},{"title":"呼之欲出","id":14269,"date":"2017/10/5 20:45:00","imageFilename":"0eed47f957e77baaf731f9b629a9c466.jpeg","bigImageFilename":"67e161354f4895fb301aa194a08a2dab.jpeg","tags":["大"]},{"title":"夜深了","id":14289,"date":"2017/10/5 20:44:00","imageFilename":"01a08688db1075c8041ae2457e53fec6.jpeg","bigImageFilename":"78577601528b861ccde39e056a9d3b12.jpeg","tags":["大"]},{"title":"哪双最好看","id":14235,"date":"2017/10/6 20:34:00","imageFilename":"c264f67f1ad8a104d7f573b9657d403e.jpeg","bigImageFilename":"37b282ed2375c9e04bcf9ca074f9a45a.jpeg","tags":["美腿"]},{"title":"什么充电器","id":14213,"date":"2017/10/6 20:38:00","imageFilename":"f1678b3b513047b9d8a1ad9e3d1af69a.jpeg","bigImageFilename":"d4274c4c7868bc8bb1072843585cd5a3.jpeg","tags":["Uncategorized"]},{"title":"坐下歇会儿","id":14195,"date":"2017/10/6 20:39:00","imageFilename":"f41d6d662338e68eaa180a967ec92c39.jpeg","bigImageFilename":"c1fdd0893116bef3d20b1a05f851515b.jpeg","tags":["美腿"]},{"title":"地板凉","id":14193,"date":"2017/10/6 20:40:00","imageFilename":"da5d70a8b4ef2fb8a50f95b4ae3704e6.jpeg","bigImageFilename":"b6653bcc7f2211289cb8eb68495929a8.jpeg","tags":["美腿"]},{"title":"浮力不小","id":14207,"date":"2017/10/6 20:38:00","imageFilename":"a1afee2588b1a904642296284b0db534.jpeg","bigImageFilename":"d8b4efb86f9560f0c1e675c906a8be4a.jpeg","tags":["美腿"]},{"title":"出出汗","id":14087,"date":"2017/10/7 02:03:00","imageFilename":"e23bd6dcd86f64f31a4825a0492e903b.jpeg","bigImageFilename":"33ccd2715381f2f40f0e0e3052070b01.jpeg","tags":["大"]},{"title":"一个人的夜","id":14139,"date":"2017/10/6 20:43:00","imageFilename":"f849fa386401adc0241b0f358a976b9c.jpeg","bigImageFilename":"b7dcd925e53ddeaeea5d63a1b6f86a1c.jpeg","tags":["美腿"]},{"title":"指甲颜色挺多","id":14057,"date":"2017/10/7 02:05:00","imageFilename":"bbf7b5aa811b9290adf31484bbf04914.jpeg","bigImageFilename":"633580a37c7bd1236e6a3ef8de944100.jpeg","tags":["美腿"]},{"title":"你能做到吗","id":14085,"date":"2017/10/7 02:04:00","imageFilename":"9252d4ffa1a246643131494dd0caac26.jpeg","bigImageFilename":"ddc49798db30642d98d79d8b0eeaf1f1.jpeg","tags":["美腿"]},{"title":"地下凉","id":14055,"date":"2017/10/7 02:07:00","imageFilename":"68f48024ef1962b7fa5806009c629526.jpeg","bigImageFilename":"33cfb1979e851c93367e9314c751e833.jpeg","tags":["美腿"]},{"title":"什么图案","id":13985,"date":"2017/10/7 09:40:00","imageFilename":"23a9c4d9eebc5432d844b18179ef8bfc.jpeg","bigImageFilename":"f255ff69f9069a684c02e5eb4abbca8c.jpeg","tags":["大"]},{"title":"什么手机","id":14033,"date":"2017/10/7 02:10:00","imageFilename":"bf53f03a75762bac6997a50f8fbca854.jpeg","bigImageFilename":"b17d75256044ad930ac4a7eab49282cb.jpeg","tags":["美腿"]},{"title":"鞋子不太搭","id":13943,"date":"2017/10/7 11:04:00","imageFilename":"9480c25c0b979ba0f7271a7126f261f3.jpeg","bigImageFilename":"43964581cfa55470e004a3c2a4f731b2.jpeg","tags":["美腿"]},{"title":"喝点什么","id":13955,"date":"2017/10/7 11:02:00","imageFilename":"92c72cc07bf75b33b6d0eaa97bf2580f.jpeg","bigImageFilename":"5d40c49baee6dafd44a6491a03e58f83.jpeg","tags":["好身材","美"]},{"title":"什么品牌","id":13913,"date":"2017/10/7 11:06:00","imageFilename":"5e31913493cebd5ee54cefd40ea893a9.jpeg","bigImageFilename":"d15303320de85d00a46a85130f18d3c6.jpeg","tags":["好身材"]},{"title":"累了","id":13907,"date":"2017/10/7 11:06:00","imageFilename":"f50e06bdf55f086a83637243b28ae933.jpeg","bigImageFilename":"88362e1c7aa8e9499ce9bbebdb07bae7.jpeg","tags":["好身材","美腿"]},{"title":"这样就不凉了","id":13875,"date":"2017/10/7 20:49:00","imageFilename":"9123d55af0018743bd2ec57d04d77cc6.jpeg","bigImageFilename":"ba2bdb0f5ed0b9655717a447d5a86bba.jpeg","tags":["美腿"]},{"title":"什么材质的裙子","id":13853,"date":"2017/10/9 21:58:00","imageFilename":"dcae0f32995a55e3a443adf07cf1d99d.jpeg","bigImageFilename":"f07b5f497e30ffcab705fec4c3841763.jpeg","tags":["好身材"]},{"title":"小熊你好","id":13845,"date":"2017/10/9 21:59:00","imageFilename":"7a163f85f5825f8acf6c16436164656d.jpeg","bigImageFilename":"9f20e503e1542f61545313895ae131bb.jpeg","tags":["在路上"]},{"title":"我爱熊猫","id":13767,"date":"2017/10/10 21:16:00","imageFilename":"3dc211208f5181271e501def6298822c.jpeg","bigImageFilename":"e10986debc68439228211156eaa1e6cb.jpeg","tags":["趣图"]},{"title":"鞋子呢","id":13745,"date":"2017/10/10 21:17:00","imageFilename":"324eeaf38101e041d36d528e9d2325a9.jpeg","bigImageFilename":"700c449ad223d4e6a26f39dcd0c7a553.jpeg","tags":["好身材","美腿"]},{"title":"手机拿反了","id":13861,"date":"2017/10/9 21:58:00","imageFilename":"31763d321f3e1b490a321c1ffae328d5.jpeg","bigImageFilename":"5bf5c3b0932761614072262fbfec3a5a.jpeg","tags":["大"]},{"title":"睡前拍一张","id":13691,"date":"2018/1/6 22:41:00","imageFilename":"d3cf1c761ab8793b19a5590a6926cf93.jpeg","bigImageFilename":"a4526ec629f8bcc9c60a863d79fef393.jpeg","tags":["大"]},{"title":"买小了","id":13689,"date":"2018/1/6 22:39:00","imageFilename":"f3495ef2840a158e2c2ccbbb5e9596b8.jpeg","bigImageFilename":"7e15b7a7e02f1a0b28c2ccc85201871f.jpeg","tags":["大"]},{"title":"你能坚持多久","id":13655,"date":"2018/3/1 15:54:00","imageFilename":"2e0f243ad289a46a3532a2ba1ed89efa.jpeg","bigImageFilename":"256180425efb50e7a1e68948099d5cc3.jpeg","tags":["好身材"]},{"title":"小黄鸭","id":13667,"date":"2018/3/1 15:53:00","imageFilename":"ee957363a36320e70784803913c5d502.jpeg","bigImageFilename":"87ab3be690d300e804710673aa1b184e.jpeg","tags":["美腿"]},{"title":"天凉了","id":13343,"date":"2017/9/7 22:03:00","imageFilename":"a23401a73a92c476d3a750cbec351449.jpeg","bigImageFilename":"2452a11a70b83d74857064108f3f4829.jpeg","tags":["大"]},{"title":"健身裤","id":13675,"date":"2018/3/1 15:53:00","imageFilename":"23ce2aafda5defae9dc102eea585874e.jpeg","bigImageFilename":"0898608cefb28aa17f72f087cf8b0639.jpeg","tags":["美腿"]},{"title":"看电视","id":13224,"date":"2017/8/16 20:22:00","imageFilename":"4ad40d34f7f7648a72467145ffd77c84.jpeg","bigImageFilename":"f21ecf98c2847bdc43250d00e44c5cbe.jpeg","tags":["美腿"]},{"title":"什么表","id":13136,"date":"2017/8/16 20:30:00","imageFilename":"5f7fa8466fa5986389db1efe33257d28.jpeg","bigImageFilename":"fc0ca28902a751ede4acd745d2c91e59.jpeg","tags":["贵在真实"]},{"title":"不想起床","id":13356,"date":"2017/9/9 11:03:00","imageFilename":"13f747b3f5bf302cf9519645c74c564d.jpeg","bigImageFilename":"c319ccfc6594100b61ebbb05581efb33.jpeg","tags":["好身材"]},{"title":"够长不","id":13078,"date":"2017/8/16 20:35:00","imageFilename":"6f41de6407115418d59e1486b10b72a1.jpeg","bigImageFilename":"558e28baee2bcbab8452924aa1ae7adb.jpeg","tags":["贵在真实"]}]}