{"totalPage":66,"total":2356,"page":9,"pageSize":36,"list":[{"title":"不期而遇","id":18477,"date":"2020/6/18 06:50:00","imageFilename":"e6c6b014b13b1079de6028203b2dce19.jpeg","bigImageFilename":"20d533505baa3ea5e858999fc598ed3e.jpeg","tags":["大","美腿"]},{"title":"夕阳","id":18476,"date":"2020/6/18 02:12:00","imageFilename":"d555ec70d72e46efc7583738dfd5702f.jpeg","bigImageFilename":"b045af83bad4940c619e4b0d36f72b59.jpeg","tags":["美","风景"]},{"title":"玩的什么游戏","id":18474,"date":"2020/6/17 13:55:00","imageFilename":"777dd28cdc3ceef9751364ce7d957828.jpeg","bigImageFilename":"acffb99daad4d6e17ba913b277a42441.jpeg","tags":["美腿"]},{"title":"两颗草莓","id":18473,"date":"2020/6/15 04:48:00","imageFilename":"00f85f0861e9d017f91e00ccb5b224b0.jpeg","bigImageFilename":"ec71dc20883b20d48929ecdded3dd015.jpeg","tags":["贵在真实"]},{"title":"什么裙子","id":18472,"date":"2020/6/12 09:06:00","imageFilename":"5277176da6cbc47fb32211bd5378623d.jpeg","bigImageFilename":"08abb8e24507775814f6283367269742.jpeg","tags":["美腿"]},{"title":"排气口","id":18475,"date":"2020/6/17 13:56:00","imageFilename":"8b753cfbe7d41978fe34dfba467e5394.jpeg","bigImageFilename":"5936ddbe4fe491650b4146d0ed186b94.jpeg","tags":["大","好身材","美腿"]},{"title":"干嘛呢","id":18470,"date":"2020/4/21 16:00:00","imageFilename":"7ffdc7ed0e1956e7afd3add905ab177a.jpeg","bigImageFilename":"0cd18c671b687c34be6ecd6620ac0fcb.jpeg","tags":["在路上","好身材","美腿"]},{"title":"春天来了","id":18469,"date":"2020/4/20 05:19:00","imageFilename":"eff490d62dc0b037612afb37f9df5a85.jpeg","bigImageFilename":"bf7fd5e39a7a1dc285482e06919d0d45.jpeg","tags":["好身材","美腿"]},{"title":"瑞幸咖啡","id":18468,"date":"2020/4/10 08:53:00","imageFilename":"c9a25711a39b8c2c6f5bdadb0975141e.jpeg","bigImageFilename":"0a9467b1fdaaeb13d74c02805b15e33f.jpeg","tags":["美腿","贵在真实"]},{"title":"午后小憩","id":18471,"date":"2020/5/24 04:59:00","imageFilename":"8947db8be6958aaf7192d453d22292b6.jpeg","bigImageFilename":"8523687fccc7a3f4ab13e80d1c6dc269.jpeg","tags":["美腿"]},{"title":"花开了","id":18467,"date":"2020/4/10 07:20:00","imageFilename":"3cc0176245e6a79910b53f44662e64bf.jpeg","bigImageFilename":"9b2288afec52a2a247481496c7216af7.jpeg","tags":["大"]},{"title":"这样穿有点热了","id":18465,"date":"2020/4/6 09:06:00","imageFilename":"463a53027f2f54d90c3708fbd91e4ebc.jpeg","bigImageFilename":"43414991db811e162269e1c47917b4f5.jpeg","tags":["美腿"]},{"title":"暖和起来了","id":18464,"date":"2020/3/22 13:54:00","imageFilename":"945f86cab4b7d90685f7218156d31900.jpeg","bigImageFilename":"ef56e26f19b52be5892871926578ad09.jpeg","tags":["美腿"]},{"title":"有点热了","id":18462,"date":"2020/3/22 13:24:00","imageFilename":"4edd5a1b375bed16cefd9bb4e651aad7.jpeg","bigImageFilename":"2b3b4309c8a5c62e15f2a75a4beea97e.jpeg","tags":["美腿"]},{"title":"无法一手掌控","id":18466,"date":"2020/4/6 09:20:00","imageFilename":"c58b1e760b5ac7255ad8cb783851311d.jpeg","bigImageFilename":"776af4ee6d815257ef1613d892727cae.jpeg","tags":["大"]},{"title":"居家随意","id":18460,"date":"2020/3/18 15:36:00","imageFilename":"bcfd02ec104d49c8b2445566cdd73609.jpeg","bigImageFilename":"c361a174ae6f5f665f5a4d84a0bff540.jpeg","tags":["大","好身材","贵在真实"]},{"title":"对不起","id":18478,"date":"2020/6/19 10:45:00","imageFilename":"1ef551184144ec31bff7fdea1244ef6f.jpeg","bigImageFilename":"9c165b248ae1617ed4f36419f2a548a1.jpeg","tags":["大"]},{"title":"好吃不如饺子","id":18463,"date":"2020/3/22 13:25:00","imageFilename":"87d9dd64e95bd95515154349c6622811.jpeg","bigImageFilename":"da66ad65b46ca886ad531e7d868469c0.jpeg","tags":["大","好身材"]},{"title":"吃个火锅","id":18461,"date":"2020/3/18 15:37:00","imageFilename":"f0cb31ccc0af01f36649d846c79ccb07.jpeg","bigImageFilename":"e93e8b20f59a745543a823cf466d530e.jpeg","tags":["大","贵在真实"]},{"title":"睡会儿","id":18459,"date":"2020/3/6 10:49:00","imageFilename":"60add67da8fd22838864af10c465e3e8.jpeg","bigImageFilename":"1d66df43564608154ed58803e376334a.jpeg","tags":["美腿","贵在真实"]},{"title":"在干嘛","id":18457,"date":"2020/3/4 11:31:00","imageFilename":"e6b5d582dc1f40f98a930b1d8cabcd46.jpeg","bigImageFilename":"9d9440646af395af0ff7224baeec5b98.jpeg","tags":["大","好身材"]},{"title":"练的哪里","id":18456,"date":"2020/3/4 11:30:00","imageFilename":"52d7dcf1580eb95693aef3d1dd8d8cf4.jpeg","bigImageFilename":"c14bafe5be78234712a6fff1bc1fcecd.jpeg","tags":["大","好身材"]},{"title":"你能做到吗","id":18455,"date":"2020/3/4 11:30:00","imageFilename":"9a525e3d4a92a4b99942a9bc864bab83.jpeg","bigImageFilename":"b84faa63253b201a24e89b8ee469fd9a.jpeg","tags":["好身材","美腿"]},{"title":"好亮","id":18458,"date":"2020/3/6 10:49:00","imageFilename":"99b01b4b27e143eb0125103dfde3346a.jpeg","bigImageFilename":"148cec3957294a6470f01cdb8e11811a.jpeg","tags":["美腿","贵在真实"]},{"title":"你选哪一个","id":18454,"date":"2020/3/4 10:35:00","imageFilename":"0312e90d79c35514d8e4237a44be5a98.jpeg","bigImageFilename":"e0c8d01239ee0f832689cbcd372b1154.jpeg","tags":["美腿"]},{"title":"小心点","id":18453,"date":"2020/3/4 10:34:00","imageFilename":"9397b71ce5ab08a00453aeab1baadc9d.jpeg","bigImageFilename":"932a594c7735abccdd2ce2a53d461e87.jpeg","tags":["好身材","美腿"]},{"title":"你选哪一个","id":18452,"date":"2020/3/4 10:34:00","imageFilename":"bc777ccdbd8d8391eadd9726092453bf.jpeg","bigImageFilename":"1ead5d25b273578c04e35aedb0912402.jpeg","tags":["美腿"]},{"title":"蓝天白云","id":18451,"date":"2020/3/4 10:31:00","imageFilename":"5f9eb8a2d31a0f0dfb5ea18289867049.jpeg","bigImageFilename":"cb33ad5c8ad5aeffba6dec3bfbd6af33.jpeg","tags":["美腿"]},{"title":"样品出售","id":18449,"date":"2020/3/4 10:30:00","imageFilename":"29930eeec930370f907196daed924eb8.jpeg","bigImageFilename":"d9e6523bb96753408d487caf06e9a53c.jpeg","tags":["美腿"]},{"title":"你选哪一个","id":18450,"date":"2020/3/4 10:30:00","imageFilename":"d6d6f5242d4119114ddaf613c072e2bb.jpeg","bigImageFilename":"708c0fd72c0d34cb3e896e5e10b1f89d.jpeg","tags":["美腿"]},{"title":"阳光正好","id":18447,"date":"2020/3/4 10:27:00","imageFilename":"9bd89d0c00809856ed3ef60eb5d01055.jpeg","bigImageFilename":"90271d221e239279573cc5397d72d7c8.jpeg","tags":["美腿"]},{"title":"哪家试衣间","id":18448,"date":"2020/3/4 10:28:00","imageFilename":"f11eb784be38c5277f64c54e75115d8e.jpeg","bigImageFilename":"0bfd34c47b5d8bdb511da2be5dd74083.jpeg","tags":["美腿"]},{"title":"后面是什么","id":18446,"date":"2020/3/4 10:26:00","imageFilename":"ccd76f619c277653215f00a4ac7c4f8c.jpeg","bigImageFilename":"a2bfe314ed63f716637b5c6e067c576c.jpeg","tags":["美腿"]},{"title":"你选哪一个","id":18445,"date":"2020/3/4 10:24:00","imageFilename":"e085ef51a48b05ad0db8aec76dc851db.jpeg","bigImageFilename":"fd06a32309dd18b5f2b639da712a178e.jpeg","tags":["美腿"]},{"title":"这可怎么办","id":18444,"date":"2020/3/4 10:22:00","imageFilename":"e9e5b8352a00c54b6b12d58a4b2ef800.jpeg","bigImageFilename":"8a44bfed372255b86d197b5e3eceb339.jpeg","tags":["在路上","美腿"]},{"title":"什么坐垫","id":18443,"date":"2020/3/4 10:21:00","imageFilename":"ea9fc6ea4d54128b7bc05e3cd8237a07.jpeg","bigImageFilename":"048ed0e07a1cbc3e6907e82725ebcb49.jpeg","tags":["美腿"]}]}