{"totalPage":66,"total":2356,"page":61,"pageSize":36,"list":[{"title":"唇","id":3387,"date":"2015/11/14 21:27:00","imageFilename":"637ef196f1396bdc3bc7cd2a73eb04d3.jpeg","bigImageFilename":"1c95debfd8dcf519c612349fb2e0dc40.jpeg","tags":["美"]},{"title":"天窗很大，这是什么车","id":3386,"date":"2015/11/13 17:39:00","imageFilename":"eeffc6f2720ded28b46f6a77d8a13d09.jpeg","bigImageFilename":"edce435c4562aad8a28d194a000d0359.jpeg","tags":["在路上","大"]},{"title":"买的什么","id":3384,"date":"2015/11/6 15:04:00","imageFilename":"2429fd54be9e709b1a131f1c72c9e4bf.jpeg","bigImageFilename":"5936c0236d803957c475c58957f5e48b.jpeg","tags":["在路上","美腿"]},{"title":"纹身是啥","id":3379,"date":"2015/10/14 13:47:00","imageFilename":"9d290a06d415a336a7c20eff53eef13d.jpeg","bigImageFilename":"972ca4b743bbf44afdb54da901dbeefa.jpeg","tags":["在路上","美腿"]},{"title":"老师你毛衣好短","id":3378,"date":"2015/10/13 13:30:00","imageFilename":"cb00d8f3078e71e1c26c636d991742a9.jpeg","bigImageFilename":"b387320aa48bf7f946f901eec9ed5894.jpeg","tags":["好身材"]},{"title":"恭喜发财，红包拿来","id":3375,"date":"2015/10/2 08:12:00","imageFilename":"e139a5037d1586e28a35495c857e3800.jpeg","bigImageFilename":"ed8bc46c8daa08178309d1a0900ebe58.jpeg","tags":["Uncategorized"]},{"title":"这是什么酒","id":3377,"date":"2015/10/13 09:54:00","imageFilename":"e69e9f27e85b3d72443352223239b953.jpeg","bigImageFilename":"0b855134c3900526e337b9194ac1753f.jpeg","tags":["大","趣图"]},{"title":"今天面试的妹子","id":3372,"date":"2015/9/29 10:12:00","imageFilename":"d879c482df2d6e359733002ba2b12aa7.jpeg","bigImageFilename":"7d99fd3fc1e8180bbbe4f5a705023ba9.jpeg","tags":["美腿"]},{"title":"贵在真实","id":3374,"date":"2015/9/30 10:12:00","imageFilename":"2bb2099794c0743dd9ba8e6f82add41c.jpeg","bigImageFilename":"c3acba4fd47d2ac7b64757632c9a9820.jpeg","tags":["好身材"]},{"title":"请不要用这个姿势玩手机","id":3358,"date":"2015/9/8 13:08:00","imageFilename":"4ec2d6da258e0e3970de5560bb2df729.jpeg","bigImageFilename":"fe8e27eaf1c30fec6c7f76f583512e06.jpeg","tags":["大","好身材"]},{"title":"公司行政","id":3359,"date":"2015/9/10 11:38:00","imageFilename":"8607611dd18285b4b20ab33949f7d018.jpeg","bigImageFilename":"0a64ee8e80b3097d46171c0889fb6912.jpeg","tags":["美腿"]},{"title":"这上衣没有固定效果吧","id":3356,"date":"2015/9/7 11:49:00","imageFilename":"1e5d9ad8cfaf82f02df2e5b3291097f8.jpeg","bigImageFilename":"55763f38b178b4d0a391fc6217a5f524.jpeg","tags":["大","好身材","美"]},{"title":"我最爱吃橘子","id":3357,"date":"2015/9/8 11:28:00","imageFilename":"a563a5e490e7d4ae40f24cbb3caad4c5.jpeg","bigImageFilename":"53cc10a052908cc3a05690f538edae70.jpeg","tags":["在路上","好身材"]},{"title":"耳钉不错","id":3354,"date":"2015/8/31 13:38:00","imageFilename":"fcb243bc04b02d92a21fcc52b7ec955a.jpeg","bigImageFilename":"2e634741d710bac8863e8807ff1fa435.jpeg","tags":["美"]},{"title":"画的啥","id":3352,"date":"2015/8/23 23:00:00","imageFilename":"c96dcc21a0889f31b3319839c745caaa.jpeg","bigImageFilename":"ab7f33e13c7b97372b8343cae562b4b0.jpeg","tags":["Uncategorized"]},{"title":"想有个这样的秘书","id":3353,"date":"2015/8/26 13:27:00","imageFilename":"f4ee7c5e0798fa0f2e9ca103e86c4e36.jpeg","bigImageFilename":"87d04d6ad8288a423fdd8a918d3cd9f7.jpeg","tags":["好身材","美腿"]},{"title":"从上往下是不是更好","id":3351,"date":"2015/8/23 22:59:00","imageFilename":"20ccfd0dbdbdc7a58bcd2a4dacbdb3a7.jpeg","bigImageFilename":"e9cb826ce32c3b638689a70948266a4b.jpeg","tags":["Uncategorized"]},{"title":"有点模糊","id":3350,"date":"2015/8/23 22:59:00","imageFilename":"9f44ea82d3cac91bb5a642653e9ee476.jpeg","bigImageFilename":"db1933762fcf3fa2b408edfc6a4333b9.jpeg","tags":["Uncategorized"]},{"title":"宿舍有点乱","id":3349,"date":"2015/8/23 22:58:00","imageFilename":"1994bb1b6ab922abdf66c1dc69df4f62.jpeg","bigImageFilename":"c0a77a918b57e7867c7b31d018e17c76.jpeg","tags":["Uncategorized"]},{"title":"杭州妹子","id":3347,"date":"2015/8/19 14:51:00","imageFilename":"c4db912fe0af448221f9abfe6bb5e2e3.jpeg","bigImageFilename":"39783d2cb7dc74a8ec0166e668889f64.jpeg","tags":["美"]},{"title":"我觉得不胖","id":3346,"date":"2015/8/13 16:15:00","imageFilename":"918810f92f60a4905594dff5b14b27a9.jpeg","bigImageFilename":"c581f7fa0c5f3747aa162230316e7670.jpeg","tags":["Uncategorized"]},{"title":"猜猜有多高","id":3348,"date":"2015/8/23 22:58:00","imageFilename":"79778317fc4d4b758b03def299ca15f3.jpeg","bigImageFilename":"824a52b6f68d2a97b4a0c05a55b9b20b.jpeg","tags":["美腿"]},{"title":"风太大了，都刮掉了","id":3343,"date":"2015/8/6 11:58:00","imageFilename":"7db71b9adb6b70d4fc5c6ed220038743.jpeg","bigImageFilename":"10083e79bc1cfae20f4e1e083e93b12b.jpeg","tags":["在路上","好身材"]},{"title":"床单挺素净","id":3342,"date":"2015/8/5 13:27:00","imageFilename":"c752a008399bc74d83103b5168f773bc.jpeg","bigImageFilename":"07095816cc988e6687c634621b3fa81b.jpeg","tags":["美腿"]},{"title":"吊带有点短吧","id":3341,"date":"2015/8/5 13:22:00","imageFilename":"f48af2aa2787e7bc1790b963c1c91399.jpeg","bigImageFilename":"2e87d4eca6cdf06cd1fea46e8cc8058d.jpeg","tags":["大","好身材"]},{"title":"一点红","id":3339,"date":"2015/8/4 10:57:00","imageFilename":"a5d2be1f5f65256da2c37e64df3be4a8.jpeg","bigImageFilename":"f9b585cdd2cf0ff780ecb953bb15b4fc.jpeg","tags":["大"]},{"title":"背后是窗帘吗","id":3338,"date":"2015/8/3 13:49:00","imageFilename":"cac901d40e4d1314ef8b39e1d632938f.jpeg","bigImageFilename":"97be42f1619ff5087250b8618319b378.jpeg","tags":["大","好身材","欧美"]},{"title":"今年流行透视装","id":3337,"date":"2015/7/27 17:07:00","imageFilename":"6c02e69818c3274f1b0bace6e6978131.jpeg","bigImageFilename":"fe38cd1c629bb1e437c5db8a77afe4fd.jpeg","tags":["在路上"]},{"title":"小黄人你看什么那","id":3335,"date":"2015/7/13 09:30:00","imageFilename":"a5db64bfc3defa7cca2c1f54383d0758.jpeg","bigImageFilename":"4522d8e92b64ff737b3072768d065ef6.jpeg","tags":["趣图"]},{"title":"最爱花裙子","id":3336,"date":"2015/7/14 09:54:00","imageFilename":"429121a29190e2e600be6d3eee78899e.jpeg","bigImageFilename":"6cc4f7a4c29b195518db3ff6513b0efe.jpeg","tags":["Uncategorized"]},{"title":"这是什么镜子","id":3333,"date":"2015/7/10 14:29:00","imageFilename":"a61f870ec5da44230d82fd959a708c8f.jpeg","bigImageFilename":"584a606cba261f02b310edfe5a65586a.jpeg","tags":["美腿"]},{"title":"项链不错","id":3334,"date":"2015/7/10 20:09:00","imageFilename":"8bb2fa44983650da8b622cd96cfe801c.jpeg","bigImageFilename":"b7bf3c3a65dcd3ca5623b4f9e4676acf.jpeg","tags":["Uncategorized"]},{"title":"看的过来吗","id":3332,"date":"2015/7/10 14:07:00","imageFilename":"0478561916d424048e339c9cab9dba9e.jpeg","bigImageFilename":"caaa940ba2dd6939a6a174038da69bce.jpeg","tags":["美腿"]},{"title":"你选哪一个","id":3331,"date":"2015/7/9 16:42:00","imageFilename":"a2c43f5c04061e9839f32dd4dc0709ce.jpeg","bigImageFilename":"1cd7b8b6c9b01044f292f2e3235705f8.jpeg","tags":["在路上"]},{"title":"小蛮腰","id":3329,"date":"2015/6/18 08:25:00","imageFilename":"2755ca95ac7f34276a9cfb57300c1978.jpeg","bigImageFilename":"1a93abb38c528c3168698fa7c98a083b.jpeg","tags":["好身材","害羞"]},{"title":"超市拍的，不太清晰啊","id":3330,"date":"2015/7/8 16:56:00","imageFilename":"669998692952abdef455ee2babcb6371.jpeg","bigImageFilename":"108b3aeda1b7ef7480713eedba93c0dd.jpeg","tags":["好身材","美腿"]}]}