{"totalPage":66,"total":2356,"page":24,"pageSize":36,"list":[{"title":"什么港快线","id":17937,"date":"2019/1/22 01:16:00","imageFilename":"556f882378e6ec6fccf4762e1dae9524.jpeg","bigImageFilename":"d85f9423757ee331a4a6ea10cd1817a0.jpeg","tags":["在路上","美腿"]},{"title":"小黄车","id":17936,"date":"2019/1/21 09:56:00","imageFilename":"de0faae2e7b51ad2134c493774aaa0b7.jpeg","bigImageFilename":"93b0f16a190f855f71e4f9e12825244b.jpeg","tags":["在路上","美腿"]},{"title":"什么手机","id":17935,"date":"2019/1/21 08:46:00","imageFilename":"230e5d25bfd85506bc7b8228e47b5eb0.jpeg","bigImageFilename":"a69866c536f6d0f29bef17b62de7ab76.jpeg","tags":["大"]},{"title":"天气真好","id":17934,"date":"2019/1/21 02:07:00","imageFilename":"2088cbf3c2a8c977cd069a1877ea7d1e.jpeg","bigImageFilename":"8b1be03646ab6f7dc39e69d808331f05.jpeg","tags":["好身材"]},{"title":"银杏叶黄了","id":17933,"date":"2019/1/21 00:44:00","imageFilename":"d726b7c37d006167eade495ebc2210cc.jpeg","bigImageFilename":"df2682f647acdfc5596a0a515ea4436a.jpeg","tags":["好身材"]},{"title":"绿色树林","id":17932,"date":"2019/1/20 14:42:00","imageFilename":"34afb8da0a24293b6a0f36d9d00816ee.jpeg","bigImageFilename":"82572e0715de4e9d1c4344d1d4be8260.jpeg","tags":["大"]},{"title":"我也爱喝这个","id":17931,"date":"2019/1/20 11:28:00","imageFilename":"111df347361df852dc564c2aa52ea5ee.jpeg","bigImageFilename":"4f37581cfeb1a269939806630b61583f.jpeg","tags":["在路上","美腿"]},{"title":"和红唇挺搭配","id":17930,"date":"2019/1/20 11:07:00","imageFilename":"be35931d2db4538b8f636bf0d1ce43b4.jpeg","bigImageFilename":"a620a8392ccea16234e5ec9c42a22b21.jpeg","tags":["好身材","美腿"]},{"title":"墙上是什么画","id":17927,"date":"2019/1/20 10:51:00","imageFilename":"001c0fa22b6ffda6545e26cc8058bacd.jpeg","bigImageFilename":"49572ec7d36c2c2ced6d660a5460b28c.jpeg","tags":["好身材","美腿"]},{"title":"白皙滑嫩","id":17928,"date":"2019/1/20 10:52:00","imageFilename":"58943cdb653a94369777bab2ed21cbb6.jpeg","bigImageFilename":"8ae0efb32826155071725e351a9f3db7.jpeg","tags":["美腿"]},{"title":"腿怎么弄的","id":17929,"date":"2019/1/20 10:52:00","imageFilename":"e7f7ba10eea3095f2b5c4986ce16da5e.jpeg","bigImageFilename":"89482475622842ccb215425ae1b04ad6.jpeg","tags":["在路上","贵在真实"]},{"title":"不许耍赖哦","id":17926,"date":"2019/1/20 07:19:00","imageFilename":"0ac620a573edbae1d0d5f61d9933c52d.jpeg","bigImageFilename":"b1d726f7f54680e731fcd26e4efbc7b5.jpeg","tags":["大","好身材","美腿"]},{"title":"什么器械","id":17925,"date":"2019/1/20 02:28:00","imageFilename":"2864c8708c7d16a5d5a9897df7931903.jpeg","bigImageFilename":"91a4e0cdac7863703bea426eda6cac53.jpeg","tags":["好身材"]},{"title":"香","id":17924,"date":"2019/1/19 14:09:00","imageFilename":"85933b933872c261aa09a57cb65c2ff1.jpeg","bigImageFilename":"1cfe574b6b239c21a409f53eb6d09fe0.jpeg","tags":["大"]},{"title":"大气球","id":17923,"date":"2019/1/19 05:38:00","imageFilename":"d6fb97f8f5981bf1a6dfb845c0070f04.jpeg","bigImageFilename":"3a51acde05c4e8fec718f84d9e6ebf13.jpeg","tags":["大"]},{"title":"拉上窗帘","id":17921,"date":"2019/1/19 05:29:00","imageFilename":"d703fefafee3292b0bab1bb70a8c15fb.jpeg","bigImageFilename":"9f7e71f7893f237063574b25a2ef88ec.jpeg","tags":["大"]},{"title":"做个SPA","id":17920,"date":"2019/1/19 05:29:00","imageFilename":"cba730566fd522053c706cc397a379a4.jpeg","bigImageFilename":"bcac313a4c33adc6f3b565783691cc1c.jpeg","tags":["大","好身材"]},{"title":"吃块蛋糕","id":17922,"date":"2019/1/19 05:36:00","imageFilename":"24cc7ee4bd0b2a3d6f6cafc6e09c47b1.jpeg","bigImageFilename":"05ef699cabc9ebfedbc6e53ed15a640f.jpeg","tags":["好身材"]},{"title":"准备去运动","id":17918,"date":"2019/1/19 03:50:00","imageFilename":"82576803123efcddb796b5ee24668834.jpeg","bigImageFilename":"f916ad5069dcea44e92e6d86aba76e77.jpeg","tags":["大","好身材"]},{"title":"喝瓶水","id":17919,"date":"2019/1/19 05:28:00","imageFilename":"51ebe9d3ed4f77d3257723276cb98c37.jpeg","bigImageFilename":"1c777b7353cdc57c1d135938f0cf6bbd.jpeg","tags":["大","美腿"]},{"title":"什么街18号","id":17916,"date":"2019/1/19 02:47:00","imageFilename":"53a7b55f8680fb97e1f19ffa2ffb0f98.jpeg","bigImageFilename":"5c3962e8d8b622a081b3862797b53b7d.jpeg","tags":["大","好身材","美腿"]},{"title":"海浪","id":17915,"date":"2019/1/18 15:12:00","imageFilename":"d66346e66c9c055746aebba9040bd7eb.jpeg","bigImageFilename":"16028fd1fd9817894053f6d3a308b796.jpeg","tags":["好身材","美腿"]},{"title":"梦幻之地","id":17917,"date":"2019/1/19 02:50:00","imageFilename":"fac739edf851cff2c0ab43f1e8260970.jpeg","bigImageFilename":"024182cccdb407470600b7cb422c674f.jpeg","tags":["风景"]},{"title":"什么镜头","id":17914,"date":"2019/1/18 10:13:00","imageFilename":"14ec0c93785006eb505f6e63ffe61643.jpeg","bigImageFilename":"534e3224fd1f92a1e741d9ab8be1716e.jpeg","tags":["大"]},{"title":"大学男生寝室","id":17913,"date":"2019/1/18 07:21:00","imageFilename":"6160e672776574ee1087bbfed33fc07c.jpeg","bigImageFilename":"e9537c25e699cd2c165d147604dc17a2.jpeg","tags":["趣图"]},{"title":"好大个的行李箱","id":17912,"date":"2019/1/18 06:03:00","imageFilename":"ca3a4f63148ce99d95f51e2fc8589b93.jpeg","bigImageFilename":"ba01eee53095c1ed7ebbaf29ee98b601.jpeg","tags":["好身材"]},{"title":"来杯热水","id":17911,"date":"2019/1/18 04:54:00","imageFilename":"3e21765636dc166c75ed856624b81d55.jpeg","bigImageFilename":"8c860eade9a9d149eeb4f7ebab167c09.jpeg","tags":["美腿"]},{"title":"烤鸭看起来味道不错","id":17909,"date":"2019/1/18 00:57:00","imageFilename":"8ad287b28a4f1c7ea10238f65d92c54b.jpeg","bigImageFilename":"999c8e349de6e8c6f67bad4e13c1adb6.jpeg","tags":["贵在真实"]},{"title":"看我拍的好不好","id":17910,"date":"2019/1/18 02:01:00","imageFilename":"b86e8fa2a5b11e546e78c371934a4e10.jpeg","bigImageFilename":"a1885fc5bc5b57065791e59bcd00c153.jpeg","tags":["趣图"]},{"title":"外面什么楼","id":17908,"date":"2019/1/17 15:02:00","imageFilename":"6a7c7f85ebe4581b87b32bedde752e13.jpeg","bigImageFilename":"54691a1fd5b760be66a40c245e682752.jpeg","tags":["好身材"]},{"title":"碧海蓝天白云","id":17907,"date":"2019/1/17 15:01:00","imageFilename":"1c43943c840e9c99e1beb78f781b082e.jpeg","bigImageFilename":"dd1c0284cb2bfc1cd0c5e8be911c6a88.jpeg","tags":["好身材","美腿","风景"]},{"title":"手机背面是什么","id":17906,"date":"2019/1/17 12:52:00","imageFilename":"d12959a2dc91800b3327682ffd2ba172.jpeg","bigImageFilename":"c8a589791525b9f19bf021c2c46713ce.jpeg","tags":["好身材"]},{"title":"有点眼晕","id":17904,"date":"2019/1/17 12:13:00","imageFilename":"7bc0cd7e789814b66e9a9cff669f2823.jpeg","bigImageFilename":"d2fe74636948d4583cdde6256302af56.jpeg","tags":["大"]},{"title":"什么水杯","id":17905,"date":"2019/1/17 12:13:00","imageFilename":"3431d9b129b6859c053a427106fa250b.jpeg","bigImageFilename":"1d35bcc195c619296f84a803bfef8f79.jpeg","tags":["在路上"]},{"title":"放松放松","id":17903,"date":"2019/1/17 12:13:00","imageFilename":"0a8fab8bc248fa2e96a41059c73507cc.jpeg","bigImageFilename":"745119acfb1ad98466cd9b77aada4f48.jpeg","tags":["美腿"]},{"title":"图画的怎么样了","id":17902,"date":"2019/1/17 11:53:00","imageFilename":"30da48c7502db51d13717200f2353f9b.jpeg","bigImageFilename":"9b6c24ba397363861ffe8f03f54a0ff9.jpeg","tags":["美腿"]}]}