{"totalPage":66,"total":2356,"page":32,"pageSize":36,"list":[{"title":"什么花","id":17554,"date":"2018/9/19 18:21:00","imageFilename":"cf8c8107145e1b3e13d2a8893405291a.jpeg","bigImageFilename":"75917c814b8eea05b6e324cf136d2060.jpeg","tags":["好身材"]},{"title":"准备出门","id":17543,"date":"2018/9/6 18:04:00","imageFilename":"79ae2e8cedabc2d1f8bf8323fbd15498.jpeg","bigImageFilename":"13283bf99a9cc0a22122c34544bc2a1b.jpeg","tags":["大"]},{"title":"这是什么车","id":17547,"date":"2018/9/13 17:03:00","imageFilename":"04eb43bf4d50beac0352d5211b805480.jpeg","bigImageFilename":"3b5def571e532eb97bb5307b396b18e4.jpeg","tags":["美腿"]},{"title":"文明礼让","id":17529,"date":"2018/9/2 21:26:00","imageFilename":"fbffcac8be427c30088c2b00c287c42c.jpeg","bigImageFilename":"ec6bba68cb0355a7b7a362b77a46e916.jpeg","tags":["在路上","大"]},{"title":"开学啦","id":17540,"date":"2018/9/3 18:30:00","imageFilename":"f13cc1a58b16e37ddd533b01ee496f3b.jpeg","bigImageFilename":"58870eaabf207a6d627e19cdc331439b.jpeg","tags":["在路上"]},{"title":"你选哪一个","id":17526,"date":"2018/9/1 18:27:00","imageFilename":"63ccee64bb002d192bda3e401ce80a14.jpeg","bigImageFilename":"cd2b8fff552c1a410de36aca142e891a.jpeg","tags":["大"]},{"title":"秋天到了","id":17523,"date":"2018/8/31 11:56:00","imageFilename":"066288574caa0b83c81864db27fa8898.jpeg","bigImageFilename":"951ca75edc008983080f06f82a93a1e4.jpeg","tags":["在路上"]},{"title":"这是什么车","id":17517,"date":"2018/8/30 13:05:00","imageFilename":"370bb3c529071f2cb1199017e56095cb.jpeg","bigImageFilename":"6131c9f8e4455d0bc825c6f8d56b9149.jpeg","tags":["在路上","美腿"]},{"title":"什么材质","id":17520,"date":"2018/8/30 13:07:00","imageFilename":"bd3ca632a93714ed43c5f471732705df.jpeg","bigImageFilename":"b0f82d0e5fa1da735dbf743785a7a3e6.jpeg","tags":["好身材"]},{"title":"瑜伽","id":17514,"date":"2018/8/29 22:42:00","imageFilename":"c43c6658e87cfa9a7206dead1ae6397a.jpeg","bigImageFilename":"b37d7dde2433fe42f593bdc936bddd4b.jpeg","tags":["美"]},{"title":"地下凉","id":17511,"date":"2018/8/29 22:35:00","imageFilename":"96571f43ce9601ee738c296408cd218d.jpeg","bigImageFilename":"d4c06c4048d8129d91e834a878e9376a.jpeg","tags":["大"]},{"title":"灯很亮","id":17505,"date":"2018/8/29 22:32:00","imageFilename":"772f6dea7828e8b207d805ba7b637548.jpeg","bigImageFilename":"e74082b98bded18c276d305500713204.jpeg","tags":["大"]},{"title":"准备睡了","id":17502,"date":"2018/8/27 08:53:00","imageFilename":"a982ef3af05cf5ef7e6f1b109a59d957.jpeg","bigImageFilename":"7328de8d8ec13804520ca5fc039f938d.jpeg","tags":["大","美腿"]},{"title":"什么包","id":17492,"date":"2018/8/24 10:33:00","imageFilename":"a120e3bb1beeffa0ebca626ae77e8ae2.jpeg","bigImageFilename":"2aa30c614439e78ad8d7fdffc3909769.jpeg","tags":["大","美腿"]},{"title":"午后阳光","id":17508,"date":"2018/8/29 22:34:00","imageFilename":"afe072ea7c891aa5d5f2b6539cae2761.jpeg","bigImageFilename":"a03ffd94235fcfc1211c6834d2596629.jpeg","tags":["大"]},{"title":"粉色毛衣","id":17485,"date":"2018/8/13 18:21:00","imageFilename":"dd1568392657bfa24f1359aff9ffc578.jpeg","bigImageFilename":"83435eb6536d22d88a216c84dea12848.jpeg","tags":["美腿"]},{"title":"满园绿色","id":17479,"date":"2018/8/11 20:28:00","imageFilename":"b3b26425a54edf0c6c34cb3d4254fdb6.jpeg","bigImageFilename":"030509825c5c56faa25dd810950bcd20.jpeg","tags":["好身材"]},{"title":"碧海蓝天","id":17482,"date":"2018/8/11 20:30:00","imageFilename":"275a02b02c9e1237e9752b3f7e2caf9f.jpeg","bigImageFilename":"f0e8779af8a76fb28bda62aaa5dc24af.jpeg","tags":["大"]},{"title":"夏天","id":17476,"date":"2018/8/11 13:44:00","imageFilename":"383dc40ce488578749c5c919adea18b1.jpeg","bigImageFilename":"1c420518e245d5ce0858ac7ab74c36d9.jpeg","tags":["在路上"]},{"title":"斑马裙","id":17468,"date":"2018/8/11 13:34:00","imageFilename":"09a4c35cf496b03c401197e941627cb8.jpeg","bigImageFilename":"033584ab867a2a124ef48e072f0a45fd.jpeg","tags":["大"]},{"title":"几号线","id":17473,"date":"2018/8/11 13:37:00","imageFilename":"0b5fbcf544ce25f8249d0e9d144fc333.jpeg","bigImageFilename":"2e387d2b7ed29749007d653ae2481906.jpeg","tags":["在路上","美腿"]},{"title":"不错的泳池","id":17462,"date":"2018/8/8 22:20:00","imageFilename":"7da655354a658d24f8b8a829e4c2de3f.jpeg","bigImageFilename":"87ca0d836cac55dc2c11f675de8b5a13.jpeg","tags":["大","风景"]},{"title":"一抹红","id":17465,"date":"2018/8/10 12:31:00","imageFilename":"3fea0d6de310f81ee41930c45cc4c002.jpeg","bigImageFilename":"4a0d6929434c98f98a174e52e8e3cab9.jpeg","tags":["在路上"]},{"title":"不错的衣服","id":17456,"date":"2018/8/8 10:26:00","imageFilename":"077ca14528532167259c477761509f97.jpeg","bigImageFilename":"627617ce5600d6d3306ee9a9e9c353ca.jpeg","tags":["好身材"]},{"title":"会修手机","id":17459,"date":"2018/8/8 13:00:00","imageFilename":"331b7f6662d41056742dbde0c4e3ac87.jpeg","bigImageFilename":"61a450fe57f25828690f89e9841f86d9.jpeg","tags":["大"]},{"title":"热了","id":17450,"date":"2018/8/7 16:14:00","imageFilename":"6e21c486ec01f76e994c0d8bbccd1beb.jpeg","bigImageFilename":"b2faf1f5c27aaf725e6635471ed57c82.jpeg","tags":["好身材"]},{"title":"准备出门","id":17453,"date":"2018/8/7 17:44:00","imageFilename":"af71aa723b99db5b2f2e4a0974a96c75.jpeg","bigImageFilename":"d376dc77343695a97f55060469f21f79.jpeg","tags":["贵在真实"]},{"title":"你选哪一个","id":17447,"date":"2018/8/6 16:26:00","imageFilename":"e98dbad28b61bec0e31caaffb15bba4c.jpeg","bigImageFilename":"f9daee9a1492f36ab1ab7bd5d70fdd47.jpeg","tags":["好身材"]},{"title":"很凉快","id":17444,"date":"2018/8/6 16:23:00","imageFilename":"f30f693aefcc027d9d3ab48f0d9ceed6.jpeg","bigImageFilename":"4f8e52d062b4de3d5642c6762dc537ea.jpeg","tags":["在路上"]},{"title":"这是哪里","id":17437,"date":"2018/8/3 22:22:00","imageFilename":"39e07ee7012bf61326ad0c8455f48f53.jpeg","bigImageFilename":"f423d8eeed545533226e0550d1f75bdf.jpeg","tags":["美腿"]},{"title":"星巴克","id":17434,"date":"2018/8/3 22:20:00","imageFilename":"ec5c2251d2b2264f5d83796325ad1fbb.jpeg","bigImageFilename":"e92c81933ece6a9642c3d6e9d3747e85.jpeg","tags":["好身材","美腿"]},{"title":"干杯","id":17431,"date":"2018/8/3 22:17:00","imageFilename":"67aa56e087ba32675f5866ed969f2f2a.jpeg","bigImageFilename":"1ffb51749c9a6cd16f6578ddef48984f.jpeg","tags":["好身材"]},{"title":"碧海蓝天","id":17440,"date":"2018/8/3 22:24:00","imageFilename":"377ffabae64d3c335b9d314ddfea5cb7.jpeg","bigImageFilename":"2ff3b83632ad55d8bfa83ba906d07982.jpeg","tags":["好身材","风景"]},{"title":"什么材质","id":17422,"date":"2018/8/3 22:12:00","imageFilename":"43dcb133241fadfeb2696aba85a32adc.jpeg","bigImageFilename":"1eae023dddc233885140bbb3bcd46913.jpeg","tags":["好身材"]},{"title":"高","id":17428,"date":"2018/8/3 22:16:00","imageFilename":"f98418a1a88ef1593eab65dff087a2c9.jpeg","bigImageFilename":"6e1c4195ba0fb7c29c9aacddf1575415.jpeg","tags":["大"]},{"title":"缆车","id":17425,"date":"2018/8/3 22:14:00","imageFilename":"ef80dd397e693d18b4fa3ff18034cf05.jpeg","bigImageFilename":"cc489154a975a33a98ac5c3085d745a4.jpeg","tags":["大"]}]}