{"totalPage":66,"total":2356,"page":36,"pageSize":36,"list":[{"title":"手里拿的什么","id":16928,"date":"2018/4/27 11:33:00","imageFilename":"6a032169a0ab6ff2aa2d702eacfeb09c.jpeg","bigImageFilename":"f9f310c7008816f4ebdb58add8a05eeb.jpeg","tags":["好身材"]},{"title":"画的怎样","id":16931,"date":"2018/4/27 15:46:00","imageFilename":"fa8a2129df628fb5b4186fbdd81036cd.jpeg","bigImageFilename":"10be7458fdff74aba7086b0ac1cc5e0b.jpeg","tags":["好身材"]},{"title":"俏皮","id":16922,"date":"2018/4/27 11:22:00","imageFilename":"96a9d877cba2bc1b2f569877adf7978a.jpeg","bigImageFilename":"2fb74493f9d6a04e4e36c0d0bd3d9026.jpeg","tags":["好身材"]},{"title":"休息一下","id":16925,"date":"2018/4/27 11:32:00","imageFilename":"bf286800cb9032b7a015f0c34d272811.jpeg","bigImageFilename":"4d6249357bfab7a1eda30bb0488534c2.jpeg","tags":["大"]},{"title":"影","id":16916,"date":"2018/4/26 12:57:00","imageFilename":"a5f45595803453f75170ea3999da7453.jpeg","bigImageFilename":"bf1ba696ec0f5f19b72d9d7beabbd5ab.jpeg","tags":["好身材"]},{"title":"天热了","id":16912,"date":"2018/4/26 09:35:00","imageFilename":"fdba92974163b7cac753a75cfe8d0977.jpeg","bigImageFilename":"95b8671d0545417fbb271fad374ca315.jpeg","tags":["美腿"]},{"title":"黑衣白裙","id":16903,"date":"2018/4/24 13:09:00","imageFilename":"e66a286b0e5394c1cafee4992903a55a.jpeg","bigImageFilename":"983d39421b62c02a15ebea16ac52f470.jpeg","tags":["贵在真实"]},{"title":"自由自在","id":16919,"date":"2018/4/26 17:58:00","imageFilename":"253e59a3f390a333abc8ecb034dda865.jpeg","bigImageFilename":"a1626bd5a3d3990cfa2a5b840f66b84f.jpeg","tags":["美腿"]},{"title":"做个面膜","id":16909,"date":"2018/4/24 18:34:00","imageFilename":"1343100065327bcbe4c6f3d5e06674b6.jpeg","bigImageFilename":"c8aa3a44622d6035485b19697fc8fe0f.jpeg","tags":["大"]},{"title":"暖气开着没","id":16900,"date":"2018/4/23 18:35:00","imageFilename":"07d8661fe988a73e4031e687dd2a6f47.jpeg","bigImageFilename":"e7b34797f9154de2ba9ab95e8e4d48ba.jpeg","tags":["美腿"]},{"title":"旁边是什么","id":16897,"date":"2018/4/23 18:27:00","imageFilename":"86fe622bec691ab71732937ba50640e7.jpeg","bigImageFilename":"2a345842474fbbbe3a2bd8a7f79d05c4.jpeg","tags":["大"]},{"title":"早上好","id":16891,"date":"2018/4/23 10:00:00","imageFilename":"dfba64756c7fa51e61a44c4541eb2f1c.jpeg","bigImageFilename":"e5dce40bd14a8999ab71903663dd2ade.jpeg","tags":["好身材","美腿"]},{"title":"早上有点凉","id":16894,"date":"2018/4/23 10:04:00","imageFilename":"20c18ff3578afa645ece26128067738d.jpeg","bigImageFilename":"6ac7994aad813be54947145bb3b7f0c5.jpeg","tags":["大"]},{"title":"什么车","id":16885,"date":"2018/4/21 17:38:00","imageFilename":"b1118a2b249d2b556faacfd1ee8d5e56.jpeg","bigImageFilename":"c88273eba6d7c48eb4557bfbb467e512.jpeg","tags":["美腿"]},{"title":"出发","id":16888,"date":"2018/4/21 17:41:00","imageFilename":"492d808852fb37a80d01ec15b5b438f8.jpeg","bigImageFilename":"64a18e5ae30d5ee5f6b93c8cf0465f50.jpeg","tags":["在路上"]},{"title":"滤镜or灯光","id":16879,"date":"2018/4/20 18:16:00","imageFilename":"a9665471fe1a670c2bf243477e9a7b76.jpeg","bigImageFilename":"caedbfb2e6206f07175190fa32976672.jpeg","tags":["大"]},{"title":"准备出发","id":16873,"date":"2018/4/20 09:35:00","imageFilename":"33da8f247644acec5e30359400d4ddb8.jpeg","bigImageFilename":"d6e0999c9574565bcb3cc6495b72ec07.jpeg","tags":["美腿"]},{"title":"快穿上，怪冷的","id":16882,"date":"2018/4/21 17:37:00","imageFilename":"6f2ac63d243a172254416f01eaece7c9.jpeg","bigImageFilename":"7b64e6da2ee8aae22e8407335e6fa51c.jpeg","tags":["大"]},{"title":"健身小目标达成","id":16870,"date":"2018/4/18 12:58:00","imageFilename":"022fed5d4ab18ddffd94593529c49a8e.jpeg","bigImageFilename":"d825bb675b0d87e28679b2faef81aa87.jpeg","tags":["大"]},{"title":"亮","id":16876,"date":"2018/4/20 09:35:00","imageFilename":"4d3f4528c2c85e380e35733230960f5e.jpeg","bigImageFilename":"cd1b25535358978db86de3b475075848.jpeg","tags":["贵在真实"]},{"title":"瑜伽课","id":16866,"date":"2018/4/13 16:33:00","imageFilename":"0218d029b0aef58187fd068690226fa9.jpeg","bigImageFilename":"bb7ec2f02248571df8a0fa8941545a7c.jpeg","tags":["好身材"]},{"title":"什么相机","id":16863,"date":"2018/4/13 13:57:00","imageFilename":"a43766cc608aaf98b02f66810347d101.jpeg","bigImageFilename":"691d7d31fd25d6b70a66dd77f45363cc.jpeg","tags":["大"]},{"title":"链子好长","id":16852,"date":"2018/4/13 11:44:00","imageFilename":"e77cc066e2dcbec0879df81b6d6a1a78.jpeg","bigImageFilename":"af75ec71a9a57a302964fb0c7531abbf.jpeg","tags":["大"]},{"title":"累了","id":16849,"date":"2018/4/13 11:35:00","imageFilename":"b6fda331d4c28ddf27d7e0143fae23bc.jpeg","bigImageFilename":"82a04239f64ed866ea7a16fc28923128.jpeg","tags":["贵在真实"]},{"title":"睡前喝点","id":16846,"date":"2018/4/12 13:26:00","imageFilename":"3ea332e1e4b6b800641479645112df85.jpeg","bigImageFilename":"b867faa843c3a4482b9529833d44a794.jpeg","tags":["贵在真实"]},{"title":"大神","id":16837,"date":"2018/4/9 17:22:00","imageFilename":"66dd65b0fce717b793b4e44568aa6b5f.jpeg","bigImageFilename":"733be322f1fcbbffc94d0d782f50853c.jpeg","tags":["趣图"]},{"title":"墙破了","id":16843,"date":"2018/4/12 10:02:00","imageFilename":"8151511717c2acb3c4fe2060f0cae712.jpeg","bigImageFilename":"3074e7f997fd13b217741c594018c936.jpeg","tags":["好身材"]},{"title":"琴声美不美","id":16840,"date":"2018/4/11 14:25:00","imageFilename":"7f6994913267e82487b6d793be2eed65.jpeg","bigImageFilename":"0bb997dd7f255a158ee2fe1b78d751be.jpeg","tags":["美"]},{"title":"阳光","id":16829,"date":"2018/4/8 13:02:00","imageFilename":"baa94e01d5a72f06cc0f5e6d0cc9bcf7.jpeg","bigImageFilename":"700fd7cdffd0f8badf25337b17d216c1.jpeg","tags":["大","好身材"]},{"title":"一直想学游泳","id":16833,"date":"2018/4/8 16:40:00","imageFilename":"587f4027f47b77919f6cd71d29652bfa.jpeg","bigImageFilename":"07129d318aac3fa32e9acd2bfe79dcab.jpeg","tags":["好身材"]},{"title":"小风扇","id":16825,"date":"2018/4/6 19:15:00","imageFilename":"05af92c46a71cd22ad44ad2a6ba85ca5.jpeg","bigImageFilename":"25395760932748c25299a6b5f01a499d.jpeg","tags":["贵在真实"]},{"title":"有点瘦","id":16814,"date":"2018/4/5 15:06:00","imageFilename":"2941d016e8c3e973e70839299d5b33a7.jpeg","bigImageFilename":"5a7a22a0ef19c65f5865018b87ff13e6.jpeg","tags":["大"]},{"title":"光","id":16810,"date":"2018/4/5 14:56:00","imageFilename":"520eed86c10e971f300002e61e70f228.jpeg","bigImageFilename":"fe7c5d0fdf8398000b52843b456b44e5.jpeg","tags":["好身材"]},{"title":"是纹身么","id":16802,"date":"2018/4/1 17:21:00","imageFilename":"ee53e28f127ff4f9a8962a92692a6936.jpeg","bigImageFilename":"4a744e1539732de3e2ec7f6a3c8c8757.jpeg","tags":["好身材"]},{"title":"去踏青","id":16817,"date":"2018/4/5 15:10:00","imageFilename":"7635c5f9fba6c8df947c1ef7aeb69605.jpeg","bigImageFilename":"6307e82d192d3418f9e7a91784b4d9d6.jpeg","tags":["在路上","好身材"]},{"title":"看的什么","id":16800,"date":"2018/4/1 17:13:00","imageFilename":"44bf3fabf50e6c673f4778bb73c29d68.jpeg","bigImageFilename":"8eecb0b74adacca4dbd2b799f2a23302.jpeg","tags":["美腿"]}]}