{"totalPage":66,"total":2356,"page":50,"pageSize":36,"list":[{"title":"东西掉了","id":7427,"date":"2017/1/7 17:30:00","imageFilename":"ec7f5249f51a019a38324cd3c75cb394.jpeg","bigImageFilename":"077d76e75503a1972878cea5dc6ee623.jpeg","tags":["在路上","贵在真实"]},{"title":"快点走","id":7424,"date":"2017/1/7 17:28:00","imageFilename":"9f1b834dae95515dfb5705159577fc5a.jpeg","bigImageFilename":"605ba6dd44ec080c7679b50a132a7a7f.jpeg","tags":["在路上","好身材","美腿","贵在真实"]},{"title":"补妆","id":7421,"date":"2017/1/7 17:26:00","imageFilename":"206c4b3a401aed6b62c5abad55a46a4b.jpeg","bigImageFilename":"76c647daa2847385e6914805946f678a.jpeg","tags":["好身材","贵在真实"]},{"title":"喝杯咖啡","id":7417,"date":"2017/1/7 17:24:00","imageFilename":"98052246e1559a747069e1c119fea399.jpeg","bigImageFilename":"b56fe31dc02be8a846e57285aff53ee8.jpeg","tags":["大","好身材"]},{"title":"牛仔短裤有点短","id":7414,"date":"2017/1/7 17:22:00","imageFilename":"bcd59fa4b87524ccf19e1f3db2e504ec.jpeg","bigImageFilename":"925f2e603df25eead01541a08ff67162.jpeg","tags":["在路上","美腿","贵在真实"]},{"title":"表填好了","id":7411,"date":"2017/1/7 17:19:00","imageFilename":"37f7317d6f1e98157e4243a38c964517.jpeg","bigImageFilename":"b8a0ae1cc5e6020f984674e431007426.jpeg","tags":["美腿","贵在真实"]},{"title":"要填好多表","id":7408,"date":"2017/1/7 17:17:00","imageFilename":"94eeec2efab1fbee1bd76e91737e3b1f.jpeg","bigImageFilename":"1904c67747c19ac18aee3371d7e78fa2.jpeg","tags":["大","贵在真实"]},{"title":"今晚就它了","id":7402,"date":"2017/1/7 16:49:00","imageFilename":"49160f3497f7cb2147eeb1d9757b9e8d.jpeg","bigImageFilename":"6c7b8888d53bf40d17a9766a2fa16967.jpeg","tags":["贵在真实","趣图"]},{"title":"候车室","id":7405,"date":"2017/1/7 16:50:00","imageFilename":"0cd4ab80db0b9a47bdfb620dfd8be651.jpeg","bigImageFilename":"a252f2bb3bd24cc8d57959e3435e5fa4.jpeg","tags":["在路上","贵在真实"]},{"title":"先休息一下","id":7396,"date":"2017/1/7 16:44:00","imageFilename":"6fd97743a0f1a30c3930decd6384061c.jpeg","bigImageFilename":"3b7d85ec3eb99196c80871aaf996590d.jpeg","tags":["好身材","贵在真实"]},{"title":"准备吃饭","id":7399,"date":"2017/1/7 16:47:00","imageFilename":"0cab6f02102bd2ace3f90fa2a7fc45c9.jpeg","bigImageFilename":"472c117cfa72548d0e0d552858fe7c2f.jpeg","tags":["大","贵在真实"]},{"title":"新的一年继续健身","id":7392,"date":"2017/1/7 16:22:00","imageFilename":"093a188bc66e4e553445b30a5bbccb4a.jpeg","bigImageFilename":"dca2d25af04b4b659f9f449a8291e3b7.jpeg","tags":["好身材"]},{"title":"影子","id":7377,"date":"2016/12/26 13:27:00","imageFilename":"d9378704fb31773bfd4494bf1a0e40fe.jpeg","bigImageFilename":"e53f0d723065ed7d2ac2ef91bd0e5770.jpeg","tags":["大","好身材"]},{"title":"出发","id":7385,"date":"2017/1/3 15:12:00","imageFilename":"aae86fddb3df1c75a2e7691ae88486bf.jpeg","bigImageFilename":"fcf814c66e2ef1ba67c063d2f2ea897d.jpeg","tags":["在路上"]},{"title":"准备出发","id":7367,"date":"2016/12/25 17:02:00","imageFilename":"29c23b6f9de7b34e37fe66125e5b5d11.jpeg","bigImageFilename":"b3b43628e01c8329baf0f49df3228594.jpeg","tags":["好身材"]},{"title":"蓝天白云","id":7364,"date":"2016/12/25 17:00:00","imageFilename":"ac592b1b1db0ea9378401c1e9cd7f3ef.jpeg","bigImageFilename":"4c534c71a77406e4fc412bf7228f395c.jpeg","tags":["好身材"]},{"title":"物以类聚人以群分","id":7357,"date":"2016/12/19 08:53:00","imageFilename":"bb92953a2efde99eaa5fab55240bed83.jpeg","bigImageFilename":"898882254a380257d49ae1ae0f350566.jpeg","tags":["大"]},{"title":"想念夏天","id":7361,"date":"2016/12/25 16:00:00","imageFilename":"0137f5c59c951f3465e1448c04269efb.jpeg","bigImageFilename":"d6232cfc208c1bd858b6a418292ad26d.jpeg","tags":["大"]},{"title":"开了一下午会","id":7354,"date":"2016/12/8 10:22:00","imageFilename":"ccd33cf26f708a9c152f6bb9b0256d59.jpeg","bigImageFilename":"35a88f8e5a2065c4fa558fa5a577bdbd.jpeg","tags":["美腿","贵在真实"]},{"title":"来感觉了","id":7344,"date":"2016/12/2 13:06:00","imageFilename":"2c39d305d7c4fc24982b82a6c299cce5.jpeg","bigImageFilename":"ef44e8fa8507ae1dfcee36e5a45b2245.jpeg","tags":["好身材","美"]},{"title":"这天气有点冷吧","id":7341,"date":"2016/12/1 14:01:00","imageFilename":"0df76de986bc2dd39634ff1f61fd2834.jpeg","bigImageFilename":"d7ff9cede15209bc01dc9030c91288c6.jpeg","tags":["在路上","美腿"]},{"title":"差点被发现","id":7330,"date":"2016/11/29 13:10:00","imageFilename":"47323720209d47a82dcbce65acae527a.jpeg","bigImageFilename":"2b693d9dd776b0fe18d438b2166086a0.jpeg","tags":["在路上","好身材"]},{"title":"你选哪一个","id":7325,"date":"2016/11/25 12:19:00","imageFilename":"47598421a2c94cf10232a16b307581be.jpeg","bigImageFilename":"2a3c848eaf43031e99e7bc38547d2eb8.jpeg","tags":["好身材","美腿"]},{"title":"不错的毛衣","id":7323,"date":"2016/11/24 17:28:00","imageFilename":"e46f38e74fe635eee0d733527c77afe9.jpeg","bigImageFilename":"9f229d8ea72dc33ff9a1b398855aaed7.jpeg","tags":["大"]},{"title":"又玩手机","id":7294,"date":"2016/11/13 14:35:00","imageFilename":"52b08ffd014d9ae137d8921711b56175.jpeg","bigImageFilename":"a13676a76b5d6700ae08b00433ff97cc.jpeg","tags":["美腿"]},{"title":"xiuer","id":7297,"date":"2016/11/14 09:37:00","imageFilename":"7b21b4c27a88a24a981b79be38488244.jpeg","bigImageFilename":"45160c801ca38994844075b32a2c249b.jpeg","tags":["美"]},{"title":"什么手机","id":7280,"date":"2016/11/6 11:52:00","imageFilename":"fa7a61f6cae0b446a14931c5031d6c54.jpeg","bigImageFilename":"db7b6a29ed10fa2e65112a4dacacb6ea.jpeg","tags":["好身材","美腿"]},{"title":"绿色","id":7291,"date":"2016/11/13 10:52:00","imageFilename":"47aae7b8c94bc27ceaf602e056355d9a.jpeg","bigImageFilename":"f91e7571fdf19c0723b175e0bda4cba6.jpeg","tags":["在路上","美腿"]},{"title":"好久没打网球了","id":7278,"date":"2016/11/6 11:52:00","imageFilename":"a0732d1935dfbdcf531c654b272ab8cc.jpeg","bigImageFilename":"d42f482acefb971e36f4ec2bced8ec83.jpeg","tags":["美腿"]},{"title":"我最爱去的麦当劳","id":7276,"date":"2016/11/6 11:46:00","imageFilename":"eeb254049d100d2eb5408680da057713.jpeg","bigImageFilename":"f61cbf2552e5e170e5e4ade67c4d81ec.jpeg","tags":["好身材"]},{"title":"后面是什么画","id":7266,"date":"2016/11/3 15:38:00","imageFilename":"fcf6422cb2ccc7159389f4e13921b005.jpeg","bigImageFilename":"8d0d301e077a120f0675cdd53ee4a889.jpeg","tags":["美腿"]},{"title":"好舒服的床","id":7242,"date":"2016/11/2 20:34:00","imageFilename":"de08f0b4c9f5d935f855a6ea682a581b.jpeg","bigImageFilename":"74dc5cbe44ea087f7c2bc81a3172b082.jpeg","tags":["美腿"]},{"title":"你选哪一个","id":7045,"date":"2016/9/24 10:30:00","imageFilename":"4bf0ab6f5b77a2a985d4d57ca598ce2b.jpeg","bigImageFilename":"be92ea65651d2ce6d62eac9673abc9fe.jpeg","tags":["贵在真实"]},{"title":"IPHONE7到了","id":6996,"date":"2016/9/16 18:26:00","imageFilename":"2dcad6ab5a6a11c1bb3f77a7160848ca.jpeg","bigImageFilename":"0579779278c89fa2bdf27742857c80d3.jpeg","tags":["贵在真实"]},{"title":"车库门前不要停留","id":7019,"date":"2016/9/20 22:55:00","imageFilename":"52c16546fa5c9e2785147c6318dd822b.jpeg","bigImageFilename":"70a464bbb543696c02c3d37ab4645628.jpeg","tags":["在路上","美腿"]},{"title":"健身装备","id":6991,"date":"2016/9/16 14:07:00","imageFilename":"c44651621d5171febc037b3ccd06a0a7.jpeg","bigImageFilename":"e1767306fa8999448cb51b25a84e5fe6.jpeg","tags":["大"]}]}