{"totalPage":66,"total":2356,"page":29,"pageSize":36,"list":[{"title":"什么展览","id":17767,"date":"2018/12/25 05:01:00","imageFilename":"f9106d4ea4b720fc99e1c62c82e75baf.jpeg","bigImageFilename":"c84c184060650fea4c8f8865933f84cc.jpeg","tags":["好身材"]},{"title":"山楂","id":17747,"date":"2018/12/22 13:11:00","imageFilename":"5c96aa278e809e08ddaeff67ce8ec037.jpeg","bigImageFilename":"b0697c876bae53f712a52ef997fa4654.jpeg","tags":["大"]},{"title":"晚霞","id":17746,"date":"2018/12/22 09:03:00","imageFilename":"08303ad58fbaa329080d2e5aa5aa8771.jpeg","bigImageFilename":"592adb6bdd6b53335adedc853ea8c26e.jpeg","tags":["大","美腿"]},{"title":"周末踢球","id":17745,"date":"2018/12/22 09:01:00","imageFilename":"e69f7c952f24c232db65882345d28836.jpeg","bigImageFilename":"adf65f201b4fad1064ec7976d97c4913.jpeg","tags":["好身材","美腿"]},{"title":"大鞋子","id":17744,"date":"2018/12/22 06:50:00","imageFilename":"91011aa265de7ef0fc713347467fd586.jpeg","bigImageFilename":"3d731250594c9ff2b8e7e72f7ac9ac0f.jpeg","tags":["大","好身材"]},{"title":"有力气","id":17743,"date":"2018/12/22 06:50:00","imageFilename":"91011aa265de7ef0fc713347467fd586.jpeg","bigImageFilename":"3d731250594c9ff2b8e7e72f7ac9ac0f.jpeg","tags":["好身材"]},{"title":"多重的哑铃","id":17742,"date":"2018/12/22 06:48:00","imageFilename":"91011aa265de7ef0fc713347467fd586.jpeg","bigImageFilename":"3d731250594c9ff2b8e7e72f7ac9ac0f.jpeg","tags":["大"]},{"title":"产自北海道","id":17741,"date":"2018/12/21 05:38:00","imageFilename":"88d05fb1c8249f64763eeb8028e1976f.jpeg","bigImageFilename":"411f682d778a59610029cfc2489b6b8e.jpeg","tags":["大"]},{"title":"共创和谐社会","id":17757,"date":"2018/12/22 13:42:00","imageFilename":"0110e37f64b5996eee374ad69c077455.jpeg","bigImageFilename":"b35f5d551fb043c89498b16809d45d76.jpeg","tags":["在路上","美腿"]},{"title":"吊坠不错","id":17740,"date":"2018/12/21 05:38:00","imageFilename":"5e885d8d4591f2626706126d6ee36e62.jpeg","bigImageFilename":"60c75647480aa530b4177a28578b3e6d.jpeg","tags":["大"]},{"title":"在这里吗","id":17756,"date":"2018/12/22 13:40:00","imageFilename":"16790455cb4bf4855dfed15c738d0ed6.jpeg","bigImageFilename":"251063ca2f7d2cc0c7a5e723dfa13649.jpeg","tags":["美腿","贵在真实"]},{"title":"天亮了","id":17754,"date":"2018/12/22 13:38:00","imageFilename":"aae6fff4a1dad43aa9e1895c6c80a17b.jpeg","bigImageFilename":"a0272510f59019b680c9356af2670ebf.jpeg","tags":["美腿"]},{"title":"烧点开水","id":17755,"date":"2018/12/22 13:39:00","imageFilename":"273668bf2df4436449a8b04776fa6601.jpeg","bigImageFilename":"69173ee9f542974982eeb8cb992fe328.jpeg","tags":["美腿"]},{"title":"新鞋子","id":17753,"date":"2018/12/22 13:32:00","imageFilename":"7d687325698fce87210461bd99139566.jpeg","bigImageFilename":"3f0c8a82658970ee95beb80a9fa8e2f3.jpeg","tags":["美腿"]},{"title":"有点长","id":17752,"date":"2018/12/22 13:26:00","imageFilename":"7cca8073229306216aa717575e913971.jpeg","bigImageFilename":"8e4a894c5051a0ae69a6eb51f7e945ad.jpeg","tags":["美腿"]},{"title":"好长的队","id":17751,"date":"2018/12/22 13:21:00","imageFilename":"757d6b95a8c0913621bf64edaf6ce4a3.jpeg","bigImageFilename":"e520f4c7ad5dd03d9688fe0555e4e25d.jpeg","tags":["在路上","美腿","贵在真实"]},{"title":"什么节目","id":17750,"date":"2018/12/22 13:17:00","imageFilename":"3526ae96da731b21b7f097abf10d49f0.jpeg","bigImageFilename":"825e1fceacfb0fb73ada7079222110fc.jpeg","tags":["大"]},{"title":"有点小","id":17749,"date":"2018/12/22 13:13:00","imageFilename":"f1324aa77444168232a76cd8d6ad0ba5.jpeg","bigImageFilename":"7d94ef29a4ede11aa7b781309c20cfd3.jpeg","tags":["贵在真实"]},{"title":"早","id":17737,"date":"2018/12/21 02:06:00","imageFilename":"a51f69073ef8728945e3dfa560f056e8.jpeg","bigImageFilename":"4309c13ad572dd8615ff3eea4e4bdd53.jpeg","tags":["美腿"]},{"title":"凉不凉","id":17739,"date":"2018/12/21 02:11:00","imageFilename":"b33e49f96eaf42ebe90bc8899ca378d3.jpeg","bigImageFilename":"0bb92787a1718e152300e8ba43b9b9c1.jpeg","tags":["好身材","美腿"]},{"title":"什么项目","id":17738,"date":"2018/12/21 02:10:00","imageFilename":"d61db1fab8d54dc30e447e8b0ed77d05.jpeg","bigImageFilename":"4e95472e392edcff00239806f33365a6.jpeg","tags":["大","好身材"]},{"title":"好多气球","id":17736,"date":"2018/12/20 10:09:00","imageFilename":"d64370892d0b01d200001dc317a89f2d.jpeg","bigImageFilename":"5c30cd74f4331f0157b5b23fc3d56ff5.jpeg","tags":["大"]},{"title":"温暖的灯光","id":17735,"date":"2018/12/20 06:26:00","imageFilename":"ddbb43614127712981fa276f2aa38b90.jpeg","bigImageFilename":"6a2ae5d671b41e03272cafcc6cb46895.jpeg","tags":["好身材"]},{"title":"早上好","id":17734,"date":"2018/12/20 00:48:00","imageFilename":"27c3a021702ded8569f8cb66ed52bc86.jpeg","bigImageFilename":"39a65c3c898f92c68c61e18157ed039a.jpeg","tags":["好身材"]},{"title":"早，巴黎","id":17733,"date":"2018/12/20 00:47:00","imageFilename":"cdc0dec725d227800c851a5e98cf15d7.jpeg","bigImageFilename":"b89bbd5ac5e7b24b4135751e0b534f2a.jpeg","tags":["美腿"]},{"title":"好亮","id":17731,"date":"2018/12/19 09:03:00","imageFilename":"188543c1c53ba5fe60cce95dddd0c6ab.jpeg","bigImageFilename":"9812cc6af2de6a59c524f1253135f5c6.jpeg","tags":["好身材"]},{"title":"去游泳","id":17732,"date":"2018/12/20 00:47:00","imageFilename":"951bd70a81eb3e8770f8780f53f45e47.jpeg","bigImageFilename":"de234c9d4235127de84a8c8047bd9eae.jpeg","tags":["大"]},{"title":"凉不凉","id":17730,"date":"2018/12/19 08:03:00","imageFilename":"67a87cab0bd41b7ad85afe05c58c01f6.jpeg","bigImageFilename":"173e065198a3634297c1e42a34efc7d8.jpeg","tags":["美腿"]},{"title":"壁纸不错","id":17729,"date":"2018/12/19 07:46:00","imageFilename":"33caa1ffaca859133f1b9a952e316f11.jpeg","bigImageFilename":"51dc372ca1a916ab0e036575309744fd.jpeg","tags":["贵在真实"]},{"title":"Going Up","id":17728,"date":"2018/12/19 05:28:00","imageFilename":"85afd5677f0f0d933d3221231165008f.jpeg","bigImageFilename":"2b8978526f3dca545eb08ea64747c539.jpeg","tags":["在路上","大"]},{"title":"风扇","id":17727,"date":"2018/12/19 05:26:00","imageFilename":"9e46effb1a14957620931bc83d6e8fca.jpeg","bigImageFilename":"a6186ddb617c162c6bf517585a8ed6df.jpeg","tags":["好身材"]},{"title":"黄气球","id":17726,"date":"2018/12/19 03:03:00","imageFilename":"c036e8d428baf946016a248b59c16a0f.jpeg","bigImageFilename":"ee4b0cf3f7c118e1477965c7372f0397.jpeg","tags":["大"]},{"title":"窗外","id":17725,"date":"2018/12/18 10:02:00","imageFilename":"7ffea5006a573fa87186e5f865c02536.jpeg","bigImageFilename":"cf085d5571c44760056436dab4b429f2.jpeg","tags":["贵在真实"]},{"title":"温泉季","id":17723,"date":"2018/12/18 05:00:00","imageFilename":"c7d1c6951958ab45bc316cef81a0e642.jpeg","bigImageFilename":"06507e3be85b2195d9226bdc8410d7ef.jpeg","tags":["好身材"]},{"title":"碧海蓝天","id":17724,"date":"2018/12/18 07:20:00","imageFilename":"282f5976ddf0b6b3a851c1abab6cda51.jpeg","bigImageFilename":"489f5675a58abe111b56e802cbe223ad.jpeg","tags":["风景"]},{"title":"什么植物","id":17722,"date":"2018/12/18 04:57:00","imageFilename":"8768f0a2dacbca100cf5888850ab9e1d.jpeg","bigImageFilename":"fa1326a1125ca324c0011ebe31cca8af.jpeg","tags":["好身材"]}]}