{"totalPage":66,"total":2356,"page":7,"pageSize":36,"list":[{"title":"风","id":18541,"date":"2021/2/20 15:14:00","imageFilename":"fc46b2c399f2c8e0ecbb352e75123a28.jpeg","bigImageFilename":"a464b4a793714c4d28ef850c542c7b0c.jpeg","tags":["在路上","趣图"]},{"title":"背影","id":18540,"date":"2021/2/20 15:12:00","imageFilename":"e4e54c1af844a66b700a61529405d584.jpeg","bigImageFilename":"072c3d5ee57b269b0bb93a5ca1363fc7.jpeg","tags":["在路上","好身材"]},{"title":"回眸","id":18539,"date":"2021/2/20 15:11:00","imageFilename":"dce58b0128e299b8fa0a64c1fe312b7f.jpeg","bigImageFilename":"f541e0fa0997f2646b17f505eb4d3da3.jpeg","tags":["好身材","美腿"]},{"title":"袜子破了","id":18537,"date":"2021/2/20 15:10:00","imageFilename":"006defc25591090cf8bf060ff132d2fa.jpeg","bigImageFilename":"98b594ef815b7858935ee9961c8a17df.jpeg","tags":["美腿"]},{"title":"小憩","id":18538,"date":"2021/2/20 15:11:00","imageFilename":"ae9f4ac136cc5c9b932435d673418038.jpeg","bigImageFilename":"51bc28d9b36d40658311bc7610a93279.jpeg","tags":["好身材"]},{"title":"夏天真好","id":18536,"date":"2021/2/20 15:09:00","imageFilename":"fd4bcd4143e621e7b501b528a2767ad3.jpeg","bigImageFilename":"4534aa442d49a8a4be7368f6d34cd53f.jpeg","tags":["好身材"]},{"title":"碧海蓝天","id":18534,"date":"2021/2/20 15:05:00","imageFilename":"3d59bd0e861b53bcc5da8c2cae1524ab.jpeg","bigImageFilename":"6828d78e88bb5bc0b2308a24afeebb4a.jpeg","tags":["好身材"]},{"title":"面试","id":18535,"date":"2021/2/20 15:06:00","imageFilename":"93a826c4524f90ec034792fcc65126a6.jpeg","bigImageFilename":"99086f51f18ed6cca1d87e3c4577e2dd.jpeg","tags":["美腿"]},{"title":"懒腰","id":18523,"date":"2021/2/20 08:28:00","imageFilename":"560c1066dc289406038776df130b3199.jpeg","bigImageFilename":"d8d4617b664f9766aec18e14c60d8a68.jpeg","tags":["好身材"]},{"title":"猫头","id":18522,"date":"2021/2/20 06:28:00","imageFilename":"e476e5f5e975d224607e960d545030b1.jpeg","bigImageFilename":"35f00898f5ec495f1de673f5771c5776.jpeg","tags":[]},{"title":"小兔子","id":18533,"date":"2021/2/20 15:04:00","imageFilename":"5490dcbc8e45e711a3e54ef4ef76940e.jpeg","bigImageFilename":"bbc9ac5a51161a86fce10f39ee473823.jpeg","tags":["美腿"]},{"title":"你好","id":18520,"date":"2021/2/20 05:55:00","imageFilename":"f087ea941f5a1552609f695e9b9bc5ea.jpeg","bigImageFilename":"b4e78109e4055af4cff7b9241e4ee710.jpeg","tags":["美腿","贵在真实"]},{"title":"猫头","id":18521,"date":"2021/2/20 06:14:00","imageFilename":"e476e5f5e975d224607e960d545030b1.jpeg","bigImageFilename":"35f00898f5ec495f1de673f5771c5776.jpeg","tags":[]},{"title":"春困秋乏","id":18519,"date":"2021/2/20 05:26:00","imageFilename":"7fcdd0705dea436f87cbd57f386c5deb.jpeg","bigImageFilename":"cb561b8cd13dafa8aa3942d29853f590.jpeg","tags":["美腿","贵在真实"]},{"title":"写什么呢","id":18517,"date":"2021/1/27 13:25:00","imageFilename":"40e4edaed28a1e3cd01de9fe4d0a0896.jpeg","bigImageFilename":"9b928b45652da9fa11074ee7ad398cda.jpeg","tags":["贵在真实"]},{"title":"什么表","id":18516,"date":"2020/11/21 02:38:00","imageFilename":"7cc1b8ffecb98a10c1028ff893b9af7b.jpeg","bigImageFilename":"de85cc66f44176b7a759d2aca8d503a3.jpeg","tags":["贵在真实"]},{"title":"小奶牛","id":18518,"date":"2021/1/27 13:27:00","imageFilename":"494f3acc5817fce4113aa90d79e6cfd6.jpeg","bigImageFilename":"c4a03333f9caec97ced5a7ffa59554ec.jpeg","tags":["贵在真实"]},{"title":"工作","id":18514,"date":"2020/11/5 05:43:00","imageFilename":"a8026133e71134ce5bdb7e69cdea8794.jpeg","bigImageFilename":"9c824d2b1f2b5caa791328de85a82d02.jpeg","tags":["美腿"]},{"title":"有点累了","id":18515,"date":"2020/11/5 05:44:00","imageFilename":"d339564425f6ce3f3999a4b475362086.jpeg","bigImageFilename":"66314ba670f356ec5b395b2bb1efef65.jpeg","tags":["美腿"]},{"title":"美团外卖","id":18512,"date":"2020/10/28 07:31:00","imageFilename":"82da6f9b8e2184adf48d2645bd670c98.jpeg","bigImageFilename":"d9a102a873c9d9fd50b0d8b474fcb0c0.jpeg","tags":["美腿","贵在真实"]},{"title":"这是西装吗","id":18513,"date":"2020/10/29 12:31:00","imageFilename":"2bdb0b183c51c34c10bd3f2b668ba223.jpeg","bigImageFilename":"84e0f3579deb79de6b28608c2cf5ac75.jpeg","tags":["美腿"]},{"title":"一点点","id":18511,"date":"2020/10/11 13:07:00","imageFilename":"73dc3900dfb725aac2b86252e06547ed.jpeg","bigImageFilename":"beaf3c09441c9312abc0d42e38516fa8.jpeg","tags":["好身材","美腿"]},{"title":"请勿停车","id":18510,"date":"2020/10/10 13:40:00","imageFilename":"2841c57754cf08a50f02f04ae21a46db.jpeg","bigImageFilename":"baa4539a1baf91391ea668245c918335.jpeg","tags":["大","贵在真实","趣图"]},{"title":"能穿出去吗","id":18508,"date":"2020/10/9 05:04:00","imageFilename":"13aa07f3f9352a190fcda38b534458fd.jpeg","bigImageFilename":"64df3079c488a9a730ce8fb4f632e736.jpeg","tags":["大","好身材"]},{"title":"上班第一天","id":18509,"date":"2020/10/9 05:33:00","imageFilename":"76a233a712029827c6a6c42369de0a07.jpeg","bigImageFilename":"bb39a9c150fc2b460a072e8e4aff30e6.jpeg","tags":["好身材","美腿"]},{"title":"视角","id":18507,"date":"2020/9/10 02:34:00","imageFilename":"b69ea005ff91ef2ae21afea971d50577.jpeg","bigImageFilename":"9d2476e32d1aded2957668eb12f72305.jpeg","tags":["美腿"]},{"title":"来杯奶茶","id":18506,"date":"2020/8/25 05:04:00","imageFilename":"0df7bef170786c8e71200cef7d7092d6.jpeg","bigImageFilename":"89ab6d3c1418c18697022932f6fd92b2.jpeg","tags":["贵在真实"]},{"title":"上车","id":18550,"date":"2021/2/22 05:39:00","imageFilename":"3c99c46c439611e73028ab96a3901b4f.jpeg","bigImageFilename":"76d84a183cf69b8d442bd8ca46d73851.jpeg","tags":["在路上","好身材","贵在真实"]},{"title":"歌词是什么","id":18549,"date":"2021/2/22 04:53:00","imageFilename":"616577a81eb5269135897d48d04f61e4.jpeg","bigImageFilename":"2d597904aa4a46b472e9f6fe2db57232.jpeg","tags":["好身材"]},{"title":"黑色","id":18547,"date":"2021/2/22 01:48:00","imageFilename":"539f640db146519e235d0e62b102f309.jpeg","bigImageFilename":"87b2e3203a2ee16168e5042b7e8be2d6.jpeg","tags":["大"]},{"title":"白色","id":18548,"date":"2021/2/22 01:49:00","imageFilename":"58f6bca422987b8428088d69caee0998.jpeg","bigImageFilename":"a43efac1f822a7eb2d0c43bdc8f028bf.jpeg","tags":["大"]},{"title":"Hi","id":18546,"date":"2021/2/20 15:22:00","imageFilename":"fcbe9db1141e2aff877e18f5f0baff78.jpeg","bigImageFilename":"dd875da602303e4aa9c1b433b6a5e2d8.jpeg","tags":["贵在真实"]},{"title":"想起了谁","id":18545,"date":"2021/2/20 15:21:00","imageFilename":"f3a7ab0ffad29c3c3a42048288717e6f.jpeg","bigImageFilename":"2960245686494a47419934b49f9144e9.jpeg","tags":["美"]},{"title":"桌子上刻的什么","id":18544,"date":"2021/2/20 15:19:00","imageFilename":"8c2d442578bad3716ff5267bf57bdfe4.jpeg","bigImageFilename":"e40e610518afb69d7cfba6fb403f9022.jpeg","tags":["美腿"]},{"title":"回头率","id":18543,"date":"2021/2/20 15:17:00","imageFilename":"8403781e214851bcc0fed48304e2f683.jpeg","bigImageFilename":"a0b561a6ac44730c97c39ed95332b722.jpeg","tags":["在路上","好身材"]},{"title":"裤子破了","id":18542,"date":"2021/2/20 15:16:00","imageFilename":"97fc9a48aa760f58057370c44f833138.jpeg","bigImageFilename":"08d10cad1fbe2fedaeaa4bf20ce12b35.jpeg","tags":["在路上"]}]}