{"totalPage":66,"total":2356,"page":60,"pageSize":36,"list":[{"title":"爱读书的好孩子","id":3646,"date":"2015/12/23 22:59:00","imageFilename":"4ee67c1f74b2ec12796c3f7171ca98a0.jpeg","bigImageFilename":"fd2ac09f30749215d69e79f6f69db9aa.jpeg","tags":["好身材"]},{"title":"三种颜色","id":3640,"date":"2015/12/23 22:57:00","imageFilename":"825516c041e350e72e12ebddf036a235.jpeg","bigImageFilename":"0605f013dac64f15abb1ebf35fcfb49f.jpeg","tags":["好身材","贵在真实"]},{"title":"牛仔裤质量挺好","id":3643,"date":"2015/12/23 22:58:00","imageFilename":"7a8b84e6f21187689bc3762f2d7aac9f.jpeg","bigImageFilename":"23f62afc5c8eea7b657fa33eb5e3afd2.jpeg","tags":["贵在真实"]},{"title":"出发","id":3634,"date":"2015/12/23 22:55:00","imageFilename":"035c6a8873915c489c3ab183a454757a.jpeg","bigImageFilename":"9f782818e89bc7d13dbf5d00e7c6eba1.jpeg","tags":["在路上","大"]},{"title":"到家","id":3637,"date":"2015/12/23 22:56:00","imageFilename":"93e575e5ac3c9eb727bf7878e765f6d5.jpeg","bigImageFilename":"d2a66a4e0c05192fa5d95b29b0103e84.jpeg","tags":["大","好身材"]},{"title":"为什么有个那样的镜子","id":3627,"date":"2015/12/23 13:40:00","imageFilename":"aacc1a1f764601b658c484bca646b72a.jpeg","bigImageFilename":"96ed3817a715dd83bfd466a2e6f141fd.jpeg","tags":["美腿"]},{"title":"我真的喜欢蓝色","id":3606,"date":"2015/12/22 14:49:00","imageFilename":"2064aeead7dd84fc007394859dde7888.jpeg","bigImageFilename":"3bd13ccc71c904c15b90d31b2a14e05d.jpeg","tags":["大"]},{"title":"落叶黄昏","id":3623,"date":"2015/12/23 13:34:00","imageFilename":"ce30cac197a592f6312ea454618b7f1f.jpeg","bigImageFilename":"2b92b5cc0d1a426c12302d963d248c6c.jpeg","tags":["在路上","风景"]},{"title":"高铁路上","id":3600,"date":"2015/12/22 13:10:00","imageFilename":"250353803af52dedac0df9e2b2f14fc9.jpeg","bigImageFilename":"aeccfce996994f3017fa29f1ab8e1081.jpeg","tags":["在路上","好身材","美腿"]},{"title":"小天鹅吊坠","id":3428,"date":"2015/12/15 22:12:00","imageFilename":"3a11242edef3408e26c5e4a32a67e02f.jpeg","bigImageFilename":"0e141364d96192955a3246f8eabba7ef.jpeg","tags":["大"]},{"title":"这题好难哦","id":3423,"date":"2015/12/15 20:12:00","imageFilename":"f06e29e620e3ecd86551b3354b692ab4.jpeg","bigImageFilename":"9ef98925604d88baafd0f47923b3d744.jpeg","tags":["贵在真实"]},{"title":"程序员鼓励师","id":3419,"date":"2015/12/15 18:33:00","imageFilename":"508a0655ff857325bb6e467f2a5db8a5.jpeg","bigImageFilename":"99ea225cb56f32b6f8aff4ea181f099f.jpeg","tags":["趣图"]},{"title":"自助加油","id":3413,"date":"2015/12/15 18:24:00","imageFilename":"f72ad642b7e3604f5daef2315c080dd4.jpeg","bigImageFilename":"76f47ab4c4f90d5d7875fb05902a2838.jpeg","tags":["在路上"]},{"title":"公园的夜","id":3406,"date":"2015/12/14 13:13:00","imageFilename":"6c1db03a41a10e0868c2fb5eaecb1465.jpeg","bigImageFilename":"04776d19b46f33fb6516327b36bbb88d.jpeg","tags":["在路上","好身材"]},{"title":"桥上是什么雕像","id":3404,"date":"2015/12/8 13:37:00","imageFilename":"2f9690ecfb4ed3cd452f7c92dc020a8a.jpeg","bigImageFilename":"fbdea6301b230d832d4a95500f3d1ca1.jpeg","tags":["美腿","风景"]},{"title":"航空公司竟然允许植物登机","id":3393,"date":"2015/11/26 10:20:00","imageFilename":"0fd69cbc7addb22dc09d2788fa41a977.jpeg","bigImageFilename":"3b3ba78356f688d17e55cd06830474d1.jpeg","tags":["大","趣图"]},{"title":"碧水蓝天","id":3401,"date":"2015/12/7 17:53:00","imageFilename":"f586b5839059c41f5b73f0629e5cd9f5.jpeg","bigImageFilename":"1287cce7d731063c060a41b848b007bb.jpeg","tags":["在路上","风景"]},{"title":"这角度","id":3389,"date":"2015/11/18 13:16:00","imageFilename":"47018d4bc3a1d49b2b918496d30b0ce6.jpeg","bigImageFilename":"57d55d866dbcc2a5d57b5f4745a9714a.jpeg","tags":["在路上","美腿"]},{"title":"跪在真实","id":3543,"date":"2015/12/20 14:23:00","imageFilename":"05234e9c833a44ff452289573c68ea9e.jpeg","bigImageFilename":"1d18688eb9e6cb648509b5c0dff80512.jpeg","tags":["贵在真实"]},{"title":"小心脚","id":3537,"date":"2015/12/20 14:20:00","imageFilename":"b564139830ac2c3ce7a21acf1830563b.jpeg","bigImageFilename":"6589effbd21ee2b52595328bd8fd655b.jpeg","tags":["在路上","美腿"]},{"title":"新作的头发","id":3527,"date":"2015/12/19 23:36:00","imageFilename":"6b08ed4e12c40ad163c7f80477e12fa2.jpeg","bigImageFilename":"564bb73e8dc2ed5e4934939e0b318bf3.jpeg","tags":["好身材"]},{"title":"今天又要加班了","id":3524,"date":"2015/12/19 23:26:00","imageFilename":"b818602480b91ce0646f525fb3716436.jpeg","bigImageFilename":"000769ffddcd44987e9b327d4b86d0b8.jpeg","tags":["贵在真实"]},{"title":"让我想起了高中时光","id":3521,"date":"2015/12/19 20:35:00","imageFilename":"92fb987bad9a22bbcd836d20dd8cafc7.jpeg","bigImageFilename":"758788785ceb9ad5db1a24238ec9d3b5.jpeg","tags":["美"]},{"title":"指甲颜色和衣服很搭","id":3463,"date":"2015/12/16 21:50:00","imageFilename":"de659be70314052a3071210b66122604.jpeg","bigImageFilename":"2bb8ac6ced4aa839daddcba51c85343d.jpeg","tags":["在路上","好身材"]},{"title":"钱包不错","id":3434,"date":"2015/12/15 22:15:00","imageFilename":"6a45f5f46bc3ce9de604a239590fc7a9.jpeg","bigImageFilename":"d0f3bf60ef18ca3716607406e67ebf3f.jpeg","tags":["好身材","美腿"]},{"title":"这沙发肯定舒服","id":3437,"date":"2015/12/15 22:16:00","imageFilename":"a50ded4b9a99def1624c40c92416c5eb.jpeg","bigImageFilename":"24f4ca185765a5c4d27ff8fe402bcf7a.jpeg","tags":["大","好身材","美","美腿"]},{"title":"补下妆","id":3431,"date":"2015/12/15 22:15:00","imageFilename":"afd98ddaca13be4c197611544ca0df58.jpeg","bigImageFilename":"c1e6fbfa1ce7bc6e9f64c34fd5499faa.jpeg","tags":["好身材"]},{"title":"这不真实吧","id":3371,"date":"2015/9/28 15:08:00","imageFilename":"355dbfe9a9782da2a511c4574bfe4ea1.jpeg","bigImageFilename":"c8154338b10894f7a35ec5e66067d45e.jpeg","tags":["在路上","大"]},{"title":"前面的人为啥不打伞","id":3369,"date":"2015/9/28 14:26:00","imageFilename":"2b64997bfb20da62da7588037cd660d3.jpeg","bigImageFilename":"c862e7f6793e4750d31d2e79b0994efb.jpeg","tags":["在路上","好身材","美腿"]},{"title":"这是什么裙子","id":3370,"date":"2015/9/28 14:27:00","imageFilename":"83cdad0bd733d250662a20f2caeef3cf.jpeg","bigImageFilename":"0d3c07a260a890b7acb0f9afbd219ade.jpeg","tags":["在路上","好身材","美腿"]},{"title":"吃的啥","id":3365,"date":"2015/9/25 13:27:00","imageFilename":"a48af815c6df05a2c1e3c02230e6d476.jpeg","bigImageFilename":"8c9978860e2dcac484f47ce8aeaa7782.jpeg","tags":["大"]},{"title":"知道我为啥有车还每天坐地铁吗","id":3364,"date":"2015/9/22 16:47:00","imageFilename":"ae8a39ad6a92fc9eff35d30b97778e9e.jpeg","bigImageFilename":"01d1bdd0ccc40384e14a94ac6adbd3d4.jpeg","tags":["在路上","美腿"]},{"title":"这裙子开口方向不对吧","id":3363,"date":"2015/9/21 13:22:00","imageFilename":"1d966d819bcb29b3b825b531ba73b8b5.jpeg","bigImageFilename":"050d1dcf268e39ea412e6c5e11d8aa70.jpeg","tags":["在路上"]},{"title":"练瑜伽","id":3362,"date":"2015/9/16 18:25:00","imageFilename":"5fac90d3e43431a32a40df30e7fbdf56.jpeg","bigImageFilename":"c67bb38ea1b6461855ac499246160af7.jpeg","tags":["好身材"]},{"title":"这腰好细","id":3361,"date":"2015/9/11 13:02:00","imageFilename":"04b55fa02360de95f532d0923b61c193.jpeg","bigImageFilename":"d158d0ad33b2426bedfb178d1bd3e020.jpeg","tags":["好身材"]},{"title":"这是画出来的吗","id":3360,"date":"2015/9/11 12:50:00","imageFilename":"46728b56a3bfe474a5f84214ef2fb429.jpeg","bigImageFilename":"377603c896941ec2a187429c9473f67d.jpeg","tags":["在路上","美腿"]}]}