{"totalPage":66,"total":2356,"page":55,"pageSize":36,"list":[{"title":"什么品牌的吊坠","id":4985,"date":"2016/3/6 14:41:00","imageFilename":"b584130605291175d99b07d11ab1fe70.jpeg","bigImageFilename":"50d15e07c5280e1143d827e4e340d826.jpeg","tags":["大"]},{"title":"好大的球","id":4983,"date":"2016/3/6 14:40:00","imageFilename":"c6751b11a8141d399185c87699ccb2c2.jpeg","bigImageFilename":"770f747f9320cf00737bda53a84310c3.jpeg","tags":["大","好身材"]},{"title":"是黑色的吧","id":4981,"date":"2016/3/6 14:39:00","imageFilename":"129eab21488318d76d585aa90496ab56.jpeg","bigImageFilename":"2b5dd6f2ca5151b936cd6e50478c392c.jpeg","tags":["大","好身材"]},{"title":"去健身房还化妆","id":4979,"date":"2016/3/6 14:38:00","imageFilename":"697b4e8c265da6022bf23327893fb96f.jpeg","bigImageFilename":"4f1e29bec76d7b6bbd0c312c0374817b.jpeg","tags":["大"]},{"title":"兔子被挡住啦","id":4977,"date":"2016/3/6 14:38:00","imageFilename":"62bf5f5f8c06944185f5616013b8ac1e.jpeg","bigImageFilename":"cb8253a0377f7691debf2a2488f86b1b.jpeg","tags":["大"]},{"title":"楼道里挺凉的","id":4968,"date":"2016/3/6 10:03:00","imageFilename":"1ec8a8fb746f470b2c5b8e03127eefd2.jpeg","bigImageFilename":"a2f80ef547f61b1579e4f6d37e810c7e.jpeg","tags":["美腿"]},{"title":"标致的腿","id":4964,"date":"2016/3/6 10:02:00","imageFilename":"59a024ed4ae76fb4c5b1168a74f8f570.jpeg","bigImageFilename":"cf096190d6b90e83d79f848345d81d2d.jpeg","tags":["在路上","好身材","美腿"]},{"title":"morning","id":4966,"date":"2016/3/6 10:03:00","imageFilename":"09cbf5ea1a138cc1dfa495173a6661dd.jpeg","bigImageFilename":"84b88fa550d726ec55000f09ba276089.jpeg","tags":["好身材","美腿"]},{"title":"停车休息会儿","id":4962,"date":"2016/3/6 10:01:00","imageFilename":"38fad483fd217f5b34d8be90821690ba.jpeg","bigImageFilename":"c430c8d169f5aa67bd2cdf47695afb45.jpeg","tags":["在路上","美腿"]},{"title":"卧铺偶遇","id":4960,"date":"2016/3/6 10:01:00","imageFilename":"62e2e74694d35f1533d371edb6b5fef8.jpeg","bigImageFilename":"f952d776fba9f52f5c30b72bcff12780.jpeg","tags":["在路上","贵在真实"]},{"title":"头发不够柔顺","id":4956,"date":"2016/3/6 10:00:00","imageFilename":"4ed4e2ec0dc68c8670cbe9591de366a1.jpeg","bigImageFilename":"ed762326953bdcf18d807c62372a22e0.jpeg","tags":["美腿"]},{"title":"摇滚爱好者","id":4953,"date":"2016/3/6 09:59:00","imageFilename":"779e19932ca8f1115c4b6ac2e855eac4.jpeg","bigImageFilename":"d8eae340328b40cb84d9e435850b25ba.jpeg","tags":["大"]},{"title":"老师您少穿了一件吧","id":4958,"date":"2016/3/6 10:00:00","imageFilename":"8ffd02bb4c59b65201816b0fdda98130.jpeg","bigImageFilename":"f33a398d0c5c8b48109e70c803f828a5.jpeg","tags":["贵在真实"]},{"title":"好美味","id":4858,"date":"2016/2/24 13:04:00","imageFilename":"f54cbdb107c6248c43dfe5a8e4923fc2.jpeg","bigImageFilename":"579b8621b84e346b6c6d97a449050cf0.jpeg","tags":["趣图"]},{"title":"这是连体的吗","id":4850,"date":"2016/2/23 20:51:00","imageFilename":"3f1b530972a5f20b24c4224ffbf655a5.jpeg","bigImageFilename":"de5ed6df202463dccae799adade68816.jpeg","tags":["好身材","美腿"]},{"title":"不错的木地板","id":4830,"date":"2016/2/21 22:26:00","imageFilename":"3204a2950d9165b79e083a1053268415.jpeg","bigImageFilename":"7dd715bc141a84c2cebc7e181b157642.jpeg","tags":["美腿"]},{"title":"最爱碎花裙","id":4826,"date":"2016/2/21 22:24:00","imageFilename":"404e396b02a1e2782ef7b91921f05fd1.jpeg","bigImageFilename":"a90254e0cab73c8d1a559c41d22da129.jpeg","tags":["好身材","贵在真实"]},{"title":"不规则镜子","id":4828,"date":"2016/2/21 22:25:00","imageFilename":"45fc010819e4c6a5cec7f911df9a26d8.jpeg","bigImageFilename":"414e7cee48e851f047f64e0882939dff.jpeg","tags":["美腿"]},{"title":"是麦咖啡不","id":4824,"date":"2016/2/21 21:43:00","imageFilename":"2bd7a4ec8be9c9225bf5e7703b399d77.jpeg","bigImageFilename":"df251d8509d2d4dfa41b753ad6bb08f4.jpeg","tags":["美腿"]},{"title":"白衣红裙","id":4822,"date":"2016/2/21 21:41:00","imageFilename":"11da29db8a46a3b25760fd9e7b73f282.jpeg","bigImageFilename":"442294327005d563ff188a2648b86ae9.jpeg","tags":["美腿"]},{"title":"窗外的景色","id":4820,"date":"2016/2/21 21:40:00","imageFilename":"1ba7c80334a0c75d55f2df21f773dedf.jpeg","bigImageFilename":"e96f03e8d1d22788068b440cd678c780.jpeg","tags":["大"]},{"title":"毛衣什么颜色","id":4818,"date":"2016/2/21 21:39:00","imageFilename":"1829b500624858b01a6a214d55540211.jpeg","bigImageFilename":"3f879f7bb2034bc733fc448a6783824a.jpeg","tags":["大"]},{"title":"发微信问怎么还没到","id":4803,"date":"2016/2/21 16:08:00","imageFilename":"64b5b2aa18d5a9406d5c105e161488ff.jpeg","bigImageFilename":"15fb23b32db7517eb46e74de4021c0ad.jpeg","tags":["在路上","好身材","美腿"]},{"title":"远方的海","id":4754,"date":"2016/2/18 13:10:00","imageFilename":"18349b6686e11f264e98c42a0a06aeac.jpeg","bigImageFilename":"125a0e7eb5506adc29a1f71b6c2ace89.jpeg","tags":["好身材"]},{"title":"晚餐","id":4750,"date":"2016/2/18 13:09:00","imageFilename":"072a8402f315f886c230d0c39c18b2f3.jpeg","bigImageFilename":"bbab69f3a169849e3167766d584636e1.jpeg","tags":["大"]},{"title":"午餐","id":4747,"date":"2016/2/18 13:09:00","imageFilename":"974f193f0653aa14737232d74a8b4832.jpeg","bigImageFilename":"87267a181b1dc5676bfcd715af2d33c5.jpeg","tags":["大"]},{"title":"这是什么饰品","id":4741,"date":"2016/2/18 10:58:00","imageFilename":"4ee2a13d35af5540a65a560e8bab36b3.jpeg","bigImageFilename":"fd801faa4033e7d7b66f0b2ce9ebe5d5.jpeg","tags":["Uncategorized"]},{"title":"姑娘别着急","id":4717,"date":"2016/2/16 22:12:00","imageFilename":"16a0b805e8a5768f5f79d9aec6b7fcca.jpeg","bigImageFilename":"d0d18cce98f2cc9c3d304645c629fde2.jpeg","tags":["在路上"]},{"title":"方便解开不","id":4714,"date":"2016/2/16 22:12:00","imageFilename":"84312dc8e8fd10f88195d9cf4e76a0fc.jpeg","bigImageFilename":"fc91489212939fa6c4da68b3654cca62.jpeg","tags":["贵在真实"]},{"title":"写代码累了站一会儿","id":4697,"date":"2016/2/16 17:00:00","imageFilename":"ebb9ad8ad6b0910680ff03f3473d3c9e.jpeg","bigImageFilename":"36107ac9f7e9b34203b15178d3137e6a.jpeg","tags":["大"]},{"title":"这是泳衣不","id":4711,"date":"2016/2/16 22:11:00","imageFilename":"9e91783571d8b85b732ffdd3c872294a.jpeg","bigImageFilename":"b92942fa272252702da1091d2f39cdd0.jpeg","tags":["大"]},{"title":"好多气球","id":4670,"date":"2016/2/15 10:24:00","imageFilename":"1cc28f2ba5c4ff98b019cff36c150241.jpeg","bigImageFilename":"213e6f0c3b805f359768fbbccf73eb7a.jpeg","tags":["好身材","美腿"]},{"title":"柔软的大床","id":4651,"date":"2016/2/13 17:52:00","imageFilename":"3afe2a5762bf0502c5d0427bac8ab425.jpeg","bigImageFilename":"18dd6329b17c2ac85f0a2a81b9bbff8b.jpeg","tags":["大","好身材","美腿"]},{"title":"我喜欢这感觉","id":4638,"date":"2016/2/12 21:49:00","imageFilename":"a9eff4180db44d1db5992507552f2d70.jpeg","bigImageFilename":"bf884da280bcf5d66c40d71f7215cf3c.jpeg","tags":["好身材","美","美腿"]},{"title":"吐舌头","id":4636,"date":"2016/2/12 21:48:00","imageFilename":"de43a9e093cb75a8eacfc5bd180995ec.jpeg","bigImageFilename":"4decb989d8fe49b5cb6db892e09f708f.jpeg","tags":["大"]},{"title":"假期结束开始上班啦","id":4645,"date":"2016/2/13 09:08:00","imageFilename":"7b82967e171e57b52a2be65ad2b58bf7.jpeg","bigImageFilename":"98be4706350fdc84a2742baf029c02eb.jpeg","tags":["在路上"]}]}