{"totalPage":66,"total":2356,"page":63,"pageSize":36,"list":[{"title":"闺蜜之间要会搭配","id":1908,"date":"2015/11/1 08:35:00","imageFilename":"f702ec40a18ef6a88885386133e4718b.jpeg","bigImageFilename":"f6b31fe800a23b6597c0ba7cfa0ff7b9.jpeg","tags":["在路上","美腿"]},{"title":"不用穿丝袜","id":1905,"date":"2015/11/1 08:34:00","imageFilename":"3321db7cb1bf2ba6ab24f1e62a028240.jpeg","bigImageFilename":"a51a9cb8010c70167fbc50c485974adf.jpeg","tags":["在路上","美腿","贵在真实"]},{"title":"健身有成果","id":1902,"date":"2015/11/1 08:33:00","imageFilename":"0891ea3d41b01fcee2454571904e069f.jpeg","bigImageFilename":"afa23ca6459c1aa0437be96fe9dd441f.jpeg","tags":["好身材","美腿","贵在真实"]},{"title":"地毯上没那么凉","id":1898,"date":"2015/11/1 08:31:00","imageFilename":"3864044f03fe94309cbfd7980ea253ba.jpeg","bigImageFilename":"4bc9bb932c94828057cbc643188b917d.jpeg","tags":["美腿"]},{"title":"你要加入吗","id":1892,"date":"2015/11/1 08:29:00","imageFilename":"20cb03af0f7334cf3a2ff6264a3ad0bf.jpeg","bigImageFilename":"9f0b0350b9942ec8153d6e2331a48e1e.jpeg","tags":["美腿"]},{"title":"石头上凉","id":1895,"date":"2015/11/1 08:30:00","imageFilename":"f1210d3df804dcbefbc2505b4d14f2de.jpeg","bigImageFilename":"c8168a78ea039ac4e18815c0485868e2.jpeg","tags":["美腿"]},{"title":"你选哪一个","id":1889,"date":"2015/11/1 08:28:00","imageFilename":"92ebb5849639c568944504b9a33bedc4.jpeg","bigImageFilename":"9b1a8b60e99336db224f4e197bebe4da.jpeg","tags":["美腿"]},{"title":"墙边的球","id":1626,"date":"2015/10/24 20:14:00","imageFilename":"cec0e740fd777ff03e4125868297de89.jpeg","bigImageFilename":"fc6c83e103f9f31cebaf29b2761be5b2.jpeg","tags":["大"]},{"title":"院里洒满阳光","id":1563,"date":"2015/10/20 22:04:00","imageFilename":"b4e463750f6ab104a2c3a5f6e5e8d434.jpeg","bigImageFilename":"010da79cb069813bb301c31af4fe0190.jpeg","tags":["好身材"]},{"title":"拉帘子干什么","id":1547,"date":"2015/10/19 22:16:00","imageFilename":"33a46ef2b410a4fff3af644805c1d800.jpeg","bigImageFilename":"f4230707e28342c08328d501f3f3e890.jpeg","tags":["好身材","美腿"]},{"title":"有阳光的早晨","id":1527,"date":"2015/10/18 19:22:00","imageFilename":"65bde083fe8fad9003a8e856d21f019d.jpeg","bigImageFilename":"437020740da0243d56e072d2b22f7cde.jpeg","tags":["好身材","贵在真实"]},{"title":"跑步去","id":1530,"date":"2015/10/18 19:23:00","imageFilename":"b3709f9e9a0bda068b30da1b80bd90b1.jpeg","bigImageFilename":"f253a2cfd168c9cf98f5fcc3c823bea3.jpeg","tags":["好身材"]},{"title":"第一次下厨","id":1524,"date":"2015/10/18 19:20:00","imageFilename":"47cce8b56d083d2da754fd8490d3b303.jpeg","bigImageFilename":"7f429d719d625845f1035d91aa6a418e.jpeg","tags":["好身材","害羞","贵在真实"]},{"title":"竟然忍心让你一个人去超市","id":1521,"date":"2015/10/18 19:19:00","imageFilename":"609fae994a8a9dbed89da56a98ef3990.jpeg","bigImageFilename":"4acf331997f09413bece43f0b33872d9.jpeg","tags":["在路上","好身材","贵在真实"]},{"title":"这是什么项链","id":1518,"date":"2015/10/18 19:17:00","imageFilename":"0081bb3102cc6cf456cef91850f5842c.jpeg","bigImageFilename":"1fc12ccfdf1a5b86acd01d101d6ea1c5.jpeg","tags":["大"]},{"title":"回眸一笑","id":1490,"date":"2015/10/16 21:07:00","imageFilename":"b0ec6ce45cf82e8e2fc81fb3a01948f1.jpeg","bigImageFilename":"b2f52ed3b3a759288246036fa69111e1.jpeg","tags":["在路上","美腿"]},{"title":"后面是加菲猫？","id":1464,"date":"2015/10/15 08:38:00","imageFilename":"b65c7ee64c9e2583735e4c9b429b3db5.jpeg","bigImageFilename":"79969bdbbf6cb963ebd42537adb73f28.jpeg","tags":["贵在真实"]},{"title":"这裙子是怎么开口的","id":1467,"date":"2015/10/15 08:39:00","imageFilename":"6a88078ea294bed22dc28a583b2559d0.jpeg","bigImageFilename":"f59770cd3ca773d89c76b5144299c4e6.jpeg","tags":["在路上"]},{"title":"我喜欢这样的沙发","id":1461,"date":"2015/10/15 08:37:00","imageFilename":"c02d391051680508096e8d4979230c41.jpeg","bigImageFilename":"1df69c0b7dec22998eca589a3c593830.jpeg","tags":["好身材","美腿"]},{"title":"我也有个这样的架子","id":1346,"date":"2015/10/6 17:43:00","imageFilename":"5fc1b563f3ca31b735fcaa28145cae12.jpeg","bigImageFilename":"3adfe2bc4d2fff1de511a4652ebd37fe.jpeg","tags":["好身材"]},{"title":"跪在真实","id":1349,"date":"2015/10/6 18:58:00","imageFilename":"0ae4ef0d1c17f624a9afa0491cab79bf.jpeg","bigImageFilename":"f112a309611f7fc43cc54266349a539e.jpeg","tags":["贵在真实"]},{"title":"就是喜欢","id":1340,"date":"2015/10/6 17:40:00","imageFilename":"ebc1987cd7aea0601ac5fb336f4daaa8.jpeg","bigImageFilename":"d49484310453d0acf8f42bafa3cd94f2.jpeg","tags":["大","美"]},{"title":"这搭配不是一般人能hold住的","id":1343,"date":"2015/10/6 17:42:00","imageFilename":"7566c2b06d1cfdfee4364045701b58c6.jpeg","bigImageFilename":"8870a42c55bb0167179765338f9af7ca.jpeg","tags":["美腿"]},{"title":"自行车坏了，谁来帮忙啊","id":1330,"date":"2015/10/6 15:58:00","imageFilename":"6f1e21b49a42597937f8054ac643a397.jpeg","bigImageFilename":"99405031e90d8787dfdb7987d461ef4a.jpeg","tags":["在路上"]},{"title":"坐的是什么","id":1324,"date":"2015/10/5 22:18:00","imageFilename":"e4e7ee63a544962d2fcc73c2ee17d00e.jpeg","bigImageFilename":"fcb699b5483e0f8666b380d311dbd9e2.jpeg","tags":["好身材"]},{"title":"房间好破","id":1318,"date":"2015/10/5 22:14:00","imageFilename":"729d7afe8efc9731dfff0a3c836cc474.jpeg","bigImageFilename":"602c5a40793713b51f363209cf3f30bd.jpeg","tags":["好身材"]},{"title":"我喜欢打网球","id":1305,"date":"2015/10/5 13:01:00","imageFilename":"b3d79beaba1a0d28516066db4c8e0f3d.jpeg","bigImageFilename":"93e919630d99982db339c655fb05b59b.jpeg","tags":["大"]},{"title":"好难选","id":1315,"date":"2015/10/5 20:34:00","imageFilename":"5d9f0ebadefe199d0bcd3c824c62c1de.jpeg","bigImageFilename":"522b48c6eab3052202cdd223f4301918.jpeg","tags":["风景"]},{"title":"我也爱骑自行车","id":1312,"date":"2015/10/5 20:11:00","imageFilename":"fecc57214cdfda5378a31a5a344f9d39.jpeg","bigImageFilename":"3eb0c815640b3c9b532a55113452522c.jpeg","tags":["在路上","好身材","美"]},{"title":"阳光真好","id":1284,"date":"2015/10/3 22:38:00","imageFilename":"b8ce4d102e9cfaa244154492c415a30f.jpeg","bigImageFilename":"60839c04150aa83658ed462e8d31d667.jpeg","tags":["在路上"]},{"title":"老式沙发","id":1281,"date":"2015/10/3 22:37:00","imageFilename":"0106983f07669224528a13022b29b382.jpeg","bigImageFilename":"0ce3e627aa2390aad1a12365e9a19c93.jpeg","tags":["美腿"]},{"title":"这个酒店还在吗","id":1278,"date":"2015/10/3 22:36:00","imageFilename":"1acebeaf7e495cdf833a1feb5528e897.jpeg","bigImageFilename":"2c6e7b6d44038100369fd1fb2e5d04eb.jpeg","tags":["风景"]},{"title":"今晚加班","id":1272,"date":"2015/10/3 22:14:00","imageFilename":"5f6e93f0cb731ce6014e7595bf9e14d9.jpeg","bigImageFilename":"f7d0c2f51fb33b27ed5368735c83f403.jpeg","tags":["Uncategorized"]},{"title":"这件不怎么透","id":1275,"date":"2015/10/3 22:17:00","imageFilename":"95dd6de545484472d88ced1309d8788c.jpeg","bigImageFilename":"f34cdded15682280075cc1e9b6fa5457.jpeg","tags":["好身材"]},{"title":"夏日的散落","id":1269,"date":"2015/10/3 22:11:00","imageFilename":"b246b722f179668d06c767394d03139e.jpeg","bigImageFilename":"3cb554fdc3fa319e8816cfd477e32c57.jpeg","tags":["风景"]},{"title":"一到周五就不好好工作","id":1266,"date":"2015/10/3 22:08:00","imageFilename":"a9c2e94d9d74d0a510f2fb7e3145997c.jpeg","bigImageFilename":"10c510a0bb74ba95aba5ca9579e4b57c.jpeg","tags":["大"]}]}