{"totalPage":66,"total":2356,"page":58,"pageSize":36,"list":[{"title":"女人衣柜里总少一件衣服","id":3992,"date":"2016/1/3 10:35:00","imageFilename":"05a8953b50fa2a06722c786d48b55aa4.jpeg","bigImageFilename":"7cfb735c59e7ddb5fea8467c509ade60.jpeg","tags":["好身材","贵在真实"]},{"title":"薰衣草","id":3980,"date":"2016/1/2 16:45:00","imageFilename":"85c97eaa4ff9fba4a95b4f4f8d1e3ea6.jpeg","bigImageFilename":"03cdb49f7cd9416e36049c6b71ab679d.jpeg","tags":["美腿"]},{"title":"说来就来","id":4021,"date":"2016/1/3 16:30:00","imageFilename":"9b619d1646f5942a814eec8bfb6dbc87.jpeg","bigImageFilename":"3775b77155b0ae919cb079785ce25b01.jpeg","tags":["在路上"]},{"title":"美腿","id":3976,"date":"2016/1/2 16:44:00","imageFilename":"630ae57465e2ac1bc5d78d57b54412d7.jpeg","bigImageFilename":"ce5c16260afb194d9b5a0d13b8620f17.jpeg","tags":["美腿"]},{"title":"平板支撑","id":3974,"date":"2016/1/2 16:43:00","imageFilename":"b2ebb84ae526785c74c500fccba0daab.jpeg","bigImageFilename":"eed732ab8644210dedd1259b032eb6e8.jpeg","tags":["好身材"]},{"title":"你选哪一个","id":3978,"date":"2016/1/2 16:44:00","imageFilename":"7e69eac8a4d74656822d98cde9e09d95.jpeg","bigImageFilename":"e2a71b7dfdbaa6a368f00fb9ee0c51a6.jpeg","tags":["美腿"]},{"title":"接球","id":3972,"date":"2016/1/2 16:42:00","imageFilename":"1ad59242cb481e9d6879df19d9f265b8.jpeg","bigImageFilename":"c75d33c85f113e13b5016d086f542b34.jpeg","tags":["好身材"]},{"title":"窗外","id":3968,"date":"2016/1/2 16:37:00","imageFilename":"dc93ab07e0681b1b1ae124082efb732d.jpeg","bigImageFilename":"bb7429a3c26e0aef4f3e11335b5aaec7.jpeg","tags":["美腿"]},{"title":"发球","id":3970,"date":"2016/1/2 16:42:00","imageFilename":"a4ed4311385cf7a8af9705905dfac78b.jpeg","bigImageFilename":"59aad8477f16b1ce7f2b85e2b46477ac.jpeg","tags":["好身材"]},{"title":"小蛮腰","id":3966,"date":"2016/1/2 16:37:00","imageFilename":"842c958a1c86332bb38040514d1cad20.jpeg","bigImageFilename":"aed6141e46bd8bcebe3423ecd5067c45.jpeg","tags":["好身材"]},{"title":"面朝大海","id":3964,"date":"2016/1/2 16:36:00","imageFilename":"bf2acb8ffe90009e648205a09314090d.jpeg","bigImageFilename":"c5a42e409b6af8277a0cecebf8c38b7f.jpeg","tags":["美腿"]},{"title":"烟火","id":3960,"date":"2016/1/2 16:35:00","imageFilename":"2b77aa679ad26e4283fbd7ef35a54faf.jpeg","bigImageFilename":"a8cfccb23ba30bc7117b80802506d08d.jpeg","tags":["在路上","美腿"]},{"title":"课堂","id":3962,"date":"2016/1/2 16:36:00","imageFilename":"00ebe2f53b5079ea690b678e4b0b7884.jpeg","bigImageFilename":"b6d8f66025244fc5dfa1dede8e2a2a2b.jpeg","tags":["美腿"]},{"title":"不一样的笑","id":3958,"date":"2016/1/2 16:34:00","imageFilename":"addf4131f7a7127a3e6e2358e5b9c4b4.jpeg","bigImageFilename":"8c886b8f60bd0e7a57d2698dbe4fb057.jpeg","tags":["趣图"]},{"title":"啥衣服","id":3956,"date":"2016/1/2 16:34:00","imageFilename":"bc3fc140a4c3827342d959be72bc416c.jpeg","bigImageFilename":"629404a63c290de54fc09ccdd3bdce62.jpeg","tags":["美腿"]},{"title":"看远方","id":3954,"date":"2016/1/2 16:32:00","imageFilename":"b81f1eb2a2391d4ba8f8b2c5c511451c.jpeg","bigImageFilename":"e8c9a3e22aae6b9ac35d4750f9f2e048.jpeg","tags":["美腿"]},{"title":"玩吉他","id":3952,"date":"2016/1/2 16:31:00","imageFilename":"87bf270e27a9f46f76544cea46ae5990.jpeg","bigImageFilename":"1c31065da6ae4c5434ba4eb18a2a356e.jpeg","tags":["美腿"]},{"title":"开水","id":3916,"date":"2016/1/1 15:52:00","imageFilename":"359775b50ac46d0733bd1699050b9e11.jpeg","bigImageFilename":"267cf12765a631b80c01927dcc299b42.jpeg","tags":["Uncategorized"]},{"title":"树荫下","id":3949,"date":"2016/1/2 16:21:00","imageFilename":"1e09b877e310abf60b040f3ab1f100bf.jpeg","bigImageFilename":"ca51c7a52fcd1f52bedf40796db0eed6.jpeg","tags":["贵在真实"]},{"title":"健身房最常用的器械","id":3911,"date":"2016/1/1 15:46:00","imageFilename":"aa21d2e37121d59f97a4e1e0b9960dbb.jpeg","bigImageFilename":"5f9d03e01253cc6afce04a51c17e026d.jpeg","tags":["好身材"]},{"title":"这又是什么项目","id":3913,"date":"2016/1/1 15:46:00","imageFilename":"16be6c6cf4b1083ccc9e0efd5b98aaeb.jpeg","bigImageFilename":"878ba2a93abd4d9c14195c565b9f5d91.jpeg","tags":["好身材"]},{"title":"今晚能不能不加班","id":3909,"date":"2016/1/1 15:45:00","imageFilename":"e70c54934f5d7b2c3554129a256c85db.jpeg","bigImageFilename":"c31f50721a31f82e44997714cab87685.jpeg","tags":["大","好身材"]},{"title":"家中健身","id":3907,"date":"2016/1/1 15:44:00","imageFilename":"d3afb4a44012e5eabba6d95ebbe9b2e2.jpeg","bigImageFilename":"26f9e42ad9dbc45a1f77efe2d4c7e926.jpeg","tags":["好身材","贵在真实"]},{"title":"姑娘这样很危险的","id":3903,"date":"2016/1/1 15:43:00","imageFilename":"bc18be31acf8dc9c110337bec337156c.jpeg","bigImageFilename":"5f7860c90a7e60b1d30f29c4d8b749cd.jpeg","tags":["在路上"]},{"title":"脱下羽绒服","id":3905,"date":"2016/1/1 15:43:00","imageFilename":"3bd1731b7f0020477c391866d2e065c2.jpeg","bigImageFilename":"2f98a4f3d5591961a6aebb340968630b.jpeg","tags":["好身材"]},{"title":"这地方我也去过","id":3897,"date":"2016/1/1 15:42:00","imageFilename":"6508622abd1a7fc0fd62f4680906e5ce.jpeg","bigImageFilename":"fab09eb538b9912560b337c7bc985f18.jpeg","tags":["在路上","好身材"]},{"title":"等地铁","id":3901,"date":"2016/1/1 15:43:00","imageFilename":"8817d0ee21858a58a823e28b6b838306.jpeg","bigImageFilename":"7618c9a494beff55e111487202c1a465.jpeg","tags":["在路上","好身材","贵在真实"]},{"title":"好多衣服","id":3893,"date":"2016/1/1 15:41:00","imageFilename":"a1b6fbec12ab8e6f5356aeaa404da7b6.jpeg","bigImageFilename":"50a75264983d9371bb68f98b93734b6d.jpeg","tags":["好身材","美腿"]},{"title":"什么摩托","id":3895,"date":"2016/1/1 15:41:00","imageFilename":"d4497d7d21ce77acb4623d0e9c04cc50.jpeg","bigImageFilename":"998b49a77a3732b3b94067cb91d242c5.jpeg","tags":["在路上","美腿"]},{"title":"爱心早餐","id":3891,"date":"2016/1/1 15:40:00","imageFilename":"4a5c5a1df98eb02b7dd06bfc9831b747.jpeg","bigImageFilename":"abb4bd03fb000ab218467d1d819d3bd5.jpeg","tags":["好身材","贵在真实"]},{"title":"大熊猫","id":3889,"date":"2016/1/1 15:40:00","imageFilename":"728b3db0b9b021b5287b160221da7f3b.jpeg","bigImageFilename":"8940936618b5ab7d93b5c9538354faa9.jpeg","tags":["在路上"]},{"title":"这样对眼睛不好","id":3887,"date":"2016/1/1 15:39:00","imageFilename":"9a5877fdf6b5693a78271dfb969b35fa.jpeg","bigImageFilename":"2c1128527a9cdffe73a8d478e2f8c14f.jpeg","tags":["好身材"]},{"title":"车窗外的风景","id":3885,"date":"2016/1/1 15:38:00","imageFilename":"e1dacae12dac8ed9355e33f33a52177d.jpeg","bigImageFilename":"51738ba55b2e54207eab5652eec78507.jpeg","tags":["在路上","美腿","贵在真实"]},{"title":"蹲下挺累的吧","id":3883,"date":"2016/1/1 15:38:00","imageFilename":"99c362bb06608f15bd4fb24e0363e065.jpeg","bigImageFilename":"86ef6f400fc89ec23c89a207c8e02667.jpeg","tags":["大","好身材","美腿"]},{"title":"在找什么","id":3881,"date":"2016/1/1 15:37:00","imageFilename":"9cc447843daecee5503307cf500eb308.jpeg","bigImageFilename":"64a653564e7e799c9eac5816bdc59732.jpeg","tags":["美腿","贵在真实"]},{"title":"高铁可以给手机充电啦","id":3879,"date":"2016/1/1 15:37:00","imageFilename":"2bf537b024648ddceb0e0f880f1e6a66.jpeg","bigImageFilename":"bf93ac85a3777378b4f22f43d5c6686c.jpeg","tags":["在路上","美腿","贵在真实"]}]}