{"totalPage":66,"total":2356,"page":33,"pageSize":36,"list":[{"title":"你选哪一个","id":17413,"date":"2018/8/3 22:05:00","imageFilename":"93192b2cc414935f3737c5000417557e.jpeg","bigImageFilename":"b9f64d2171ae4f0f1375eeeb2319dadf.jpeg","tags":["大","美腿"]},{"title":"拿什么呢","id":17416,"date":"2018/8/3 22:06:00","imageFilename":"f3fcf0e0b11a14071cc03325784db749.jpeg","bigImageFilename":"b1345038066c017df5ab5b4385e10f83.jpeg","tags":["大"]},{"title":"好吃","id":17410,"date":"2018/8/3 22:04:00","imageFilename":"e4333572a15402b25be4e5a81481b96a.jpeg","bigImageFilename":"5b6c05eda1cdaf380f45a60f04b18c47.jpeg","tags":["大"]},{"title":"好好擦地","id":17407,"date":"2018/8/3 22:02:00","imageFilename":"0380135bf43ad0758111ad6309810477.jpeg","bigImageFilename":"5033ea6585b0b0c2d24fa373447e7350.jpeg","tags":["大"]},{"title":"什么车","id":17419,"date":"2018/8/3 22:07:00","imageFilename":"b48998115b70f115dc9f3aa011ef1e31.jpeg","bigImageFilename":"b18b79a8e7822ce90826ce1eb73f7872.jpeg","tags":["美腿"]},{"title":"你选哪一个","id":17401,"date":"2018/8/3 22:00:00","imageFilename":"2f0caee2c94ad2c88f8971f72ac9a4a4.jpeg","bigImageFilename":"3bb307170075483b7a5c1ad8b853b0c6.jpeg","tags":["大"]},{"title":"哪件好看","id":17404,"date":"2018/8/3 22:01:00","imageFilename":"060aecb83df5e3034e41edfaab2b639d.jpeg","bigImageFilename":"e28256e0e71cab1f3bf827c9d5542f89.jpeg","tags":["大"]},{"title":"看","id":17395,"date":"2018/8/3 21:57:00","imageFilename":"b9c7a4f66df3d9591ef6d4ef17bac3d3.jpeg","bigImageFilename":"8baad6cf88518e5d8020d4c19458f114.jpeg","tags":["美"]},{"title":"热不热","id":17346,"date":"2018/8/3 21:39:00","imageFilename":"e5ffa3ed9b92ed1685674e840670bdcd.jpeg","bigImageFilename":"cce2b616a919f32a5f29b2b2b050a542.jpeg","tags":["好身材"]},{"title":"碧海蓝天","id":17392,"date":"2018/8/3 21:55:00","imageFilename":"e1ec0790e7acbf646fb7f041e4a5f00a.jpeg","bigImageFilename":"47da1678d4d202a45f1b37333eba3631.jpeg","tags":["风景"]},{"title":"裤子咋破的","id":17398,"date":"2018/8/3 21:58:00","imageFilename":"6ff6ca9c2354b2b80674be3c635df53b.jpeg","bigImageFilename":"e7d728e9cbf2509ddbd57d2e4c7b4812.jpeg","tags":["大"]},{"title":"午后咖啡","id":17341,"date":"2018/8/3 21:37:00","imageFilename":"f59c372c98ee6221d86706cca1a8f3b0.jpeg","bigImageFilename":"9397d9717150bffef427f159606802bb.jpeg","tags":["好身材"]},{"title":"裤子破了","id":17343,"date":"2018/8/3 21:38:00","imageFilename":"406f806e3fd02bf690c371b7276eeefa.jpeg","bigImageFilename":"d1a8ace9e8b7d0f9158b2d8a4f2cffec.jpeg","tags":["大","好身材"]},{"title":"天快黑了","id":17338,"date":"2018/8/2 17:57:00","imageFilename":"7282485ebab167396f9e9fa8ae7d3f54.jpeg","bigImageFilename":"4b0ad2257171af31494ed2dc25db9bc2.jpeg","tags":["大"]},{"title":"今天真热","id":17332,"date":"2018/8/2 10:52:00","imageFilename":"7701e2c0c2f879669bfb14841a590008.jpeg","bigImageFilename":"382c99f176d1ed2715cd1400ebd65938.jpeg","tags":["大","好身材","美腿"]},{"title":"夜市","id":17335,"date":"2018/8/2 12:48:00","imageFilename":"9816aa16dd99bd06d4abe14d09b857af.jpeg","bigImageFilename":"e6973cf2d386375f4781dcf4c661c62c.jpeg","tags":["大"]},{"title":"猫咪","id":17326,"date":"2018/7/29 23:02:00","imageFilename":"202dfc14110d797ab5a10c4ad2dccbf7.jpeg","bigImageFilename":"5fd3649246d668cdf07b47d0e105855d.jpeg","tags":["好身材"]},{"title":"买点啥","id":17329,"date":"2018/7/30 10:21:00","imageFilename":"df99942067fbe299db8994fcfcb82667.jpeg","bigImageFilename":"e099661bfaa4438e2293c3be73a390d3.jpeg","tags":["贵在真实"]},{"title":"什么手机","id":17319,"date":"2018/7/28 18:30:00","imageFilename":"bca1afdb76f80a7222ef99f2a20afcf0.jpeg","bigImageFilename":"15dcdd6d209261516a44d4147f82bb6b.jpeg","tags":["好身材"]},{"title":"这是哪里","id":17322,"date":"2018/7/28 21:36:00","imageFilename":"3aee2045457efb0e78c71b2999d5f668.jpeg","bigImageFilename":"96b2276a0d9f01ee5bdd4bd34732f5df.jpeg","tags":["在路上","美腿"]},{"title":"喝的不多","id":17310,"date":"2018/7/24 18:19:00","imageFilename":"62fb75dee6ef5d60a0a5c2c755083b74.jpeg","bigImageFilename":"50576ea7fd0c3e39d3c94f0970884374.jpeg","tags":["大"]},{"title":"早","id":17301,"date":"2018/7/23 22:59:00","imageFilename":"94ac2104cbe681ab605b18d606874293.jpeg","bigImageFilename":"e62965a412d332ff0bf28f1b5aefb871.jpeg","tags":["大","好身材","美"]},{"title":"哪件好呢","id":17313,"date":"2018/7/27 12:38:00","imageFilename":"715e7b76dff66fe7dbccb236a7ac10f3.jpeg","bigImageFilename":"50a3e37631c326c9c9f76d37eec6cbcd.jpeg","tags":["贵在真实"]},{"title":"什么车","id":17316,"date":"2018/7/28 18:26:00","imageFilename":"418319b5d7b3a072122619f674bf4652.jpeg","bigImageFilename":"0c0f98a5787c2c5e32e5fa9d1d1a4c52.jpeg","tags":["大","美腿"]},{"title":"准备去海边","id":17300,"date":"2018/7/23 22:59:00","imageFilename":"f5c725d66e64720b4bc513c4ca33a518.jpeg","bigImageFilename":"8b8f912626410a10a08f0c34c4320147.jpeg","tags":["大","好身材"]},{"title":"好多气球","id":17307,"date":"2018/7/24 13:16:00","imageFilename":"7b6bc7d6a7ebec8801bccf83fe74e08f.jpeg","bigImageFilename":"b68e7020ba3aaa44b0d77c18c6548f5b.jpeg","tags":["美腿"]},{"title":"请系好安全带","id":17298,"date":"2018/7/23 22:58:00","imageFilename":"0efa2cad41cfb48a176d62b2df158e4f.jpeg","bigImageFilename":"2e1edc0812bbd987e70e9473e853da4a.jpeg","tags":["美腿"]},{"title":"夜跑","id":17290,"date":"2018/7/22 21:20:00","imageFilename":"8ce3a635c0c48616bb7ffff06af9eb3a.jpeg","bigImageFilename":"8ae73bb190e546e3be894d0811efaaf0.jpeg","tags":["美腿"]},{"title":"碧海蓝天","id":17294,"date":"2018/7/22 21:21:00","imageFilename":"d388c1d65b6cba6c7e5e0f4651031254.jpeg","bigImageFilename":"3aa46e059496d6500239a8d9e022df2b.jpeg","tags":["大"]},{"title":"早餐","id":17285,"date":"2018/7/21 21:07:00","imageFilename":"961f459bb88a5cabe7024189d0023674.jpeg","bigImageFilename":"fa704255e0cf37e168cf1436d0717e06.jpeg","tags":["好身材","贵在真实"]},{"title":"喝点","id":17288,"date":"2018/7/22 21:19:00","imageFilename":"39e3e1ee89549a6ae68b274553d372cd.jpeg","bigImageFilename":"a9d7dfd3dc32f412c261465ea9aca9df.jpeg","tags":["大"]},{"title":"是优衣库么","id":17282,"date":"2018/7/21 21:06:00","imageFilename":"a9433bfa825e20311a8f9a9956089638.jpeg","bigImageFilename":"7abde853362b071ca9439faae53f6dc7.jpeg","tags":["大"]},{"title":"你好","id":17276,"date":"2018/7/21 20:35:00","imageFilename":"6017180fb17b0b9859fd37255566b145.jpeg","bigImageFilename":"43dc55ac801bed410a147fbc9bb52be0.jpeg","tags":["大"]},{"title":"什么标志","id":17275,"date":"2018/7/21 20:34:00","imageFilename":"11b9c726adec5970c6df68eba0d29f08.jpeg","bigImageFilename":"72e9b6c9015de27fd03d17d6a84862b2.jpeg","tags":["大"]},{"title":"窗","id":17269,"date":"2018/7/20 22:43:00","imageFilename":"dd2a4a3a267fded5c1f49975b5270f7d.jpeg","bigImageFilename":"999771b24c2b59f8c08dcffe46f8ae1e.jpeg","tags":["好身材","美腿"]},{"title":"碧海蓝天","id":17273,"date":"2018/7/21 20:34:00","imageFilename":"4c96cfaf0ff24b48f1634ee5852dc926.jpeg","bigImageFilename":"a9f35457cc91121c161a337924bd4ef6.jpeg","tags":["大","风景"]}]}