{"totalPage":66,"total":2356,"page":11,"pageSize":36,"list":[{"title":"居家隔离","id":18415,"date":"2020/2/4 05:40:00","imageFilename":"c97b4b3d0e9bb8347227f30a157ac652.jpeg","bigImageFilename":"a0ae3cba08d96e0913c836ea152ea593.jpeg","tags":["美腿","贵在真实"]},{"title":"生日快乐","id":18414,"date":"2020/2/4 05:38:00","imageFilename":"194599016a830848d3c05edf32cc9650.jpeg","bigImageFilename":"d53b2976a89fc360f6704e6af8c255df.jpeg","tags":["大","好身材","美腿"]},{"title":"好像上班","id":18412,"date":"2020/2/4 05:34:00","imageFilename":"bc63b8da600f85b816fffdd34bc1ffd6.jpeg","bigImageFilename":"13aa1547887c71152fcfd84f6dc09c04.jpeg","tags":["贵在真实"]},{"title":"什么琴","id":18411,"date":"2020/2/4 05:34:00","imageFilename":"73418febaf874d97e459a1686e69ada2.jpeg","bigImageFilename":"466e314b85420c0b982f4d616b1fbcd3.jpeg","tags":["大","好身材","美腿"]},{"title":"好看的毛衣","id":18410,"date":"2020/2/4 04:10:00","imageFilename":"18fcc0dc0b80171ea211178d4fe9e71d.jpeg","bigImageFilename":"bea6726334ebc6206542cd5b42ce9749.jpeg","tags":["大"]},{"title":"自由","id":18408,"date":"2020/2/4 03:43:00","imageFilename":"d21cd15a3dfe9ba16e61d2e5ef8ef5f3.jpeg","bigImageFilename":"eee589459c74aa85c5575c61fccb9264.jpeg","tags":["大","好身材","美","美腿","贵在真实"]},{"title":"上班第一天","id":18413,"date":"2020/2/4 05:35:00","imageFilename":"0a80ec2d948ef37692bc60da5101a76a.jpeg","bigImageFilename":"29bbae5404e0f00d4ce53e5e702429b5.jpeg","tags":["美腿"]},{"title":"你能做到吗","id":18409,"date":"2020/2/4 03:44:00","imageFilename":"46f582df66f26d63b2bf0f10630251b5.jpeg","bigImageFilename":"268cf8e0c4faf70aba47ea7eb233b183.jpeg","tags":["好身材"]},{"title":"蓝","id":18397,"date":"2020/1/19 08:14:00","imageFilename":"78e1443bac4cbffce160f2da237d6425.jpeg","bigImageFilename":"6422583d388d6cc87f02296d3938f065.jpeg","tags":["好身材"]},{"title":"好美味","id":18395,"date":"2020/1/19 08:13:00","imageFilename":"0b0c85b48a4a009533318bc06e800746.jpeg","bigImageFilename":"14b21ac0fc3e0a2facfcf6dcecad57ef.jpeg","tags":["大","好身材"]},{"title":"拿的什么","id":18393,"date":"2020/1/19 08:11:00","imageFilename":"d0714fb6eb2ebeb343bb604332dbaaff.jpeg","bigImageFilename":"7f9117e5923ef6fb0deeb434c75a7e66.jpeg","tags":["好身材","贵在真实"]},{"title":"GUESS","id":18396,"date":"2020/1/19 08:13:00","imageFilename":"26a1aa0c82e6963e40fd6857d933c695.jpeg","bigImageFilename":"b53f459b6df48f9284d9054f61f1dce6.jpeg","tags":["大"]},{"title":"地上凉","id":18407,"date":"2020/2/3 13:46:00","imageFilename":"de425a9c9a67b00ac8cc0e8832d3fb73.jpeg","bigImageFilename":"e3181af5a290d7612c036ad2b4156429.jpeg","tags":["美腿"]},{"title":"沙滩摆渡车","id":18392,"date":"2020/1/19 08:10:00","imageFilename":"6846f7b06905d316bb457750f00dc58b.jpeg","bigImageFilename":"a2e2eb7801cda2d21837bfde547fbad7.jpeg","tags":["在路上","大","好身材"]},{"title":"好开心","id":18394,"date":"2020/1/19 08:12:00","imageFilename":"f4102952533a7578c189973b7161cac6.jpeg","bigImageFilename":"5195906ffdb7ffaad5383d6741b5f05d.jpeg","tags":["大","好身材"]},{"title":"喝点什么","id":18390,"date":"2020/1/13 13:54:00","imageFilename":"c40726ffc903cc7841abf55f95a07edd.jpeg","bigImageFilename":"0aadd45c8309200bbc90e26b20e14290.jpeg","tags":["大"]},{"title":"听","id":18389,"date":"2020/1/13 13:53:00","imageFilename":"9812f6531e41e9cc87d2e75705b75dfa.jpeg","bigImageFilename":"c6adb4030926a79b9d681835a7898abe.jpeg","tags":["大"]},{"title":"花泳衣","id":18391,"date":"2020/1/19 08:09:00","imageFilename":"5de4b4a12e2bf87ee2193ec5cece11df.jpeg","bigImageFilename":"eac0afe380960bb18b0d5810716e3536.jpeg","tags":["好身材"]},{"title":"什么花","id":18388,"date":"2020/1/13 09:20:00","imageFilename":"e1a3cf533e3f207078e95d4f4cff3bb2.jpeg","bigImageFilename":"ade43682b911d3a691acb2b23b67e83b.jpeg","tags":["大","好身材"]},{"title":"风有点大","id":18386,"date":"2020/1/11 05:01:00","imageFilename":"896ec54e279e0a0d9e35aa796fd08e36.jpeg","bigImageFilename":"695e690f4795f6fb9af50f0abf86aafe.jpeg","tags":["好身材","美腿"]},{"title":"睡着了","id":18387,"date":"2020/1/11 10:19:00","imageFilename":"bc6a2d0ea7129af76bd95ca211f37038.jpeg","bigImageFilename":"5609865fae6e8f8021089e761506ea38.jpeg","tags":["大","好身材","贵在真实"]},{"title":"海边","id":18385,"date":"2020/1/11 05:00:00","imageFilename":"6f57faf3a38c831af6815783a4dcc8dd.jpeg","bigImageFilename":"071249aa1027ed0418bb7a303b7cff05.jpeg","tags":["好身材"]},{"title":"海上日出","id":18383,"date":"2020/1/11 01:44:00","imageFilename":"f2a716167908c363e1161602a1514c55.jpeg","bigImageFilename":"c88cd372aa50029cc958dc3eb65f3ef9.jpeg","tags":["大"]},{"title":"Hi","id":18384,"date":"2020/1/11 01:45:00","imageFilename":"1b0b57be09dacb30702eeee8a232e251.jpeg","bigImageFilename":"b547c2c101440634c4dbd1b5a187819d.jpeg","tags":["大","好身材"]},{"title":"松软的沙发","id":18382,"date":"2020/1/8 12:49:00","imageFilename":"0903ca80565211f5f4dd3364a436a5c1.jpeg","bigImageFilename":"bebf498c0ca0932c693e9087a561220b.jpeg","tags":["大","好身材","美腿"]},{"title":"特斯拉充电桩","id":18381,"date":"2020/1/8 12:48:00","imageFilename":"fb76ce5bae3c887d8291e1b4652ddd20.jpeg","bigImageFilename":"acb79b563127363134c24b97e65137bb.jpeg","tags":["大","好身材"]},{"title":"衣架","id":18380,"date":"2020/1/8 12:46:00","imageFilename":"0885b27fc172de427c0dab2b10e7dd3e.jpeg","bigImageFilename":"7b66210e7b7d4c5d4ba47973253e04c0.jpeg","tags":["大","好身材","美腿"]},{"title":"衣服有点瘦","id":18378,"date":"2019/12/18 05:36:00","imageFilename":"d641f9acff287673cd3d9eefc81b91a4.jpeg","bigImageFilename":"5cf1a76613fe452baaf8df55ac44046f.jpeg","tags":["大","好身材"]},{"title":"圣诞快乐","id":18379,"date":"2019/12/25 05:23:00","imageFilename":"8aaf05c1bbd8f78332f747c54bb35777.jpeg","bigImageFilename":"7780dd2208812f70bcc37e357b453b64.jpeg","tags":["美腿"]},{"title":"想念夏天","id":18377,"date":"2019/12/13 01:58:00","imageFilename":"be3011c3e7d4373f92a5286a42ddc397.jpeg","bigImageFilename":"09b75c1306d6fc7f58af351e68030654.jpeg","tags":["好身材"]},{"title":"来袋薯片","id":18376,"date":"2019/12/10 05:07:00","imageFilename":"5a53a1ee53c6153a585e46fbcc4ba298.jpeg","bigImageFilename":"a71890680527ec6e643a1cbf48cbea2b.jpeg","tags":["美腿","贵在真实"]},{"title":"真不胖","id":18375,"date":"2019/12/10 04:43:00","imageFilename":"7c0789eadd13e87e4983b13ad6c91409.jpeg","bigImageFilename":"7cbe1c1668f84ff744289ec9e09865b5.jpeg","tags":["好身材","美腿","贵在真实"]},{"title":"天很蓝","id":18374,"date":"2019/12/6 08:49:00","imageFilename":"1fee28c2b11daff1aadb5858c8243a00.jpeg","bigImageFilename":"d6f465350c9202f17ab0e5b8fe0668bb.jpeg","tags":["好身材","美腿"]},{"title":"金属沙发","id":18372,"date":"2019/12/6 05:19:00","imageFilename":"39558b26dc00edd2e0f199d4ab2e07dd.jpeg","bigImageFilename":"26b13f53956302d8d0fb1dabf996fa15.jpeg","tags":["美腿"]},{"title":"歇歇脚","id":18371,"date":"2019/11/28 05:20:00","imageFilename":"3023b6789c48f03ee55c757a112fdbf4.jpeg","bigImageFilename":"354848ba34a64a21f3c49c53e8263b9f.jpeg","tags":["好身材","美腿"]},{"title":"雨","id":18370,"date":"2019/11/28 05:17:00","imageFilename":"cee1b42cded7c8b018336d3d36a9c889.jpeg","bigImageFilename":"dc06ac816d6316b8ed2ca9cd8ed5f5b6.jpeg","tags":["好身材","美","美腿"]}],"allTags":["美腿","贵在真实","在路上","好身材","大","美","游客投稿","风景","趣图","欧美","害羞"]}