{"totalPage":66,"total":2356,"page":19,"pageSize":36,"list":[{"title":"小猫咪","id":18134,"date":"2019/4/17 11:55:00","imageFilename":"3c2e0732f2f16816064708449b2a347d.jpeg","bigImageFilename":"cbbe7e389afc8b174e39615525193969.jpeg","tags":["美腿"]},{"title":"静候对手","id":18117,"date":"2019/4/7 13:11:00","imageFilename":"0fabd6ad27d32d6f7e748ae738488647.jpeg","bigImageFilename":"ce4229c493bc0ae25dc8b6500a5972ed.jpeg","tags":["大","好身材"]},{"title":"清明踏青","id":18116,"date":"2019/4/7 12:53:00","imageFilename":"d2922e65f6955c150f78f245f5811cff.jpeg","bigImageFilename":"3eac0defc0f9989912a0c35f239188b4.jpeg","tags":["大","贵在真实"]},{"title":"你选哪一个","id":18114,"date":"2019/4/4 02:41:00","imageFilename":"6a9cba7ab8307f521b41f72e9b5e4a9d.jpeg","bigImageFilename":"43d048f417c47ac1f462cfc8be94790d.jpeg","tags":["好身材","美","美腿"]},{"title":"夏天的感觉","id":18115,"date":"2019/4/4 08:00:00","imageFilename":"1cbdd4cece9b6ffec06f60aac4d5aafd.jpeg","bigImageFilename":"69e39afdc3466e6703508a829bd5ecf3.jpeg","tags":["在路上","美腿","贵在真实"]},{"title":"慢点走","id":18113,"date":"2019/4/3 05:10:00","imageFilename":"308b90b73c245b8b0de37a2579726947.jpeg","bigImageFilename":"af18865aebfc4d8a8c5ce798044121df.jpeg","tags":["在路上","好身材","美腿"]},{"title":"床有点乱","id":18112,"date":"2019/4/3 05:06:00","imageFilename":"6d098a280503f2017c9a6a5b565f46e1.jpeg","bigImageFilename":"ad2afddfacc7fd858ad8d52c58811a97.jpeg","tags":["好身材"]},{"title":"竹篮子","id":18111,"date":"2019/4/3 05:06:00","imageFilename":"d35958f8d9f0ccdeefb481dcd5c433fe.jpeg","bigImageFilename":"892e85ab015066f89b22cef53fb3d471.jpeg","tags":["大","好身材","美腿"]},{"title":"和谁微信呢","id":18110,"date":"2019/4/2 12:23:00","imageFilename":"27b79d88a5318e22d69d5809b1cea393.jpeg","bigImageFilename":"b51fca6648e8095d125a3d2185d96fdd.jpeg","tags":["贵在真实"]},{"title":"午后暖阳","id":18108,"date":"2019/4/2 11:16:00","imageFilename":"0f0d59fc2d72737da749313725ce7a8e.jpeg","bigImageFilename":"e6fdca9ed34344771c7fa0b8cb08920e.jpeg","tags":["美腿","贵在真实"]},{"title":"你选哪一个","id":18109,"date":"2019/4/2 11:37:00","imageFilename":"762d465a8b8e05bf341016573384b1de.jpeg","bigImageFilename":"6182929cc99dc2cb6b5c67eb933231d7.jpeg","tags":["好身材","美腿"]},{"title":"小芒果","id":18107,"date":"2019/4/1 02:20:00","imageFilename":"891ecce330333c1228fe4600b2411fee.jpeg","bigImageFilename":"ec29267b58bdc42cdf9646eb05156d90.jpeg","tags":["好身材","美腿"]},{"title":"困了","id":18106,"date":"2019/3/30 06:07:00","imageFilename":"621bd19bd7c62aafe2a56a72ca9ff899.jpeg","bigImageFilename":"764467d9e748f534e338b42907e00621.jpeg","tags":["好身材","美腿","贵在真实"]},{"title":"出发","id":18105,"date":"2019/3/30 05:55:00","imageFilename":"fe13ca2ea5dcf1add102b7ec1aa3e4c1.jpeg","bigImageFilename":"6dd7b6a30d4ec9949e7434ab3413d08e.jpeg","tags":["好身材","美腿"]},{"title":"负责的伴娘","id":18104,"date":"2019/3/30 05:38:00","imageFilename":"c09ed340150ddc6ebd90d95685dd760c.jpeg","bigImageFilename":"22d001f3703731bd1efedd4d9137b667.jpeg","tags":["大","贵在真实"]},{"title":"等待起飞","id":18102,"date":"2019/3/29 09:42:00","imageFilename":"126cfc1403de53aa793bf13f07db802a.jpeg","bigImageFilename":"4f85e7070931392cf4d37f5f0cdb5f8b.jpeg","tags":["在路上","好身材","美腿"]},{"title":"女汉子","id":18103,"date":"2019/3/29 15:30:00","imageFilename":"d509f446a7d81bb8cb4e7927609e6b62.jpeg","bigImageFilename":"d673f0bf8a979ce3893fc2d39d97f1d8.jpeg","tags":["大","贵在真实"]},{"title":"要这样写","id":18100,"date":"2019/3/29 09:17:00","imageFilename":"cbb3325c962a8c7906726d6d4d8f6910.jpeg","bigImageFilename":"665fd8178e6fc19492db975e236eb9c1.jpeg","tags":["美腿","贵在真实"]},{"title":"去逛逛","id":18101,"date":"2019/3/29 09:18:00","imageFilename":"f25ea5ceb7c71bcfcc4ba2682e3b4678.jpeg","bigImageFilename":"b6237ee1fc0b603e6a35db4ac8c8ce6b.jpeg","tags":["在路上","好身材","美腿"]},{"title":"纸巾用的挺勤啊","id":18099,"date":"2019/3/29 09:16:00","imageFilename":"e91e72bf1e08adf90362ec84c0ef331a.jpeg","bigImageFilename":"382bd3dc56e6098f1042e4401c79066d.jpeg","tags":["美腿","贵在真实"]},{"title":"什么地毯","id":18098,"date":"2019/3/28 15:04:00","imageFilename":"52791f52bd9a9b04ad8f8676bc92d3e1.jpeg","bigImageFilename":"207fe24fcb3e1a617aac2aec7e6cbd3e.jpeg","tags":["美腿","贵在真实"]},{"title":"是这样写吗","id":18095,"date":"2019/3/28 14:31:00","imageFilename":"8addf1136abdc7d73de08b0d57dc2a41.jpeg","bigImageFilename":"5e53c18784051639033ff9be50f6df2f.jpeg","tags":["美腿","贵在真实"]},{"title":"健身成果","id":18097,"date":"2019/3/28 14:38:00","imageFilename":"18a16743a7351ce2eca75570869902b6.jpeg","bigImageFilename":"6dcd69266ae9a672cf7ddddd52a9ed55.jpeg","tags":["大","好身材"]},{"title":"拍张照","id":18096,"date":"2019/3/28 14:32:00","imageFilename":"69cc756f5ff48fd2df05df687c3c764a.jpeg","bigImageFilename":"691bb4b94339515e6a2850329153220e.jpeg","tags":["美腿"]},{"title":"YummyYummy","id":18094,"date":"2019/3/28 14:30:00","imageFilename":"ddeb0a7ee9ac82499ff2234a39fb7950.jpeg","bigImageFilename":"dc794f7d71e553e45040bd1f7096a6e7.jpeg","tags":["大"]},{"title":"你选哪一个","id":18093,"date":"2019/3/28 09:27:00","imageFilename":"c963d6a73e70986b34b035538df6db2d.jpeg","bigImageFilename":"ff1ddaa0248f10b8281ed809c50095eb.jpeg","tags":["美腿"]},{"title":"听的什么音乐呀","id":18092,"date":"2019/3/28 09:24:00","imageFilename":"335b39e635e59db6a980999160a5b81f.jpeg","bigImageFilename":"3a81762de3e509a72683c17dd333e77a.jpeg","tags":["在路上","美腿"]},{"title":"你好","id":18090,"date":"2019/3/28 09:16:00","imageFilename":"1cc5da5b5730571a73829017b82a6fc4.jpeg","bigImageFilename":"dc7debb73423dab8899fffd59df2abdb.jpeg","tags":["好身材","美腿"]},{"title":"什么烟","id":18091,"date":"2019/3/28 09:20:00","imageFilename":"9330129a145c0e8b245a0076f83bf08b.jpeg","bigImageFilename":"e2e79c44820dcb3c57dd5228873270b7.jpeg","tags":["贵在真实"]},{"title":"别闹","id":18089,"date":"2019/3/27 07:15:00","imageFilename":"b6c1e75bfa71ee284ea52a8e1258c8aa.jpeg","bigImageFilename":"bfa19d688b64beaf1addfad14b77888f.jpeg","tags":["大","趣图"]},{"title":"Lucky Strike","id":18088,"date":"2019/3/25 13:49:00","imageFilename":"e0084c4236719a810f8e21ed460ed3ca.jpeg","bigImageFilename":"6e2cea8abca2ac84c202095fae095bda.jpeg","tags":["美腿","贵在真实"]},{"title":"小镜子","id":18087,"date":"2019/3/25 13:48:00","imageFilename":"691af5248216bf8bfa6ba5dc91a67d5b.jpeg","bigImageFilename":"d209f2de768f6bf83465d3b08d69e6b8.jpeg","tags":["大","好身材"]},{"title":"新买的内衣","id":18086,"date":"2019/3/25 13:47:00","imageFilename":"173a0cafa51e7c3e9cb06c99f6429640.jpeg","bigImageFilename":"8459124870f69b504f9c63ea7c5e335a.jpeg","tags":["大","好身材","贵在真实"]},{"title":"水呢","id":18084,"date":"2019/3/25 13:45:00","imageFilename":"158bf1e8917fdc13f460b695bdea9edb.jpeg","bigImageFilename":"6c64b6af5e6c36ae991bc81e3ceb7ca6.jpeg","tags":["好身材","美腿"]},{"title":"火烧云","id":18085,"date":"2019/3/25 13:46:00","imageFilename":"39b5ff4cd7367c45bf6cea59a8f78315.jpeg","bigImageFilename":"01c185e1e6aaaf99ea7bcee196d8a844.jpeg","tags":["美腿"]},{"title":"放松下双腿","id":18083,"date":"2019/3/24 13:07:00","imageFilename":"228be60141630f766f9a56f0bcf66b0a.jpeg","bigImageFilename":"4fa27b2717240e77d92626bbea3bceb9.jpeg","tags":["美腿"]}]}