{"totalPage":66,"total":2356,"page":51,"pageSize":36,"list":[{"title":"去健身","id":6951,"date":"2016/9/10 21:34:00","imageFilename":"fc331b3f0e49b5257ba5a6dc178c9c00.jpeg","bigImageFilename":"be41e90d440aa27035683b1390faaf55.jpeg","tags":["在路上","好身材"]},{"title":"裤子破了","id":6854,"date":"2016/8/27 12:09:00","imageFilename":"8b3cd6cc438355381458a8795db795d1.jpeg","bigImageFilename":"c9dd7b6524e53eaaa6558d3739bc0e7f.jpeg","tags":["在路上","好身材"]},{"title":"阳光正好","id":6794,"date":"2016/8/21 17:02:00","imageFilename":"1c9e59eba8c1c00a4996e3dc18b2fd58.jpeg","bigImageFilename":"f8172722c6d3d903b368eb4eb9c69120.jpeg","tags":["大"]},{"title":"今天飞的不错","id":6798,"date":"2016/8/21 19:21:00","imageFilename":"43be05dba1c76fab90cc8b13ee54f870.jpeg","bigImageFilename":"080ee47cad59486cb4097e7bb7258c56.jpeg","tags":["在路上","美腿"]},{"title":"什么风格的画","id":6791,"date":"2016/8/21 14:41:00","imageFilename":"ba5138f709d85ab8bfb3b2c7627ac576.jpeg","bigImageFilename":"e6cc7c28a32914baafbed0c6c4dddb03.jpeg","tags":["大","好身材"]},{"title":"和我家地板一样","id":6788,"date":"2016/8/21 14:40:00","imageFilename":"089f8ed09d151cc1736507dcd47ec464.jpeg","bigImageFilename":"a8943010236de5bac7acb583675f039f.jpeg","tags":["美腿"]},{"title":"这家饭店在哪里","id":6786,"date":"2016/8/21 14:40:00","imageFilename":"58070719e48d57f4fe20d23d678788bb.jpeg","bigImageFilename":"113d214b5771111f5ca900bc662fca48.jpeg","tags":["好身材"]},{"title":"差双鞋子","id":6784,"date":"2016/8/21 14:38:00","imageFilename":"8c39f37374e43be0a6b152137a10017b.jpeg","bigImageFilename":"309e66b2af8e6733cb1b2fdc38d4d447.jpeg","tags":["贵在真实"]},{"title":"我要降落","id":6782,"date":"2016/8/21 14:36:00","imageFilename":"44d5a2ed4c8da1a46ec21daedeef6506.jpeg","bigImageFilename":"a60e1a11cba402a0a0da0bb0f2f4a943.jpeg","tags":["大"]},{"title":"蜜桃臀","id":6543,"date":"2016/7/24 09:42:00","imageFilename":"bd1c761310ebebd6262e1a63a60c95c4.jpeg","bigImageFilename":"64aeffff6541f7de43f0f923b0a1587c.jpeg","tags":["好身材","贵在真实"]},{"title":"墙壁很白","id":6541,"date":"2016/7/24 09:41:00","imageFilename":"5aa305891c8fe31ed592075dfe9492c7.jpeg","bigImageFilename":"c703956dcd05d21d51749e9a15599de2.jpeg","tags":["大","好身材"]},{"title":"和我家的凤尾竹一样","id":6354,"date":"2016/7/3 09:46:00","imageFilename":"0182b926148c049fd9280ffb03cd767d.jpeg","bigImageFilename":"d97c9d8eec2dda33efec4ab15dfeeed7.jpeg","tags":["好身材"]},{"title":"该怎么办","id":6512,"date":"2016/7/24 09:47:00","imageFilename":"ef022073f8558a99fd0232734b8c9922.jpeg","bigImageFilename":"fe08709b8d8763d85571cd98cf224e47.jpeg","tags":["好身材","游客投稿"]},{"title":"小黄人","id":6347,"date":"2016/7/2 20:26:00","imageFilename":"11d0d728f59590d8df4d57e1e8412cee.jpeg","bigImageFilename":"a71e9b097c95af9f98bf2e3147dd7f35.jpeg","tags":["趣图"]},{"title":"纹身是啥","id":6345,"date":"2016/7/2 20:24:00","imageFilename":"369a9599405de4fa83c8502f07317d96.jpeg","bigImageFilename":"6c8211181de6af5ab135b0e6341ad145.jpeg","tags":["好身材"]},{"title":"娇艳的玫瑰","id":6343,"date":"2016/7/2 20:22:00","imageFilename":"bd6469aaf8360aac1fc734e959ca4d21.jpeg","bigImageFilename":"f861e9298d31a0618a56d68d0731039d.jpeg","tags":["好身材"]},{"title":"做点什么吃","id":6341,"date":"2016/7/2 20:21:00","imageFilename":"78a7e3bab9da6ba390f98814ae74b8ef.jpeg","bigImageFilename":"23aabc6de169a22061b831c4532d93d5.jpeg","tags":["大"]},{"title":"是角度问题吗","id":6290,"date":"2016/6/26 09:16:00","imageFilename":"7e060b89a89423c69f5dc8d3f5df0012.jpeg","bigImageFilename":"884f36fa0a23a1fe03e5f665b8c083b9.jpeg","tags":["大"]},{"title":"衣服有线头","id":6780,"date":"2016/8/21 14:35:00","imageFilename":"245d71393189ad608667d711107defaa.jpeg","bigImageFilename":"1775784fb53cefd5bb400ed4f03ea9a3.jpeg","tags":["美腿"]},{"title":"拿的什么手机","id":6778,"date":"2016/8/21 14:34:00","imageFilename":"7cfef515c84e3cee9cca5afde438e1db.jpeg","bigImageFilename":"9252ec88ed29a6c7896753a1725be07f.jpeg","tags":["在路上"]},{"title":"地板差了点","id":6739,"date":"2016/8/14 21:20:00","imageFilename":"25ec8c9e9423f3a23fb742be42b58f56.jpeg","bigImageFilename":"1b208b6f93c4add5e560eb39d5742faa.jpeg","tags":["大"]},{"title":"公园的早晨空气清新","id":6776,"date":"2016/8/21 14:34:00","imageFilename":"6a041fa120419d269c2f6872cad27907.jpeg","bigImageFilename":"c017486299b9ec645453987f87fa405e.jpeg","tags":["在路上"]},{"title":"黑色的","id":6737,"date":"2016/8/14 21:19:00","imageFilename":"34677c483431d8161ef26363614a6313.jpeg","bigImageFilename":"22f07ab986bc6aa6dd448e43e18cf422.jpeg","tags":["大"]},{"title":"小兔子","id":6735,"date":"2016/8/14 21:17:00","imageFilename":"d7ff421c4f1914059b84dfb4b9a31d61.jpeg","bigImageFilename":"4de9568c07027d56ac7438c8b1ef82ac.jpeg","tags":["好身材"]},{"title":"我喜欢蓝色","id":6545,"date":"2016/7/24 09:43:00","imageFilename":"1d4c3dcb170bd6d1e82c3fffbdb82c62.jpeg","bigImageFilename":"564b216960978c5b5744c0c4d0a5bb42.jpeg","tags":["大","好身材"]},{"title":"横看成岭侧成峰","id":6547,"date":"2016/7/24 09:43:00","imageFilename":"75822f28e9fe188690d9d4fe16abd4e7.jpeg","bigImageFilename":"a510af4899e6398c32e3f2eea32255ec.jpeg","tags":["好身材"]},{"title":"多少号呢","id":6642,"date":"2016/8/4 22:26:00","imageFilename":"353fbb464ffb1b2c6a8d42433b84574f.jpeg","bigImageFilename":"c1140e0b8ec7652004941268e725f58e.jpeg","tags":["好身材","美"]},{"title":"早上好","id":6218,"date":"2016/6/19 16:06:00","imageFilename":"d2515433b43fa5452ecd1bb7ac07e625.jpeg","bigImageFilename":"dd5b225aa89d83b4c933c63676366849.jpeg","tags":["好身材"]},{"title":"比我军训时衣服好看","id":6075,"date":"2016/5/30 22:43:00","imageFilename":"b6cfab4e6be3ccd3a92d0bf112356d82.jpeg","bigImageFilename":"db6984b4854bdd9392027d00a60fe790.jpeg","tags":["在路上"]},{"title":"光影","id":6147,"date":"2016/6/9 11:16:00","imageFilename":"133dc8d9669ea561d4dad18f875686c0.jpeg","bigImageFilename":"2a432f04707c663d71baed5c8294dde1.jpeg","tags":["在路上"]},{"title":"可爱的床单","id":6072,"date":"2016/5/30 22:42:00","imageFilename":"0edb7dd566cb30f1609d6dd551c0533d.jpeg","bigImageFilename":"f1148fa9c82d5787b731fda5023c1899.jpeg","tags":["美腿"]},{"title":"你选哪一个","id":6058,"date":"2016/5/29 19:01:00","imageFilename":"54ff7f5187957ae82ae48ab7881e32ae.jpeg","bigImageFilename":"d403f8a451a65e5808d33f8e9d552888.jpeg","tags":["美腿"]},{"title":"这是什么车","id":6061,"date":"2016/5/29 20:12:00","imageFilename":"8a77a09fafdf8da9f938132f101a61b9.jpeg","bigImageFilename":"cb63785b58c949ba15428dedf63d68c3.jpeg","tags":["美腿"]},{"title":"花儿爱阳光","id":6053,"date":"2016/5/29 15:30:00","imageFilename":"a85f41d1869946bb62693adcf9464cd8.jpeg","bigImageFilename":"779d8bf5956f6c73d64337c5d2000f91.jpeg","tags":["美腿"]},{"title":"衣服挺别致","id":5977,"date":"2016/5/20 22:11:00","imageFilename":"eeff19de4af0c754dadd139cd22272a0.jpeg","bigImageFilename":"8f45ed176a3616b8695a4b1a8f856eef.jpeg","tags":["趣图"]},{"title":"加班太累了","id":5975,"date":"2016/5/20 22:09:00","imageFilename":"8fa276aea2df7c7fc11133dbfc51e46a.jpeg","bigImageFilename":"d187b166ea2e2eb4ad4ae4c45089dd7f.jpeg","tags":["美腿"]}]}