{"totalPage":66,"total":2356,"page":27,"pageSize":36,"list":[{"title":"电梯怎么还不来","id":17829,"date":"2019/1/4 04:28:00","imageFilename":"a863a600a0d5fd3f40057d4c81b72644.jpeg","bigImageFilename":"4964d3796f44c6f86196c43fb0d556a2.jpeg","tags":["大","好身材"]},{"title":"休息一下","id":17827,"date":"2019/1/4 04:03:00","imageFilename":"69b8cd66329b4d3edd7a2af810562236.jpeg","bigImageFilename":"76483852f8be407fb705be1a3d53974a.jpeg","tags":["大","美腿"]},{"title":"戴美瞳了吗","id":17826,"date":"2019/1/4 03:33:00","imageFilename":"3d3e0e28ac73bcf3d28435633f097e1f.jpeg","bigImageFilename":"2b1501d6dadb1a0d9c3ab7adfdddef56.jpeg","tags":["大"]},{"title":"等电梯","id":17828,"date":"2019/1/4 04:27:00","imageFilename":"061068eaf78aea6954069c1252d428e0.jpeg","bigImageFilename":"9c8bd5d30f7b74e970e55f428b8b4de3.jpeg","tags":["好身材"]},{"title":"冷不冷","id":17825,"date":"2019/1/4 01:45:00","imageFilename":"b0444084a37c46909db67161ae1d103b.jpeg","bigImageFilename":"841c9f735d8515e14098544e054da8ea.jpeg","tags":["美腿"]},{"title":"猜猜是什么手机","id":17823,"date":"2019/1/4 01:43:00","imageFilename":"d66d68b0cfc943da4d30e839d7c8629d.jpeg","bigImageFilename":"b83e5a24a588df658c672cd75c35a293.jpeg","tags":["好身材"]},{"title":"粉红的灯光","id":17824,"date":"2019/1/4 01:44:00","imageFilename":"278056e36418ccc9c839d64a94c1d256.jpeg","bigImageFilename":"b70404d45f59f720a1dfe66400d366ad.jpeg","tags":["大"]},{"title":"头发好看不","id":17822,"date":"2019/1/4 01:42:00","imageFilename":"628b996dfbd64463bd201b497a855c22.jpeg","bigImageFilename":"1103cd73228152e15efa9e77542b3f01.jpeg","tags":["好身材"]},{"title":"美味的饼干","id":17821,"date":"2019/1/3 04:55:00","imageFilename":"98e4ac0dc28b585fc1cd62a163b8d192.jpeg","bigImageFilename":"328f9b7d9adc8b9d93233caa4d99681d.jpeg","tags":["大"]},{"title":"头发好看不","id":17820,"date":"2019/1/3 02:10:00","imageFilename":"77da74ef1f69761fd8e95f9ddc4cd1a9.jpeg","bigImageFilename":"04102346f5d06f431b5fe297249cf5fd.jpeg","tags":["贵在真实"]},{"title":"光","id":17818,"date":"2019/1/3 02:06:00","imageFilename":"d80aafaa4eb208473480e5c911a8d5a9.jpeg","bigImageFilename":"6f15247bb854bfe0d00f501f91e6bef0.jpeg","tags":["美","美腿"]},{"title":"理下头发","id":17819,"date":"2019/1/3 02:09:00","imageFilename":"749f7317f05b7d7cf5d940415f44b56b.jpeg","bigImageFilename":"f95e6a4b8e86afe8a6558bfa93af25b7.jpeg","tags":["好身材","美腿"]},{"title":"早","id":17817,"date":"2019/1/1 11:49:00","imageFilename":"0dffecae305363106d1d8a5ac60a5b6f.jpeg","bigImageFilename":"7389e9482660fcdef79db7b0ed167573.jpeg","tags":["美腿"]},{"title":"美好的秋日","id":17816,"date":"2019/1/1 11:41:00","imageFilename":"e9d9ae869e7b96cbf25769ca76efe418.jpeg","bigImageFilename":"2e53148559f338786233b73f7414e5ed.jpeg","tags":["好身材","美","美腿"]},{"title":"你可以吗","id":17815,"date":"2019/1/1 11:39:00","imageFilename":"a335ed6183cccdc47dcac32d315bb911.jpeg","bigImageFilename":"c2445d204e5bd8466694e3ed98a640b7.jpeg","tags":["大","好身材"]},{"title":"水流很急","id":17814,"date":"2019/1/1 11:38:00","imageFilename":"e047f20d53210d1988f349877dd795ea.jpeg","bigImageFilename":"72a1cbae4769e098a3b605a2002798e5.jpeg","tags":["好身材","美","美腿"]},{"title":"锻炼身体","id":17813,"date":"2019/1/1 11:37:00","imageFilename":"cf993ee3edb78b396d05a842ddc66763.jpeg","bigImageFilename":"c83065331fe9f89309766ecc87f55f75.jpeg","tags":["好身材"]},{"title":"秋叶","id":17811,"date":"2019/1/1 11:34:00","imageFilename":"f5cdd2e8d18658110f98176890fe1df6.jpeg","bigImageFilename":"b5801720a4edaca32c83f84dbc85c48c.jpeg","tags":["趣图"]},{"title":"是水杯吗","id":17810,"date":"2019/1/1 11:33:00","imageFilename":"c1df2a555bf45234aa5057e6d827dd55.jpeg","bigImageFilename":"c3731da88dcadcee444053220ac0df6b.jpeg","tags":["大","好身材"]},{"title":"什么狗","id":17812,"date":"2019/1/1 11:35:00","imageFilename":"028411a819d85be34811a37ee94ad76c.jpeg","bigImageFilename":"427b4776d3aa07c759115c7e76e3f6c3.jpeg","tags":["美","美腿"]},{"title":"去海边","id":17808,"date":"2019/1/1 11:29:00","imageFilename":"a5fe28aa495c592e64e654d00ae7bd2f.jpeg","bigImageFilename":"c7fd73e86fd29b421a65023ef5228ec7.jpeg","tags":["在路上","好身材"]},{"title":"你可以吗","id":17809,"date":"2019/1/1 11:31:00","imageFilename":"6f1e28ff340ce58a2ad99529298d8333.jpeg","bigImageFilename":"fd95dea4cfd2cdeba07bdf1487540350.jpeg","tags":["趣图"]},{"title":"你选哪一个","id":17807,"date":"2019/1/1 10:35:00","imageFilename":"4fdc375c401dff567be2c04031bc061f.jpeg","bigImageFilename":"6de5d320052166104145a500d1b67dff.jpeg","tags":["美腿"]},{"title":"小心手机","id":17805,"date":"2019/1/1 10:29:00","imageFilename":"5422b38ebae1e9d004986acd55f25461.jpeg","bigImageFilename":"712136c2c3c5d4c1f6ae2c576685fccc.jpeg","tags":["在路上"]},{"title":"你选哪一个","id":17806,"date":"2019/1/1 10:30:00","imageFilename":"4d36138e838b02a99e000e5790dcbeb2.jpeg","bigImageFilename":"c59cd85d95a692f4c5116ac42ce32465.jpeg","tags":["在路上","美腿"]},{"title":"要做好会议记录","id":17804,"date":"2019/1/1 10:28:00","imageFilename":"a7921291eb0f50dd17a0f20497dd0f91.jpeg","bigImageFilename":"a3016ec4167925fd4270fd26a69203f1.jpeg","tags":["大"]},{"title":"爱喝酸奶","id":17802,"date":"2019/1/1 10:26:00","imageFilename":"89dd99241e499932cafafc7141fd792f.jpeg","bigImageFilename":"18480b236d8eedb1b010cb66262ec058.jpeg","tags":["美腿"]},{"title":"热爱运动","id":17803,"date":"2019/1/1 10:27:00","imageFilename":"1bd8ae795cb12f23371e1f21b9732353.jpeg","bigImageFilename":"0aedd3a44bd211b7e660ce9f459f9b4f.jpeg","tags":["美腿"]},{"title":"墙都裂了","id":17801,"date":"2019/1/1 10:24:00","imageFilename":"2369597fb83a28050a35c07b684de59d.jpeg","bigImageFilename":"67853cf014a804f25d243f7ba10c5474.jpeg","tags":["好身材","美腿"]},{"title":"靠左站立","id":17799,"date":"2019/1/1 10:22:00","imageFilename":"a929313ef90749b1474a47ea4d83b225.jpeg","bigImageFilename":"f57bba18443945440b8e0ea1c92a6260.jpeg","tags":["在路上"]},{"title":"你选哪一个","id":17800,"date":"2019/1/1 10:23:00","imageFilename":"e4bfa6693afd4ff41c50507780ffef65.jpeg","bigImageFilename":"0aef8250b7a7c74b9d99d7514ee6cbc6.jpeg","tags":["美腿"]},{"title":"不要急","id":17798,"date":"2019/1/1 10:21:00","imageFilename":"5ce0239ffdb910d6acd9736bea73354d.jpeg","bigImageFilename":"dedebbb011ce9be313f2499c978587c4.jpeg","tags":["在路上"]},{"title":"是win7吗","id":17797,"date":"2019/1/1 10:20:00","imageFilename":"ef214a03cee15ff23b4ff08b7aab6e8c.jpeg","bigImageFilename":"2021804846e72de975243fecf9f3dc03.jpeg","tags":["贵在真实"]},{"title":"几号线","id":17796,"date":"2019/1/1 10:09:00","imageFilename":"018578c0f2660f24ac42fc847454e01c.jpeg","bigImageFilename":"7c52421ea1dad2658bda1e808971f1db.jpeg","tags":["在路上"]},{"title":"后面是什么","id":17794,"date":"2019/1/1 10:07:00","imageFilename":"29d8024badfc9ebe1a035b27b3fb2a72.jpeg","bigImageFilename":"4d213658ce4edf2c717183701773e4c0.jpeg","tags":["美腿"]},{"title":"效果不错哦","id":17795,"date":"2019/1/1 10:07:00","imageFilename":"9b25b46815a12e56f49591bfe1497df2.jpeg","bigImageFilename":"a7833e98f17130f31957bab2401168f0.jpeg","tags":["大","好身材","美腿"]}]}