{"totalPage":66,"total":2356,"page":44,"pageSize":36,"list":[{"title":"五斗柜","id":10319,"date":"2017/5/18 12:59:00","imageFilename":"67c08dd61393e6ab81a76eb67b267032.jpeg","bigImageFilename":"ebf26311682640cb077da42dd5648eba.jpeg","tags":["美腿"],"width":500,"height":500},{"title":"放松一下","id":10351,"date":"2017/5/28 10:37:00","imageFilename":"0f1a264614b20efd5402d5c941757035.jpeg","bigImageFilename":"e906b8c2dbd261a4785c9cd9e5ad60b7.jpeg","tags":["美腿"],"width":500,"height":666},{"title":"出差总是感觉累","id":10309,"date":"2017/5/28 10:36:00","imageFilename":"a10c62ecbacd150bd1f2628d44ad8e1f.jpeg","bigImageFilename":"19997efd9a05b333d53c885b64f857bf.jpeg","tags":["美腿"],"width":500,"height":500},{"title":"去坐车","id":10315,"date":"2017/5/18 12:59:00","imageFilename":"a27c7a78afa2e0023f89abbacd0829dd.jpeg","bigImageFilename":"033c0bc037d9a74de7986fe525a84915.jpeg","tags":["在路上"],"width":500,"height":500},{"title":"穿还是脱","id":10295,"date":"2017/5/28 10:40:00","imageFilename":"8212e8fa4f691f3ab5f2323e557a9f78.jpeg","bigImageFilename":"b76458dfac72f9226523a3e0c55c94b7.jpeg","tags":["美腿"],"width":500,"height":525},{"title":"窗帘不错","id":10289,"date":"2017/5/18 13:01:00","imageFilename":"08a1f77c111df98682515ce8fce81cdd.jpeg","bigImageFilename":"0546dee68a9514aae0469a220ddcf0bc.jpeg","tags":["贵在真实"],"width":500,"height":951},{"title":"划开","id":10531,"date":"2017/5/28 10:22:00","imageFilename":"8ab661ceb96a29ec00843f18b33440f5.jpeg","bigImageFilename":"8614804b668c05ddbfc3ff23e172598e.jpeg","tags":["大"],"width":500,"height":688},{"title":"什么车","id":10293,"date":"2017/5/18 13:03:00","imageFilename":"3061ddef9486c4faeb22160c0da9fb7e.jpeg","bigImageFilename":"7070424540a047430ce8ad73b984faf1.jpeg","tags":["在路上","美腿"],"width":500,"height":500},{"title":"清澈的水","id":10291,"date":"2017/5/18 13:02:00","imageFilename":"24f8513a433d92e05d39bd8e7955ad63.jpeg","bigImageFilename":"060734c462e63bf783800ac8f9559172.jpeg","tags":["美腿"],"width":500,"height":500},{"title":"这是哪里","id":10405,"date":"2017/5/28 10:32:00","imageFilename":"24ecc6dbe2da011ea0eeaeb3b4f53c1b.jpeg","bigImageFilename":"7cd512b7f23fdd701c4ad452263ca48f.jpeg","tags":["在路上","美腿"],"width":500,"height":671},{"title":"解开","id":10509,"date":"2017/5/28 10:25:00","imageFilename":"a39346246a734fbb1ad5b50beeac4fd5.jpeg","bigImageFilename":"bd78c844cdd1a5e6c03704849e86d6ea.jpeg","tags":["大","好身材"],"width":500,"height":508},{"title":"光滑","id":10395,"date":"2017/5/28 10:32:00","imageFilename":"08e17978f72f75ce943d25e819c04fce.jpeg","bigImageFilename":"69d1fcfe99bad86ba6943ad84b545dc2.jpeg","tags":["美腿"],"width":500,"height":500},{"title":"别老玩手机","id":10389,"date":"2017/5/28 10:33:00","imageFilename":"3b79d805c319ceeba4b6bb9f67dbf3f6.jpeg","bigImageFilename":"1e3b507e27ef66427468f84297444040.jpeg","tags":["大","好身材","美腿"],"width":500,"height":680},{"title":"进球","id":10265,"date":"2017/5/28 10:40:00","imageFilename":"5a355bfa1a1f5ff95c11931adcab288a.jpeg","bigImageFilename":"3aa1782cb5d23e9bfcee5db334fb09aa.jpeg","tags":["好身材"],"width":495,"height":588},{"title":"今晚又加班","id":10387,"date":"2017/5/28 10:33:00","imageFilename":"0407283922bac4f8c21e4b0380e6fc6d.jpeg","bigImageFilename":"0799f3a9d03d46540ee7b4645a484a84.jpeg","tags":["美腿"],"width":500,"height":652},{"title":"下班到家了","id":10383,"date":"2017/5/28 10:34:00","imageFilename":"efadbff0a6be68c9aa9d0bf077cd6a6c.jpeg","bigImageFilename":"5a2b39388e8be5a596c235c11eb65e73.jpeg","tags":["美腿"],"width":440,"height":587},{"title":"加班到几点","id":10385,"date":"2017/5/28 10:34:00","imageFilename":"2c4cb79b7741caf723cf9c35f32385a8.jpeg","bigImageFilename":"1639bb316c5a11503946867e4e56198e.jpeg","tags":["美腿"],"width":500,"height":598},{"title":"腿上是什么","id":10233,"date":"2017/5/28 15:20:00","imageFilename":"9bf5e688acdcf6b1a539e55fb42c4a8a.jpeg","bigImageFilename":"7b8662acc32d77effd30b2a2368b8dcf.jpeg","tags":["好身材","美腿"],"width":500,"height":486},{"title":"花瓶缺束花","id":10263,"date":"2017/5/28 10:41:00","imageFilename":"c256d695b8ce4350e99b936a2c7cfa63.jpeg","bigImageFilename":"bcccb74965bb3864b3f4a3a37b0d6cde.jpeg","tags":["大"],"width":500,"height":691},{"title":"戴的什么","id":10477,"date":"2017/5/28 10:28:00","imageFilename":"65534ab09aa321a046e4ad02dadc5658.jpeg","bigImageFilename":"5fd0b1b4f0da115f0fbbf46b84ec0e41.jpeg","tags":["大"],"width":500,"height":611},{"title":"健身房必须要有镜子","id":10227,"date":"2017/5/28 15:20:00","imageFilename":"57f464968db876a7e72a298a00a31e9b.jpeg","bigImageFilename":"a6a80ab277876b2246250b0cf996fff2.jpeg","tags":["好身材"],"width":500,"height":396},{"title":"女人为什么要穿高跟鞋","id":10221,"date":"2017/5/28 15:21:00","imageFilename":"0d62de89900cfc9fe255ef3ae3edd73f.jpeg","bigImageFilename":"ab024944bc3fe52f1e741cc1935737e4.jpeg","tags":["趣图"],"width":500,"height":500},{"title":"彩虹","id":10207,"date":"2017/5/28 15:23:00","imageFilename":"fde19ee7f596e6c30b5dc834b337b36e.jpeg","bigImageFilename":"6f7dbe105ef9364294db87c8f758d75a.jpeg","tags":["贵在真实"],"width":500,"height":666},{"title":"和我家地板一样","id":10215,"date":"2017/5/28 15:21:00","imageFilename":"4204f04452b6cbc2149048130d9da8ef.jpeg","bigImageFilename":"9f6cbdbe506a3061d95e9a25877559dc.jpeg","tags":["美腿"],"width":500,"height":598},{"title":"没有这个会很难穿上","id":10253,"date":"2017/5/28 10:42:00","imageFilename":"645c84de2c8177edcffdae6a0488fdce.jpeg","bigImageFilename":"e6c2351b69ece84a742e2145681921bf.jpeg","tags":["贵在真实"],"width":480,"height":524},{"title":"要专心听讲","id":10199,"date":"2017/5/28 15:23:00","imageFilename":"8200e97de7bdd7e5be67faab671ca984.jpeg","bigImageFilename":"d5ce3cb227d2ff3d8719082c0faa2f8c.jpeg","tags":["好身材","美腿"],"width":500,"height":888},{"title":"这是什么花","id":10195,"date":"2017/5/28 15:24:00","imageFilename":"47722045bb430538d1c67887dcc10a3f.jpeg","bigImageFilename":"d00bfeb4befab3412ac93d369658ef4e.jpeg","tags":["在路上","美腿"],"width":500,"height":666},{"title":"繁花盛开","id":10185,"date":"2017/5/28 15:25:00","imageFilename":"49d2652d214ddce1554cd0bf3bec0ec0.jpeg","bigImageFilename":"7350bc0acd7fa72c6c17c8658bbfdb7a.jpeg","tags":["在路上","好身材","美腿"],"width":500,"height":717},{"title":"城墙","id":10167,"date":"2017/5/28 15:27:00","imageFilename":"656e8b5cb8c608ddfdc091382ef8e07c.jpeg","bigImageFilename":"98e38b12f5a6eb8a2fb85f6213a083bf.jpeg","tags":["在路上","美腿"],"width":500,"height":666},{"title":"鞋子","id":10101,"date":"2017/5/28 15:33:00","imageFilename":"65ebcc20f66054f31744ef93813835a2.jpeg","bigImageFilename":"fd366745eeac921f3958593c49c22529.jpeg","tags":["好身材","美腿"],"width":500,"height":624},{"title":"烈焰红唇","id":10073,"date":"2017/5/28 15:35:00","imageFilename":"2a411ed3e7add1ab8836661a03ea546d.jpeg","bigImageFilename":"fec31d188b76ee0722a483dc6f7bfe78.jpeg","tags":["大"],"width":500,"height":888},{"title":"有多高","id":10047,"date":"2017/5/28 15:38:00","imageFilename":"ca67bd598c4077d60a68b5298d92f4a0.jpeg","bigImageFilename":"99051af61165c7f7f9e8f355eb353544.jpeg","tags":["美腿"],"width":500,"height":666},{"title":"地下凉","id":10045,"date":"2017/5/28 15:38:00","imageFilename":"954ae2f4c6ccc88f1acc9dd099abdf6c.jpeg","bigImageFilename":"2cca2318916b42ab696a972a211bda26.jpeg","tags":["美腿"],"width":500,"height":666},{"title":"准备年会","id":9989,"date":"2017/5/28 15:41:00","imageFilename":"03be2cecb6c9ee8af059a0c20d464de7.jpeg","bigImageFilename":"2d9d0c8175bad56f036b9f52a079db7e.jpeg","tags":["好身材"],"width":500,"height":793},{"title":"沙发舒服吧","id":9981,"date":"2017/5/28 15:41:00","imageFilename":"70213345ae5aacd9aa51cd591c691253.jpeg","bigImageFilename":"2c08c8efa532fe168d239ae0435000de.jpeg","tags":["美腿"],"width":500,"height":643},{"title":"早上好","id":9979,"date":"2017/5/28 15:42:00","imageFilename":"afebf2b5821d7bf31203452c99013b9c.jpeg","bigImageFilename":"eb4be08d7f648b0ad7471d6fa755c865.jpeg","tags":["大"],"width":500,"height":669}],"allTags":["美腿","贵在真实","在路上","好身材","大","美","游客投稿","风景","趣图","欧美","害羞"]}