{"totalPage":66,"total":2356,"page":12,"pageSize":36,"list":[{"title":"什么健身器材","id":18373,"date":"2019/12/6 05:34:00","imageFilename":"91b52490074efc9a1b3d0f3a43586a57.jpeg","bigImageFilename":"b22fd90b2c674e3d64b08109334a3088.jpeg","tags":["美腿"],"width":1080,"height":1350},{"title":"海天一线","id":18369,"date":"2019/11/26 10:27:00","imageFilename":"a6fdda1f1ecb3bf00599610198483bb4.jpeg","bigImageFilename":"33f3f99fc71b6a1056473b410fd9d9b2.jpeg","tags":["大","好身材"],"width":1080,"height":1080},{"title":"来杯咖啡","id":18368,"date":"2019/11/26 06:35:00","imageFilename":"58496be5acf0c7d454c5e5d3cadadbcf.jpeg","bigImageFilename":"df399ce32855f0ca737f64a18b986825.jpeg","tags":["大","贵在真实"],"width":1080,"height":1350},{"title":"请转身","id":18367,"date":"2019/11/25 09:27:00","imageFilename":"e6aa68684d652022d61b13ccedacc07c.jpeg","bigImageFilename":"53f94cec43544336158f8b4309c06450.jpeg","tags":["大","贵在真实"],"width":2048,"height":1152},{"title":"洗衣服","id":18366,"date":"2019/11/25 04:49:00","imageFilename":"bf16aa18fca1569831ec5654447d3911.jpeg","bigImageFilename":"5b9a752ce8a5d1f4ad82586732c82de3.jpeg","tags":["大","好身材"],"width":544,"height":680},{"title":"准备下水","id":18365,"date":"2019/11/25 04:48:00","imageFilename":"0795c2c4df762ffaecca3ea677b1dcb4.jpeg","bigImageFilename":"2012a0bee19e5e40abd20b3b3c37cda4.jpeg","tags":["好身材","美腿"],"width":1080,"height":1080},{"title":"两部手机","id":18363,"date":"2019/11/15 03:05:00","imageFilename":"abce721945c75b751bc26f08c8de1d5a.jpeg","bigImageFilename":"8108c444055e10fb935033ebd9a1dd34.jpeg","tags":["贵在真实"],"width":608,"height":1336},{"title":"顺丰快递","id":18364,"date":"2019/11/20 03:24:00","imageFilename":"71ea016b6aa0ef7d129b2fd051ea425c.jpeg","bigImageFilename":"dae46fc59d6b374f4d922417bbaeedbb.jpeg","tags":["在路上","美腿","贵在真实"],"width":1253,"height":2048},{"title":"风轻云淡","id":18361,"date":"2019/11/13 05:24:00","imageFilename":"73989a0a31c418f034c012d6949fde8b.jpeg","bigImageFilename":"e55b4f64164c16126dec8d0ded2a6d3d.jpeg","tags":["好身材","风景"],"width":600,"height":626},{"title":"下面给你吃","id":18362,"date":"2019/11/14 03:37:00","imageFilename":"2eb406fb96f5e6fd19fe7dd8c5a6630a.jpeg","bigImageFilename":"467e4f459b5d5920a4488808ecf9eeb7.jpeg","tags":["好身材","美腿","贵在真实"],"width":1080,"height":1376},{"title":"举止文明","id":18360,"date":"2019/11/11 09:44:00","imageFilename":"fc5b47f178b893618b8e3736364c50c4.jpeg","bigImageFilename":"313a85e5771d843854a4e7ef7db1993e.jpeg","tags":["大","好身材","贵在真实"],"width":600,"height":1283},{"title":"远眺保护视力","id":18359,"date":"2019/11/11 05:20:00","imageFilename":"c03f9346d7e5aeec156c7a1aca894ae7.jpeg","bigImageFilename":"420e379e7a3bccd74e8083fe8cbb6a34.jpeg","tags":["好身材","美腿","贵在真实"],"width":2195,"height":1602},{"title":"皮裙","id":18358,"date":"2019/11/4 05:58:00","imageFilename":"da3391f0b8ad08c456c61051f3b44ada.jpeg","bigImageFilename":"debc97a00de7afc60169001d4b2395c5.jpeg","tags":["美腿"],"width":1536,"height":2048},{"title":"深圳校服","id":18357,"date":"2019/10/28 05:15:00","imageFilename":"a03be43910e83cf167be97fe3c99d997.jpeg","bigImageFilename":"fb76e352b0f5c212b6f1f906fbab26a7.jpeg","tags":["大"],"width":750,"height":1334},{"title":"蜡笔小新","id":18356,"date":"2019/10/23 05:15:00","imageFilename":"b7e2c1aaa476a8c12aeed5a2450f4495.jpeg","bigImageFilename":"165a7c94adfb436f7cd5db06fc7a8222.jpeg","tags":["好身材"],"width":600,"height":373},{"title":"下水太凉了","id":18355,"date":"2019/10/14 08:19:00","imageFilename":"316fbb7c4f5304b73773d42b55129ed3.jpeg","bigImageFilename":"d9f4f4e6f1fcbf436521f73862ad6c1d.jpeg","tags":["美腿","贵在真实"],"width":1233,"height":1508},{"title":"喷泉","id":18354,"date":"2019/10/12 08:47:00","imageFilename":"06593fc992cbbe539cbea5c3eb76012f.jpeg","bigImageFilename":"5875112857924245c20754491e95d71e.jpeg","tags":["大","好身材","美腿"],"width":960,"height":1200},{"title":"镜子不够用了","id":18353,"date":"2019/10/12 06:24:00","imageFilename":"c640ba95df9b3d88c5b38f71df3a41bb.jpeg","bigImageFilename":"6947770372b7c07ba7f862bc1cdde749.jpeg","tags":["好身材","美腿"],"width":1080,"height":1925},{"title":"去游泳不","id":18352,"date":"2019/10/7 05:36:00","imageFilename":"db1001e569013f31b7457f3f2a0720dd.jpeg","bigImageFilename":"188e922c791c5b9d78e785ff16f841e8.jpeg","tags":["大","好身材","美腿"],"width":1602,"height":2048},{"title":"天气不错","id":18351,"date":"2019/10/7 05:36:00","imageFilename":"207494c283d5b06ec645c7c84f099701.jpeg","bigImageFilename":"8f4c22d2e6b3706246fc74d8e520e42f.jpeg","tags":["大","好身材","美腿"],"width":1602,"height":2048},{"title":"两把雨伞","id":18350,"date":"2019/10/7 05:35:00","imageFilename":"4b50cc371ec0118bef8ba9ad7d9f1296.jpeg","bigImageFilename":"39eb0dce0b8697c5c5d8be92a222c738.jpeg","tags":["大","好身材"],"width":1536,"height":2048},{"title":"这样就不太累了","id":18349,"date":"2019/10/7 05:34:00","imageFilename":"279ed1deb492127f46da14983c827756.jpeg","bigImageFilename":"9ada3014c8e173fe74993ec4d9cf4623.jpeg","tags":["大","趣图"],"width":1080,"height":1372},{"title":"地板擦的光亮","id":18348,"date":"2019/9/24 05:25:00","imageFilename":"8ddeb72d527e1e164aacf3b1fae298e9.jpeg","bigImageFilename":"7c7f52effab2ea6283599e6330f6c781.jpeg","tags":["美腿"],"width":1536,"height":2048},{"title":"站得高看得远","id":18347,"date":"2019/9/23 05:43:00","imageFilename":"c9f8857c6fc9d0dfc59f1eea8465e5cb.jpeg","bigImageFilename":"60bddc280cb8824405bef691404270ff.jpeg","tags":["美腿"],"width":1076,"height":2048},{"title":"你能做到不","id":18346,"date":"2019/9/23 05:36:00","imageFilename":"c570210fc8603ff214cb237766a312b7.jpeg","bigImageFilename":"b2f080163d64c8ef00ce7b80f11d7219.jpeg","tags":["大"],"width":1280,"height":960},{"title":"好丰盛","id":18345,"date":"2019/9/20 09:21:00","imageFilename":"0957eed7d54353f3e15291449265be49.jpeg","bigImageFilename":"96885c2813721c5881ee0ba180f5a8c8.jpeg","tags":["大"],"width":1280,"height":960},{"title":"窗外的雨","id":18344,"date":"2019/9/19 11:47:00","imageFilename":"a6a9effedf6cf9d5cabc6a2708980d35.jpeg","bigImageFilename":"0330853476729859454f68d3e6125604.jpeg","tags":["在路上","美腿"],"width":1080,"height":1080},{"title":"天凉了","id":18343,"date":"2019/9/19 02:48:00","imageFilename":"6d1b643bf6c0963ad6d6aa2eef850435.jpeg","bigImageFilename":"757ad5b5ca88e71be393174e4ed030b7.jpeg","tags":["大"],"width":768,"height":1024},{"title":"小泡泡","id":18340,"date":"2019/9/2 04:43:00","imageFilename":"72e5671590d30355e71c0c0238325b14.jpeg","bigImageFilename":"e0c16251f99147862cf15d02d02ead3f.jpeg","tags":["大","贵在真实"],"width":580,"height":975},{"title":"早晨凉","id":18339,"date":"2019/8/30 05:19:00","imageFilename":"c945ed52d9ce6d09bc5dc600fa104994.jpeg","bigImageFilename":"d13403581c70046c23f44429e2dea348.jpeg","tags":["好身材"],"width":1080,"height":1350},{"title":"沙滩","id":18338,"date":"2019/8/30 04:50:00","imageFilename":"15288a59623ef0ffb04e0410d8cc584e.jpeg","bigImageFilename":"76432c8817ce35aaa4265a39202aecb8.jpeg","tags":["大","好身材","美腿"],"width":1080,"height":1080},{"title":"大泡泡","id":18341,"date":"2019/9/2 04:44:00","imageFilename":"b0de43a3a3a052e3631fc226419f685b.jpeg","bigImageFilename":"8f9f62c557cd525c649758805fda8b1e.jpeg","tags":["大","贵在真实"],"width":600,"height":1019},{"title":"彩虹","id":18337,"date":"2019/8/30 04:50:00","imageFilename":"b2991cf26287d201e845b33c531be2cb.jpeg","bigImageFilename":"ecc11a9eba6b7d75055feac6f021db42.jpeg","tags":["好身材"],"width":1080,"height":1349},{"title":"光影","id":18336,"date":"2019/8/29 15:02:00","imageFilename":"12d5ea3e9bb30b20df70952c8086f4f2.jpeg","bigImageFilename":"defe1ea1a5247214351e85f499525610.jpeg","tags":["好身材","美腿"],"width":1080,"height":1170},{"title":"常见的吊坠","id":18335,"date":"2019/8/29 15:02:00","imageFilename":"0f7e1f21dde25157b3d6ec5761109569.jpeg","bigImageFilename":"9d7d21dfdee78df249241d8caf2e172f.jpeg","tags":["大"],"width":1080,"height":809},{"title":"热舞","id":18333,"date":"2019/8/29 05:36:00","imageFilename":"3988c4a6552afcd68aec805e17b821f5.jpeg","bigImageFilename":"c14b14c163b03fc288c6c29435350783.jpeg","tags":["好身材","美腿"],"width":671,"height":671}],"allTags":["美腿","贵在真实","在路上","好身材","大","美","游客投稿","风景","趣图","欧美","害羞"]}