{"totalPage":66,"total":2356,"page":39,"pageSize":36,"list":[{"title":"晚饭做点啥","id":15210,"date":"2017/12/4 21:27:00","imageFilename":"8203db27eff1c6c2a4cfc393274b9285.jpeg","bigImageFilename":"55bc32de20c74c2c1ce9b4b7611c95cc.jpeg","tags":["大"]},{"title":"有点晕","id":15205,"date":"2017/12/1 18:30:00","imageFilename":"1d9534c4b3fb8954fe24d3f4e41a0802.jpeg","bigImageFilename":"1b8eac2af35a2bc490f50baccf944f6b.jpeg","tags":["大","好身材"]},{"title":"我来帮你吧","id":15244,"date":"2017/12/8 20:46:00","imageFilename":"dda6ffd4286207a8e72764289864c33b.jpeg","bigImageFilename":"17a0c7cbf15b8b44b95b5e381a2ed906.jpeg","tags":["美腿"]},{"title":"林荫小道","id":15198,"date":"2017/11/30 14:10:00","imageFilename":"6d5d8537647db52200f2573531f0a394.jpeg","bigImageFilename":"ec5c50b02ebcb974c1cedc79f4469827.jpeg","tags":["在路上","大"]},{"title":"换哪双鞋好看","id":15201,"date":"2017/12/1 16:29:00","imageFilename":"184665a8a22c236e11086b03261a5453.jpeg","bigImageFilename":"62016716d40fcacf0393e4af13168173.jpeg","tags":["美腿","贵在真实"]},{"title":"外面刮大风了","id":15194,"date":"2017/11/28 13:09:00","imageFilename":"9fddbcec174af34a9961208d3c2360fb.jpeg","bigImageFilename":"fa19e41f9f037c4cc617ad24120b94ed.jpeg","tags":["美腿"]},{"title":"小猫咪","id":15173,"date":"2017/11/11 17:40:00","imageFilename":"ada47dfcf9b32cfb901a124838823b3a.jpeg","bigImageFilename":"d1ff57f434d778e4dbe45e347ec00028.jpeg","tags":["贵在真实"]},{"title":"这是什么车","id":15182,"date":"2017/11/26 17:25:00","imageFilename":"095138bcc9b523420018a2c5e2afecf5.jpeg","bigImageFilename":"6cf0c6fc38172dd9c62e094d1bb59dec.jpeg","tags":["在路上"]},{"title":"手里拿的什么","id":15190,"date":"2017/11/26 17:28:00","imageFilename":"d05c12724143cf88c793a5043e544b32.jpeg","bigImageFilename":"e9983e6647fcbbefe33d7682f0514d2c.jpeg","tags":["在路上","大","好身材"]},{"title":"准备出门","id":15162,"date":"2017/11/4 16:40:00","imageFilename":"28d6a2f3202fa494eeb69b2dfa118b6d.jpeg","bigImageFilename":"4cd6e99532d6e477615ee18039a52dab.jpeg","tags":["大","好身材"]},{"title":"谈绩效了","id":15169,"date":"2017/11/9 21:33:00","imageFilename":"6260d21d0c1ed3666dff29b3138785c2.jpeg","bigImageFilename":"7dd865bca718eaacd4df6a46d30ca45d.jpeg","tags":["美腿"]},{"title":"看窗外","id":15159,"date":"2017/11/4 11:26:00","imageFilename":"5f61a754d37794a323413598b121494e.jpeg","bigImageFilename":"90b85c0bd62f6490286e241da4b77e6b.jpeg","tags":["好身材","美腿"]},{"title":"进去吧","id":15156,"date":"2017/11/4 11:25:00","imageFilename":"00bd804a89e35716223e925efa0494e1.jpeg","bigImageFilename":"5d13375e31f8391a51449dcc4d91336c.jpeg","tags":["好身材","美腿"]},{"title":"哈罗","id":15150,"date":"2017/11/3 21:37:00","imageFilename":"deffb5fa1cc8b70094d96431e0bc1c27.jpeg","bigImageFilename":"03808e711302346050e52768714c8763.jpeg","tags":["美"]},{"title":"点个什么锅底呢","id":15147,"date":"2017/11/3 21:35:00","imageFilename":"bcb4fb049fa75c577708531fa6bae2ea.jpeg","bigImageFilename":"4484d6493ed6beab343c4f6987890a08.jpeg","tags":["大"]},{"title":"3公里内免费送货","id":15137,"date":"2017/10/26 21:17:00","imageFilename":"72e5836c21ee63bc4cdb2fc8e6bc534b.jpeg","bigImageFilename":"96f3e3fa8a8f7dd6e79cd2b431eb63b6.jpeg","tags":["大","贵在真实"]},{"title":"不用再撩高就已经","id":15140,"date":"2017/10/26 21:19:00","imageFilename":"735c545271e95143f84e4b23d2164fe2.jpeg","bigImageFilename":"c21c05cc1e33d8000c1b7bb5669836f5.jpeg","tags":["美腿"]},{"title":"调皮","id":15134,"date":"2017/10/22 17:22:00","imageFilename":"3697ecfcacf0e46a6be351b0de403d04.jpeg","bigImageFilename":"1606eed68ee3ef4fdb4bb9caa35e213b.jpeg","tags":["美腿"]},{"title":"看什么呢","id":15130,"date":"2017/10/21 20:07:00","imageFilename":"55415272ab73e81b9c54e47745c382cf.jpeg","bigImageFilename":"f7fc7a4b9b2786e18d43c8c5eda217b9.jpeg","tags":["在路上","大"]},{"title":"给你点个赞","id":15121,"date":"2017/10/21 11:51:00","imageFilename":"e0ac4dcca0a16ab8c63d660e854c0a24.jpeg","bigImageFilename":"4f35df5ca09353e75e28023ad87dd8ab.jpeg","tags":["贵在真实"]},{"title":"人美也要多读书","id":15127,"date":"2017/10/21 11:55:00","imageFilename":"550bce9aa9d0ea8f9c0d04bc51175c03.jpeg","bigImageFilename":"59d9ca97e83d9fd80cd7f7192ff54b31.jpeg","tags":["大"]},{"title":"浴缸不错","id":15124,"date":"2017/10/21 11:53:00","imageFilename":"26b779986d5d7a4cf69c640b50ba6919.jpeg","bigImageFilename":"0b83f1706e46142a3b7c637e0213c260.jpeg","tags":["美腿"]},{"title":"周末超市人多","id":15118,"date":"2017/10/21 11:49:00","imageFilename":"b4b0dc5c20087ecc75395546679ea093.jpeg","bigImageFilename":"6aa8b1f41aa808aea2a5d00c93039ee0.jpeg","tags":["美腿","贵在真实"]},{"title":"这是什么车","id":15112,"date":"2017/10/21 11:40:00","imageFilename":"c7b3b03663afd1f1ca7df61a1ec178dd.jpeg","bigImageFilename":"005b70ffc2775d733a746d9c0d428742.jpeg","tags":["美腿"]},{"title":"黑还是白","id":15109,"date":"2017/10/21 11:38:00","imageFilename":"f3220034c9553091a60f5fba70df3d0e.jpeg","bigImageFilename":"52b54497e0ac2a6be698bc65261192da.jpeg","tags":["大"]},{"title":"秋日","id":15115,"date":"2017/10/21 11:47:00","imageFilename":"dc82ca1fd08af6ebd4c9bc4fe05f41df.jpeg","bigImageFilename":"a5387fac2cbcd687ab9b62e83f998dfd.jpeg","tags":["美腿"]},{"title":"睡醒了","id":15106,"date":"2017/10/21 11:33:00","imageFilename":"75ef76b51a2ef07a704b0dea8b54a5e5.jpeg","bigImageFilename":"2e62febea963565d88222fe6902ffadf.jpeg","tags":["美"]},{"title":"车里好热","id":15096,"date":"2017/10/10 21:33:00","imageFilename":"b6f0fa90cac2e1120c61a15433f86cad.jpeg","bigImageFilename":"08c7c5ab1fa2e6dab52311b71aa3f159.jpeg","tags":["美腿"]},{"title":"什么吊坠","id":15094,"date":"2017/10/10 21:32:00","imageFilename":"0fdff608fe7066c7a18fe1be0e279533.jpeg","bigImageFilename":"ddb2d434187911b3d8953b5338777063.jpeg","tags":["大"]},{"title":"秋天到了","id":15102,"date":"2017/10/11 15:36:00","imageFilename":"606c41a9a13bb1bbb67cc590fa1ec3f0.jpeg","bigImageFilename":"834e482ed03b1ce3056d949154eb907b.jpeg","tags":["风景"]},{"title":"你选哪一个","id":15087,"date":"2017/10/10 12:44:00","imageFilename":"ab1774bf872f3e5277fc0dde886d25e5.jpeg","bigImageFilename":"97b68a737fa0a0868a495c4d40a73da4.jpeg","tags":["在路上"]},{"title":"今天不加班","id":15078,"date":"2017/10/9 21:57:00","imageFilename":"cab657c9aabf99f5b177ec00475c8215.jpeg","bigImageFilename":"9049220374c39784edbceac4c37b7f3b.jpeg","tags":["美腿"]},{"title":"中午睡会儿","id":15075,"date":"2017/10/9 13:20:00","imageFilename":"3280993fdb7081b99898756a16bb183c.jpeg","bigImageFilename":"fde7e65a362e7a7bb6c0ab892a237aca.jpeg","tags":["美腿"]},{"title":"是自己做的短裤吗","id":15070,"date":"2017/10/7 22:23:00","imageFilename":"18cd872e22c9f7b90832c2dd1b9e6d44.jpeg","bigImageFilename":"fdf5c8072ad3e69605695b75ba9a125a.jpeg","tags":["贵在真实"]},{"title":"三峡","id":15067,"date":"2017/10/7 22:22:00","imageFilename":"81cec091dd25e259017f30ab83dc7110.jpeg","bigImageFilename":"eb103a8deb4bb6233c081e650ff5f73b.jpeg","tags":["在路上","美腿"]},{"title":"兰蔻","id":15061,"date":"2017/10/7 22:11:00","imageFilename":"770587de259db93ef36cf9c906362a5c.jpeg","bigImageFilename":"34253a9b18d94e57428efd60263164b5.jpeg","tags":["在路上"]}]}