{"totalPage":66,"total":2356,"page":62,"pageSize":36,"list":[{"title":"爱笑的姑娘是最美的","id":2836,"date":"2015/12/13 15:18:00","imageFilename":"9010a9b46e74cf973a6dd067c83c1dad.jpeg","bigImageFilename":"84c83e995caf2a25ad7cdc3fe53e4116.jpeg","tags":["美"]},{"title":"街边咖啡","id":2833,"date":"2015/12/13 15:17:00","imageFilename":"3558da6476a5fb8f3939bcaa7f76cf79.jpeg","bigImageFilename":"3319ac1e7f9bcc2b9c81982188cf5d11.jpeg","tags":["在路上"]},{"title":"阳光真好","id":2830,"date":"2015/12/13 15:16:00","imageFilename":"2abffd7c9ad9327673da92cdbed897f3.jpeg","bigImageFilename":"9ca88ddd34abc61b79c5d4f65babb96a.jpeg","tags":["在路上"]},{"title":"看什么那","id":2713,"date":"2015/12/7 21:47:00","imageFilename":"846367a00c949b09396b6c643126d8db.jpeg","bigImageFilename":"2a9f98166ba0f90ce0c1b0400b2e34fe.jpeg","tags":["大"]},{"title":"这是三里屯吗","id":2647,"date":"2015/12/4 21:24:00","imageFilename":"71bae0e5a5133ca81382a4b2aeb44de5.jpeg","bigImageFilename":"2f4455e4fdc26da72ff81a2f7d18ee66.jpeg","tags":["在路上"]},{"title":"好身材秀出来","id":2594,"date":"2015/12/4 21:26:00","imageFilename":"eee94c36c8522fb118df38ad3321cf9f.jpeg","bigImageFilename":"7eebe9d00ae696219597e18fca57e76c.jpeg","tags":["好身材","游客投稿"]},{"title":"这是什么车","id":2580,"date":"2015/12/1 20:56:00","imageFilename":"b9c7602e387d68690ef5d917188845e7.jpeg","bigImageFilename":"9fbe6cb37645297c3a9cf35cf33d1ccf.jpeg","tags":["在路上"]},{"title":"新来的同事","id":2518,"date":"2015/11/29 20:29:00","imageFilename":"ff9a46db3c0bb28d04b1d6499b79c9bd.jpeg","bigImageFilename":"ee229f7a512184ab9790ca36a15d319e.jpeg","tags":["大"]},{"title":"你选哪一个","id":2509,"date":"2015/11/29 15:57:00","imageFilename":"9ec74b1c4bc3e76e0f721e73a40650f0.jpeg","bigImageFilename":"c76e06d314dd0ddb9dfcbcf21f4c7544.jpeg","tags":["美腿"]},{"title":"更衣室","id":2506,"date":"2015/11/29 15:52:00","imageFilename":"5fcae5551a07632c1e5fc27cc89609dd.jpeg","bigImageFilename":"507d1cac608f202d178e7983bb785b05.jpeg","tags":["贵在真实"]},{"title":"写作业很累","id":2382,"date":"2015/11/24 23:30:00","imageFilename":"7d103f520854b78bb68eb73742741628.jpeg","bigImageFilename":"f73d8741d93a11278cf67909e95ea416.jpeg","tags":["大"]},{"title":"我喜欢牛仔裤","id":2372,"date":"2015/11/24 21:23:00","imageFilename":"218d17a77cd6afb5a3da9f222a70008b.jpeg","bigImageFilename":"c60ab922cc1f2fcbb9e0a01e04fdfcb6.jpeg","tags":["害羞"]},{"title":"虚位以待","id":2369,"date":"2015/11/24 21:22:00","imageFilename":"38c7b5d2af01d886cd6c5be057bbfe4a.jpeg","bigImageFilename":"1d8c661747bb3132d414f127f648c1d0.jpeg","tags":["趣图"]},{"title":"现在楼盖的太密了","id":2295,"date":"2015/11/20 23:14:00","imageFilename":"b81269f68f88ab10b979d6baf1d36e4b.jpeg","bigImageFilename":"d3a86f3ab907ddb410bc72e4daf2a4ec.jpeg","tags":["美腿"]},{"title":"斑点裙","id":2301,"date":"2015/11/21 17:39:00","imageFilename":"4edf34817afab76d76494197cbc75f73.jpeg","bigImageFilename":"11ca2f50c8c53f6fb2d0593152ef310b.jpeg","tags":["好身材"]},{"title":"挑什么呢","id":2202,"date":"2015/11/15 08:06:00","imageFilename":"d25d81c84f6c4599263bf3868e065e8f.jpeg","bigImageFilename":"874e9483e167f68bf2d753f80ec28b93.jpeg","tags":["在路上"]},{"title":"你用什么英雄","id":2205,"date":"2015/11/15 08:13:00","imageFilename":"7bafdffd1eeecc08075de6a146d52ff3.jpeg","bigImageFilename":"effd1ae18510dd348504a42de70fcc62.jpeg","tags":["贵在真实"]},{"title":"这是毛线裙吗","id":2199,"date":"2015/11/15 08:02:00","imageFilename":"ebbbb4b276149772ca189d96143a22e4.jpeg","bigImageFilename":"f42584d1c23db4b33f33b1f21110d918.jpeg","tags":["好身材"]},{"title":"回眸","id":2177,"date":"2015/11/14 21:29:00","imageFilename":"87d15f28981583b0d24f99408fb5fd21.jpeg","bigImageFilename":"ce77c304901cf1a572cae8e8b0028284.jpeg","tags":["在路上"]},{"title":"小区健身","id":2196,"date":"2015/11/15 08:01:00","imageFilename":"9c574013d347d4b4692eeeedf7ef75d1.jpeg","bigImageFilename":"a8f72a0563146c930ab12bff25394deb.jpeg","tags":["在路上","好身材"]},{"title":"帽子不错","id":2171,"date":"2015/11/14 21:26:00","imageFilename":"44748fc1721cc2b4894171b3d0a88b96.jpeg","bigImageFilename":"78fde306152ede760687c59e44b34984.jpeg","tags":["美"]},{"title":"国画风格的上衣","id":2168,"date":"2015/11/14 21:23:00","imageFilename":"e90a7340fbb991c7a6be4d1e71d11af2.jpeg","bigImageFilename":"a1e328b35a3ae6a03f481479a26af8fa.jpeg","tags":["在路上"]},{"title":"衣服是什么图案","id":2158,"date":"2015/11/14 18:22:00","imageFilename":"242ad1fb95c2e0d368d28afca34b014a.jpeg","bigImageFilename":"5073dea4f84ee5f3105fef3961ac056a.jpeg","tags":["大"]},{"title":"阳光正好","id":2155,"date":"2015/11/14 18:20:00","imageFilename":"2cb29771d71554e5bb69fd967c957ba2.jpeg","bigImageFilename":"0363a239d4c0cbc6e6d51d1a732ef8e7.jpeg","tags":["在路上"]},{"title":"吊坠是啥","id":2162,"date":"2015/11/14 21:19:00","imageFilename":"2e462272de809f7b70cb50931281b20d.jpeg","bigImageFilename":"5752a99c51fd5f5eccb6cad545451e0f.jpeg","tags":["贵在真实"]},{"title":"YEAH","id":2067,"date":"2015/11/8 18:36:00","imageFilename":"2af4d6c0b2a13ab9d7580918d5a05ba8.jpeg","bigImageFilename":"7d00284cfa4539b24058d0e84eb2359a.jpeg","tags":["在路上"]},{"title":"辫子不错","id":2064,"date":"2015/11/8 18:34:00","imageFilename":"009072ceeed2746ddb3dbfb204c02fe6.jpeg","bigImageFilename":"c4b952629e0de76f105ebea842150952.jpeg","tags":["在路上","好身材","美腿"]},{"title":"在看哪里","id":1958,"date":"2015/11/2 22:10:00","imageFilename":"711faa43c5c94e41523996c596f75b24.jpeg","bigImageFilename":"7f0127260ab319cd1f170a201c6af027.jpeg","tags":["好身材","美腿"]},{"title":"是在写代码么","id":1934,"date":"2015/11/1 17:42:00","imageFilename":"46a308e05fb986cb0581bbf7ee60e0e6.jpeg","bigImageFilename":"f2d125e7549446a3bff6dedb6a6abb98.jpeg","tags":["美腿"]},{"title":"头有点晕","id":1937,"date":"2015/11/1 17:43:00","imageFilename":"e1a2baca5d7a448f3d0b08594885ae67.jpeg","bigImageFilename":"62566ba3e08bb660e18183e25b2f59e7.jpeg","tags":["好身材","美腿"]},{"title":"时光静好","id":1931,"date":"2015/11/1 17:40:00","imageFilename":"6098bf200d08eb017f7501c5db634b5f.jpeg","bigImageFilename":"f896969743e538b165cc2ea4a79182d6.jpeg","tags":["在路上","美腿"]},{"title":"斑驳的阳光","id":1927,"date":"2015/11/1 14:09:00","imageFilename":"9a2926cddeb980debcf6cae30ec96d00.jpeg","bigImageFilename":"d20738e91f4e1749423fef9ac7dba9aa.jpeg","tags":["在路上","风景"]},{"title":"这是什么项目","id":1917,"date":"2015/11/1 08:38:00","imageFilename":"9b0cf1b83fd17c3f88aca16360edc365.jpeg","bigImageFilename":"536e2c7621287b5f22922fe63b69fe32.jpeg","tags":["好身材"]},{"title":"平板支撑","id":1920,"date":"2015/11/1 08:39:00","imageFilename":"6aebabe38952a6ac91de17b5ba0ebb25.jpeg","bigImageFilename":"10229f9d7221b1f9587063e568ad6a67.jpeg","tags":["好身材"]},{"title":"吊坠不错","id":1914,"date":"2015/11/1 08:37:00","imageFilename":"487ad43e7a256ffbafcaeafd913fce15.jpeg","bigImageFilename":"17bde1065e87b0d1226b56046a9b18ff.jpeg","tags":["大"]},{"title":"你选哪一个","id":1911,"date":"2015/11/1 08:36:00","imageFilename":"202decfc48e6dc5cde385167d527c948.jpeg","bigImageFilename":"1eda6541a97ed829714d69b54f883933.jpeg","tags":["美腿"]}],"allTags":["美腿","贵在真实","在路上","好身材","大","美","游客投稿","风景","趣图","欧美","害羞"]}