{"totalPage":66,"total":2356,"page":26,"pageSize":36,"list":[{"title":"喝高了","id":17865,"date":"2019/1/14 04:03:00","imageFilename":"568b14ddcb793722d5c54ca4c07e3655.jpeg","bigImageFilename":"019c524db6d34fcb452e62cf2c13bfbb.jpeg","tags":["美腿","贵在真实"]},{"title":"永恒之井","id":17863,"date":"2019/1/13 12:18:00","imageFilename":"77052ca8e91be8e532a42e701cd762f7.jpeg","bigImageFilename":"de8ed82953d1318f47a3fde6d1bf8974.jpeg","tags":["美腿"]},{"title":"雨后","id":17864,"date":"2019/1/14 02:15:00","imageFilename":"19604efa6dcb78decc87cb12af61510f.jpeg","bigImageFilename":"ac4066eb63cc4ed9d428fedd5696ceed.jpeg","tags":["在路上","大"]},{"title":"来杯咖啡","id":17862,"date":"2019/1/13 12:18:00","imageFilename":"adc03049f36d22e637479e5085c0785e.jpeg","bigImageFilename":"e48c5529e64f207d322bf6934dd22264.jpeg","tags":["好身材"]},{"title":"试穿效果","id":17860,"date":"2019/1/13 11:32:00","imageFilename":"8f50bf0eb0e6ada54539093cdd74043c.jpeg","bigImageFilename":"d1b087c251cd7b727c744ef5c8c0295d.jpeg","tags":["大"]},{"title":"什么灯","id":17859,"date":"2019/1/13 11:27:00","imageFilename":"d4178f6c18764afef8c1865d121f172c.jpeg","bigImageFilename":"1c3c166800742b20e22fdafd8852a5b0.jpeg","tags":["好身材","贵在真实"]},{"title":"看的什么书","id":17861,"date":"2019/1/13 11:34:00","imageFilename":"605fd3ddca9c4ec03fd23ce3b93199e2.jpeg","bigImageFilename":"5fe2dd12e32f6ae5d4e601e4756c6ab2.jpeg","tags":["美腿"]},{"title":"是相同布料吧","id":17857,"date":"2019/1/13 09:08:00","imageFilename":"4ee97d74a16b41747301d304c4a9cef2.jpeg","bigImageFilename":"9442946ac0a7519543ed9fde629af0ac.jpeg","tags":["在路上"]},{"title":"什么手机","id":17858,"date":"2019/1/13 09:09:00","imageFilename":"996a66caf61a85e3f67f69142bf8cd42.jpeg","bigImageFilename":"6e06d297aa86d932fae0bee809f5b413.jpeg","tags":["在路上"]},{"title":"好漂亮的花","id":17856,"date":"2019/1/13 08:00:00","imageFilename":"20d03455524399bd852d0ec5b117a1da.jpeg","bigImageFilename":"c5416d2f0b7167c35f9df79aa20edea3.jpeg","tags":["好身材","美腿"]},{"title":"好期待","id":17854,"date":"2019/1/12 11:47:00","imageFilename":"a99d6160edaa71d392a421a1183dc333.jpeg","bigImageFilename":"45ad8a76032a5669fdfa65ffdcd2984f.jpeg","tags":["大"]},{"title":"纹的什么字","id":17855,"date":"2019/1/12 12:59:00","imageFilename":"7d5ac9838a505e85b3014364aa8ee0d8.jpeg","bigImageFilename":"3bc1cadceabcd2abf7e74ee543d34f25.jpeg","tags":["好身材"]},{"title":"这是什么吊坠","id":17853,"date":"2019/1/12 11:47:00","imageFilename":"45b6bbd23cf7ec901f51743b465c291b.jpeg","bigImageFilename":"65e1eecffb2e136b844967e10c1d3eb0.jpeg","tags":["美"]},{"title":"游泳归来","id":17852,"date":"2019/1/12 07:09:00","imageFilename":"72c2581586c3694b1fc02b6d63a2598c.jpeg","bigImageFilename":"ee204eaa8332ed788f1a6062853852f0.jpeg","tags":["大","好身材"]},{"title":"什么车","id":17850,"date":"2019/1/12 07:06:00","imageFilename":"ffed6b94fef453f0885f3e69e528cf65.jpeg","bigImageFilename":"06c7edfa977c61559254f909b2752b6e.jpeg","tags":["大"]},{"title":"什么车","id":17849,"date":"2019/1/12 07:05:00","imageFilename":"ffed6b94fef453f0885f3e69e528cf65.jpeg","bigImageFilename":"06c7edfa977c61559254f909b2752b6e.jpeg","tags":["大"]},{"title":"硌脚不","id":17851,"date":"2019/1/12 07:08:00","imageFilename":"89e0f93cfe934db48b9bfc1d97d1e77e.jpeg","bigImageFilename":"6b33b57bd82043f864f9750e0d15df92.jpeg","tags":["美腿"]},{"title":"碧海蓝天白云","id":17847,"date":"2019/1/11 09:21:00","imageFilename":"e1ecaea8d177cb592ac79a5af1251b45.jpeg","bigImageFilename":"782b5e230ebe98e2e0e16ad2f12bf171.jpeg","tags":["好身材","美腿"]},{"title":"什么进去了","id":17848,"date":"2019/1/11 09:22:00","imageFilename":"7779c8b45619969ff5ad55cc341ba762.jpeg","bigImageFilename":"f285442a4495bea53a1c2b31e3d447bc.jpeg","tags":["大","好身材","美腿"]},{"title":"这样行不","id":17845,"date":"2019/1/10 04:50:00","imageFilename":"3a1c68fdd01de147a7b4eeb72dddf32d.jpeg","bigImageFilename":"9461dcc89b276e3bd3800f180ce8cf65.jpeg","tags":["大","贵在真实"]},{"title":"耳坠不错哦","id":17846,"date":"2019/1/11 08:28:00","imageFilename":"072944b64a9b6d0e0496f3e82792fdd7.jpeg","bigImageFilename":"84eed8350a2cc8e3dec56e1f4b1ad8c6.jpeg","tags":["大"]},{"title":"这件好看吗","id":17844,"date":"2019/1/10 03:24:00","imageFilename":"c75f53e533ebbce8f35f778f3a14a862.jpeg","bigImageFilename":"7e9fdb45e4b39d231da899034579a93d.jpeg","tags":["贵在真实"]},{"title":"你选哪一个","id":17843,"date":"2019/1/9 05:15:00","imageFilename":"852d3755b9cdef287e56585a639d4a29.jpeg","bigImageFilename":"0efee9b5dbb2334b0e0dbd7170f7efc8.jpeg","tags":["在路上","好身材"]},{"title":"看的什么书","id":17841,"date":"2019/1/9 05:12:00","imageFilename":"57c04f49b7bdaac659b9c20ad3207cbc.jpeg","bigImageFilename":"25c2123d2d970151aa69d6de21d48a85.jpeg","tags":["大","好身材"]},{"title":"星巴克好喝不","id":17842,"date":"2019/1/9 05:13:00","imageFilename":"4f5128a86b08c3a8299c2d8d15824a84.jpeg","bigImageFilename":"d3fe0627aa12d690f4f50dcee7dae1e7.jpeg","tags":["美腿"]},{"title":"好读书","id":17839,"date":"2019/1/9 02:08:00","imageFilename":"b7f61eec610f3eb6c6f0843653ea9af5.jpeg","bigImageFilename":"50026b0a198f62481af3dd05758a6a92.jpeg","tags":["大","好身材","美腿"]},{"title":"想念夏天","id":17840,"date":"2019/1/9 02:11:00","imageFilename":"cbbf18ef2196bbdfee8cc084058fbf3f.jpeg","bigImageFilename":"68cbc1048fde00a50f1309ead100e919.jpeg","tags":["大","好身材"]},{"title":"新买的裤子","id":17838,"date":"2019/1/8 05:05:00","imageFilename":"630631b5141a7fce012fc27f464f919d.jpeg","bigImageFilename":"e8848f81c71f27e1fc8645e0ce76b2a5.jpeg","tags":["好身材"]},{"title":"形单影只","id":17837,"date":"2019/1/5 07:14:00","imageFilename":"3b1469743becc9b955f348c91066e641.jpeg","bigImageFilename":"731200e76a87e2a7cda1d8390e1c148a.jpeg","tags":["好身材"]},{"title":"玻璃观景台","id":17836,"date":"2019/1/5 07:13:00","imageFilename":"7efb86e0a21d8369d4fffaca5bcbdc35.jpeg","bigImageFilename":"5ce2baa1d1bced4facd5b8d5f37ac3fb.jpeg","tags":["美腿"]},{"title":"午后小憩","id":17835,"date":"2019/1/5 07:13:00","imageFilename":"eab3a9970df41530ffcc3e8c35c6dedc.jpeg","bigImageFilename":"5522091840f87dda0b32394a2f75648b.jpeg","tags":["欧美"]},{"title":"想看正面","id":17833,"date":"2019/1/4 09:34:00","imageFilename":"ba0ba780a8b7d518e9cc77c42d80f5f3.jpeg","bigImageFilename":"9407002f784ed6fae9f1a9dd48c0e475.jpeg","tags":["好身材","美","美腿"]},{"title":"好看不","id":17834,"date":"2019/1/4 15:01:00","imageFilename":"b3460b07df40b463d36f605f79ab33af.jpeg","bigImageFilename":"3cf8b39ce1dfce4f7754430ee82708d4.jpeg","tags":["大","好身材"]},{"title":"Milkcocoa","id":17832,"date":"2019/1/4 06:20:00","imageFilename":"a21417f3da00b107cde27ed834a41a04.jpeg","bigImageFilename":"6057751d8dce3f6c9c8a40fff09c800c.jpeg","tags":["大","好身材","美"]},{"title":"马尾辫","id":17830,"date":"2019/1/4 06:18:00","imageFilename":"4890ebfe62fce9987e8c630c34f5e9f8.jpeg","bigImageFilename":"979dea8094241c0a4a44fcc4298dc124.jpeg","tags":["大"]},{"title":"蓝天白云绿树流水","id":17831,"date":"2019/1/4 06:19:00","imageFilename":"ac888c8dfc20aa1f6677b510a928efc9.jpeg","bigImageFilename":"5c4aa8241f6f9c9d046523dedc7cd08b.jpeg","tags":["在路上"]}]}