{"totalPage":66,"total":2356,"page":30,"pageSize":36,"list":[{"title":"你选哪一个","id":17721,"date":"2018/12/18 04:55:00","imageFilename":"8346b953afa01eeb5b245d2e13487972.jpeg","bigImageFilename":"b5946551a9ee91d495255c9719cbd86c.jpeg","tags":["大","好身材","美腿"],"width":1020,"height":1020},{"title":"什么水","id":17720,"date":"2018/12/18 04:53:00","imageFilename":"7681cd7efc2fafe27526ed4b29db0589.jpeg","bigImageFilename":"27024cd4fa5eca9489f93ac5ded5c706.jpeg","tags":["大"],"width":900,"height":1200},{"title":"海浪","id":17716,"date":"2018/12/17 04:50:00","imageFilename":"c6bf470de9f3cd8d6614aea9dd3845dd.jpeg","bigImageFilename":"d467789bb21575c99f0ba0e6f1a5f106.jpeg","tags":["美腿"],"width":642,"height":1092},{"title":"早","id":17715,"date":"2018/12/17 04:49:00","imageFilename":"be0b97498e8aa4f4a4a98f7b5fdcc0c6.jpeg","bigImageFilename":"e20fba84ed78f3c6cba092a141322e0f.jpeg","tags":["美"],"width":900,"height":1200},{"title":"映日荷花别样红","id":17717,"date":"2018/12/17 06:12:00","imageFilename":"129583c33e3aa855ef9a0e82004c1b55.jpeg","bigImageFilename":"49e31ce6496959aabe1b6020c99e2225.jpeg","tags":["大","好身材"],"width":929,"height":921},{"title":"报告写的咋样了","id":17718,"date":"2018/12/18 04:52:00","imageFilename":"08eb725013ab5d78c6d579bdd7c3f5c8.jpeg","bigImageFilename":"798b5f09bdf4cac1c1839a4ccf468219.jpeg","tags":["美腿"],"width":820,"height":1200},{"title":"中央空调","id":17714,"date":"2018/12/17 04:47:00","imageFilename":"d461fd0498979c5d000b3bc55a2b227f.jpeg","bigImageFilename":"6d6706745bb3d78e89766ce6a3b00f7c.jpeg","tags":["美腿","贵在真实"],"width":900,"height":1200},{"title":"三六九","id":17719,"date":"2018/12/18 04:53:00","imageFilename":"f672b56f9d6286de6be2fae487f7a605.jpeg","bigImageFilename":"dab85280442671b8227e834fc938bf8f.jpeg","tags":["大"],"width":634,"height":601},{"title":"快来接我啊","id":17713,"date":"2018/12/17 04:41:00","imageFilename":"127f03d905073218c20936ddf0a12969.jpeg","bigImageFilename":"ab81574795600563d8ee49f53a3bcc36.jpeg","tags":["美腿"],"width":800,"height":1200},{"title":"来瓶可乐","id":17712,"date":"2018/12/17 04:40:00","imageFilename":"f9d3ca8a4dd11add65acf49bfe69b699.jpeg","bigImageFilename":"9d31f4afa216b232a0a9bc0dfc10930e.jpeg","tags":["美腿"],"width":647,"height":887},{"title":"你选哪一个","id":17711,"date":"2018/12/17 03:17:00","imageFilename":"89125bd6e26978dde901151f2a3bf5f0.jpeg","bigImageFilename":"bc84bce3086a9ae6c9b34a1928434179.jpeg","tags":["美腿"],"width":900,"height":1200},{"title":"球球","id":17709,"date":"2018/12/14 10:30:00","imageFilename":"cc124d4c15084650b6b62f9f837c9d1a.jpeg","bigImageFilename":"1692c457a5e5b08c11025862925c7223.jpeg","tags":["好身材"],"width":1080,"height":822},{"title":"低椅子","id":17708,"date":"2018/12/14 04:47:00","imageFilename":"a83f3a63e84118cade0e1a08baa0fb0c.jpeg","bigImageFilename":"e4f674dc091ccad38e224900a3e3802f.jpeg","tags":["大"],"width":769,"height":1200},{"title":"喝杯奶茶","id":17710,"date":"2018/12/14 10:30:00","imageFilename":"37785a73fc80805ceb8cba7011518202.jpeg","bigImageFilename":"cf7876a01393c4ff97f0e33a0d0944bc.jpeg","tags":["大","美腿"],"width":963,"height":1200},{"title":"高板凳","id":17707,"date":"2018/12/14 04:46:00","imageFilename":"16d94dc3b84eb4215fe3f6c6f085c362.jpeg","bigImageFilename":"f41dc6b69debb56b422d9e80a4fe65fd.jpeg","tags":["美腿"],"width":960,"height":1200},{"title":"回眸一笑","id":17706,"date":"2018/12/14 02:11:00","imageFilename":"1d117fa74b8d50828cb1db4153fcdd2e.jpeg","bigImageFilename":"e2ff2ba8045e9b8509971b36d6461a5a.jpeg","tags":["大"],"width":960,"height":1200},{"title":"系鞋带","id":17704,"date":"2018/12/13 05:49:00","imageFilename":"27c0eb75358a7222f108bff03d497f6f.jpeg","bigImageFilename":"ae79fb7287c7e33dd9917a59ca3457b6.jpeg","tags":["大"],"width":690,"height":1035},{"title":"小憩","id":17694,"date":"2018/12/8 14:58:00","imageFilename":"f6c73f939401cfd29565bc8080e13bca.jpeg","bigImageFilename":"f5c8d071a9637aea7dc56e23f0eab39a.jpeg","tags":["美腿"],"width":600,"height":800},{"title":"冬日的温泉","id":17705,"date":"2018/12/13 09:38:00","imageFilename":"1862c510e3a5d24f68104d61cba0941b.jpeg","bigImageFilename":"8b030fbbe6f7e7006a364138bcba1bdf.jpeg","tags":["大"],"width":901,"height":1199},{"title":"面试结果来了","id":17693,"date":"2018/12/8 14:57:00","imageFilename":"3dae945e7ddfa45dec7ec00c5bc75dc0.jpeg","bigImageFilename":"2a20e074c5a9f91b79f67207fdcbd1f9.jpeg","tags":["在路上"],"width":735,"height":1200},{"title":"冲个澡","id":17692,"date":"2018/12/8 14:48:00","imageFilename":"3ea65dded52413dafde34ff817e247e1.jpeg","bigImageFilename":"d05711549a4d9d6ea20badabef1e0f93.jpeg","tags":["美腿"],"width":714,"height":1199},{"title":"买的什么","id":17690,"date":"2018/12/8 14:30:00","imageFilename":"8857587171aa27d8b5e7559cb0f0ba71.jpeg","bigImageFilename":"495b2332a69d3eff78512c0a5cc61655.jpeg","tags":["美腿"],"width":500,"height":644},{"title":"风","id":17691,"date":"2018/12/8 14:43:00","imageFilename":"77aaacc72fb6a9c8f6938c98864d8669.jpeg","bigImageFilename":"91f6e3174d849124ba7fc1479734e76c.jpeg","tags":["大"],"width":640,"height":640},{"title":"毛线裙","id":17689,"date":"2018/12/8 14:23:00","imageFilename":"fa2e22897f1615bac2854d62c28b644e.jpeg","bigImageFilename":"16defd0952aa13a6ee215377f49299e1.jpeg","tags":["大"],"width":1080,"height":1080},{"title":"什么车","id":17688,"date":"2018/12/7 09:40:00","imageFilename":"ae2becbfe3b8a58123ccccabf8b7aa37.jpeg","bigImageFilename":"2575498faca0b45513280e71c31dfb9a.jpeg","tags":["大"],"width":600,"height":750},{"title":"泡温泉的季节","id":17687,"date":"2018/12/6 09:51:00","imageFilename":"193cd81cf9b77a0741341a961f2c07d4.jpeg","bigImageFilename":"a0a90200341db21d748566a012d38c49.jpeg","tags":["大"],"width":425,"height":583},{"title":"对面是谁","id":17686,"date":"2018/12/6 05:16:00","imageFilename":"5ad5275f3f1645dcbf696256ac795136.jpeg","bigImageFilename":"61a9432d9be377984f521c99b6bfcd46.jpeg","tags":["美腿"],"width":600,"height":875},{"title":"喝点什么","id":17703,"date":"2018/12/13 03:58:00","imageFilename":"c62d30ad372cfc89819511edc3edcc68.jpeg","bigImageFilename":"1b40a1b7e66aeee8fac31f3166fa94d4.jpeg","tags":["贵在真实"],"width":800,"height":1158},{"title":"荡秋千","id":17702,"date":"2018/12/11 04:50:00","imageFilename":"12e56b54f02007a70d555e3a91c0dd88.jpeg","bigImageFilename":"affa291502bd333f4d845fcc80b4097a.jpeg","tags":["贵在真实"],"width":600,"height":800},{"title":"(｡･∀･)ﾉﾞ嗨","id":17700,"date":"2018/12/9 13:20:00","imageFilename":"7237b6732c62c379eefcf3c5e7f4b61c.jpeg","bigImageFilename":"ed477651399380bcc8e770d4df18079a.jpeg","tags":["美腿"],"width":576,"height":1029},{"title":"泡沫轴","id":17701,"date":"2018/12/9 13:22:00","imageFilename":"bf84a9778a90e16e1f0bd3d03d89ab6d.jpeg","bigImageFilename":"e38cf3c7e624a356fca7b1918169d7b1.jpeg","tags":["好身材","美腿"],"width":960,"height":1200},{"title":"什么项目","id":17699,"date":"2018/12/9 06:24:00","imageFilename":"087b60292245ac8ff520cc7a97bb8726.jpeg","bigImageFilename":"eeda867061f3965b31853b627d50a702.jpeg","tags":["美腿"],"width":600,"height":826},{"title":"方案做的不错","id":17698,"date":"2018/12/8 15:06:00","imageFilename":"7a3b8fa48f575981bb011da1b800f377.jpeg","bigImageFilename":"debd6ec25730251a8fc1f2f8126254ad.jpeg","tags":["贵在真实"],"width":500,"height":666},{"title":"去吃火锅","id":17696,"date":"2018/12/8 15:00:00","imageFilename":"73780413699e447b02bd557f1edafbaf.jpeg","bigImageFilename":"68d690e45f086f5101ba1ef04df43a3e.jpeg","tags":["在路上"],"width":785,"height":1200},{"title":"欢乐小霸王","id":17697,"date":"2018/12/8 15:00:00","imageFilename":"9fa5b7b763c3a763397aee4888008211.jpeg","bigImageFilename":"41c25f4f8de3ef999e1cf1919cc79808.jpeg","tags":["好身材"],"width":789,"height":1200},{"title":"哇哦","id":17695,"date":"2018/12/8 14:59:00","imageFilename":"3c6637b1c9bfa5cdc5902d920c13a881.jpeg","bigImageFilename":"69c733a44e7b6217aa8dea29df3fbbea.jpeg","tags":["美腿"],"width":815,"height":1200}],"allTags":["美腿","贵在真实","在路上","好身材","大","美","游客投稿","风景","趣图","欧美","害羞"]}