{"totalPage":66,"total":2356,"page":6,"pageSize":36,"list":[{"title":"看","id":18576,"date":"2021/4/27 11:45:00","imageFilename":"73366954d035659e953b4b7555cd31ad.jpeg","bigImageFilename":"b584966b82145037451e02f2c18e3991.jpeg","tags":["在路上"],"width":1365,"height":2048},{"title":"什么项链","id":18577,"date":"2021/4/27 12:10:00","imageFilename":"e38705b9c26a38fd399d15de8c153aab.jpeg","bigImageFilename":"81f551daf7bc76b3897e18c363079458.jpeg","tags":["大","贵在真实"],"width":2048,"height":1363},{"title":"请注意","id":18575,"date":"2021/4/27 05:17:00","imageFilename":"a24cbc01286ce101bb13f28ff998da61.jpeg","bigImageFilename":"ad5955caa6cec6174caeeaa6bc786a68.jpeg","tags":["美腿"],"width":1280,"height":720},{"title":"去打球","id":18573,"date":"2021/4/26 03:34:00","imageFilename":"073041f0d0af97e25bef88616355b1ad.jpeg","bigImageFilename":"810411849b865f3f8fc88c229333ac32.jpeg","tags":["好身材"],"width":1108,"height":1478},{"title":"星巴克","id":18572,"date":"2021/4/25 10:52:00","imageFilename":"7199cf7fd2021dc3e1b9de736650bcb8.jpeg","bigImageFilename":"17335988a34629611d8f60bfe7e9f605.jpeg","tags":["大","好身材"],"width":1536,"height":2048},{"title":"你好","id":18574,"date":"2021/4/27 04:05:00","imageFilename":"268fb33c4f43679b8c886b90db26c4a2.jpeg","bigImageFilename":"e9e9fa7566048fbbb7ab468c1e68756d.jpeg","tags":["美"],"width":1365,"height":2047},{"title":"HOT","id":18571,"date":"2021/4/25 07:33:00","imageFilename":"d4ca48cd6e417732c340120a032f54e1.jpeg","bigImageFilename":"d63f6b31dc5d05923592e7f8ff6bddbe.jpeg","tags":["大"],"width":680,"height":655},{"title":"践踏草坪","id":18570,"date":"2021/4/25 07:04:00","imageFilename":"4f6d3d2d00d4e0cb5fbad173fe081334.jpeg","bigImageFilename":"2e740686c01597f279f719b1d71d68e1.jpeg","tags":["在路上","大"],"width":500,"height":889},{"title":"花海","id":18569,"date":"2021/4/23 03:43:00","imageFilename":"9cb2d4c21b7239e54562846d2b2723ce.jpeg","bigImageFilename":"08da1ff1f6f45d35b01f87f02fbf6ce6.jpeg","tags":["大"],"width":623,"height":670},{"title":"看哪场呢","id":18586,"date":"2021/5/10 01:28:00","imageFilename":"8f0e061c3ed3e622e881a744ece0ab00.jpeg","bigImageFilename":"f95a41bb3576c8294b0e9cd85c2ff091.jpeg","tags":["贵在真实"],"width":1536,"height":2048},{"title":"好喝吗","id":18584,"date":"2021/5/7 12:16:00","imageFilename":"86516788f2d7493b79ab95a817c5f13e.jpeg","bigImageFilename":"c0ef6729cc0448771196aab28d51249d.jpeg","tags":["大"],"width":1080,"height":1440},{"title":"早","id":18583,"date":"2021/5/6 05:06:00","imageFilename":"caa4654435188d411ba54a59e926eb87.jpeg","bigImageFilename":"651f3a18586d4a09198a8b47fe4013e2.jpeg","tags":["大"],"width":1439,"height":1348},{"title":"一抹绿","id":18585,"date":"2021/5/8 10:11:00","imageFilename":"af476e9a50414bd3df214c8a67078872.jpeg","bigImageFilename":"4c3f3a5840b8b1c6f4d6b2210e5abb8a.jpeg","tags":["美腿"],"width":1080,"height":1438},{"title":"灯光昏暗","id":18582,"date":"2021/5/6 04:51:00","imageFilename":"27c96c7deb0a569b283a78d911742d98.jpeg","bigImageFilename":"13e4ccc8845548f06be8fdc3358d2ebd.jpeg","tags":["好身材"],"width":1131,"height":1250},{"title":"加油","id":18580,"date":"2021/4/30 06:07:00","imageFilename":"faafd593ba3df92827d100b87d32dfcb.jpeg","bigImageFilename":"a14ae1d8f08321eb10b270170119a54e.jpeg","tags":["在路上","大","好身材"],"width":1080,"height":1350},{"title":"夏天来了","id":18581,"date":"2021/4/30 07:56:00","imageFilename":"727e1d793403f9ad1c495c03ccb3cece.jpeg","bigImageFilename":"f59eabf03189bf1a518a2519bf459f91.jpeg","tags":["美腿"],"width":2048,"height":1150},{"title":"星星","id":18579,"date":"2021/4/29 02:24:00","imageFilename":"46e9a288e32ad1cede59e2330025ff2a.jpeg","bigImageFilename":"dde26ab15784120f2c69935d01e196ac.jpeg","tags":["美腿"],"width":2048,"height":1536},{"title":"喝的什么","id":18568,"date":"2021/4/22 05:44:00","imageFilename":"a94b9b988cbf3eb8d008173be2983c3c.jpeg","bigImageFilename":"afa83ac66925d172dd9964b5a4b7314c.jpeg","tags":["好身材"],"width":1128,"height":1504},{"title":"出发","id":18578,"date":"2021/4/28 10:09:00","imageFilename":"f6e9e22ec4c99c23d13321220632c7c7.jpeg","bigImageFilename":"19b5a1aefe3ebc550fd03a2cd83ed21f.jpeg","tags":["美腿"],"width":4096,"height":2732},{"title":"去上学","id":18567,"date":"2021/4/22 04:53:00","imageFilename":"aad70a2af35348b16805cf0503db8b14.jpeg","bigImageFilename":"156e95eb76739eba6b3e516e82375a60.jpeg","tags":["好身材"],"width":2048,"height":1736},{"title":"热狗","id":18566,"date":"2021/4/16 14:40:00","imageFilename":"aa17e8434b6db27979a88d75c3bfc17f.jpeg","bigImageFilename":"d524c64771fb10250685eb02f9302028.jpeg","tags":["大","好身材"],"width":1536,"height":2048},{"title":"江边城外","id":18565,"date":"2021/4/16 05:29:00","imageFilename":"77150f441bbfdcd0b9e96c09290b447f.jpeg","bigImageFilename":"0ab08ad43fd2bef35183593d44718cdd.jpeg","tags":["大","好身材"],"width":750,"height":1334},{"title":"春光","id":18564,"date":"2021/4/15 01:39:00","imageFilename":"7b144b964943b736051528a17f7981ef.jpeg","bigImageFilename":"413ca6e2d85230b7849e7b3f87f48b21.jpeg","tags":["好身材","美"],"width":1285,"height":2047},{"title":"哦","id":18562,"date":"2021/4/13 05:29:00","imageFilename":"b0753142074a5effce0c495b5d7afe51.jpeg","bigImageFilename":"105e77e4e9940b5d88933fd0667241be.jpeg","tags":["好身材"],"width":1128,"height":1011},{"title":"冲一下","id":18563,"date":"2021/4/13 06:17:00","imageFilename":"1c1d1bbc9709fed2f03953c8e85668d9.jpeg","bigImageFilename":"74cb3e1e0c6f3bef83d0fbf0536fd735.jpeg","tags":["大","好身材"],"width":1440,"height":1774},{"title":"什么面料","id":18561,"date":"2021/4/8 13:47:00","imageFilename":"f88ae03b13f5225ad324cc73370d7a83.jpeg","bigImageFilename":"e69a73b0b53907dbedc0792bb6d1d1b2.jpeg","tags":["在路上","好身材"],"width":1278,"height":2048},{"title":"好吃","id":18559,"date":"2021/4/8 07:56:00","imageFilename":"0f34da6553d960c3fa7ba8753068147c.jpeg","bigImageFilename":"86e6cb8dc34b896a35af24617e2328a1.jpeg","tags":["大"],"width":1080,"height":1350},{"title":"桌子or地板","id":18560,"date":"2021/4/8 07:58:00","imageFilename":"b9b6bce170ad7bb9b784100281d65e5b.jpeg","bigImageFilename":"7d951df861fbe15920d6801780186d8c.jpeg","tags":["美腿"],"width":1440,"height":1440},{"title":"好丰盛","id":18558,"date":"2021/4/8 07:55:00","imageFilename":"798fad6a27c83c69182dfd4214c1f096.jpeg","bigImageFilename":"2e7c2d15ef3eeec3bad171da56a16eb3.jpeg","tags":["大"],"width":1080,"height":1350},{"title":"哪部","id":18556,"date":"2021/4/7 05:10:00","imageFilename":"7f935c3397c6116ce6e6d1f21a332a1e.jpeg","bigImageFilename":"4c65a7851cc775c6a080f075c182d163.jpeg","tags":["好身材"],"width":2048,"height":1580},{"title":"什么猫","id":18555,"date":"2021/4/7 05:09:00","imageFilename":"a32cd96e1b7e2a5d2316c9ebc5603fdb.jpeg","bigImageFilename":"acb52bff7766d43fffdf68f6389aae94.jpeg","tags":["美腿"],"width":757,"height":1200},{"title":"喝点啥","id":18557,"date":"2021/4/7 08:41:00","imageFilename":"f56e00347cd8dbc5ba918beeffd45db9.jpeg","bigImageFilename":"f67d76d5f07ffd669546bd4b810589aa.jpeg","tags":["美腿"],"width":1626,"height":2048},{"title":"机智","id":18553,"date":"2021/2/23 10:46:00","imageFilename":"cebde76b315051c102355a43ff83d75e.jpeg","bigImageFilename":"b7bcf1f17a4994fb527d77b4b616e1eb.jpeg","tags":["好身材","美腿","贵在真实"],"width":600,"height":800},{"title":"注意安全","id":18554,"date":"2021/2/24 04:47:00","imageFilename":"936b3c5ebf53b38f40e396b6bcd76418.jpeg","bigImageFilename":"29aadffe35dd0770b3eb6f2488b2d0a3.jpeg","tags":["贵在真实"],"width":1536,"height":2048},{"title":"快乐工作","id":18551,"date":"2021/2/23 05:02:00","imageFilename":"1dedb050d026847fde29429a871f61ba.jpeg","bigImageFilename":"fb6b0ca3e623b8bdd5b82458f8e9e795.jpeg","tags":["美"],"width":1536,"height":2048},{"title":"你选哪一个","id":18552,"date":"2021/2/23 05:22:00","imageFilename":"e8747f0a60bd25ca54eee1f8baf657fc.jpeg","bigImageFilename":"ffd946f215b1059e34366505c399babe.jpeg","tags":["大"],"width":1080,"height":1322}],"allTags":["美腿","贵在真实","在路上","好身材","大","美","游客投稿","风景","趣图","欧美","害羞"]}