{"totalPage":66,"total":2356,"page":16,"pageSize":36,"list":[{"title":"爬山途中","id":18226,"date":"2019/6/1 14:42:00","imageFilename":"406284a39e18a10bed8788eb5a3bf597.jpeg","bigImageFilename":"471878938cb7e92a8bd7cface54e86d7.jpeg","tags":["美腿","贵在真实"],"width":900,"height":1200},{"title":"什么鞋子","id":18225,"date":"2019/5/30 02:58:00","imageFilename":"fb1d6703fe84efd6c0562635c8f9fcd9.jpeg","bigImageFilename":"8ec06416772849ac0bf6ec2f96a07a16.jpeg","tags":["好身材","美腿"],"width":768,"height":1024},{"title":"午睡醒了","id":18223,"date":"2019/5/23 06:57:00","imageFilename":"1925a5af318415b9ee421fb5c99b5c52.jpeg","bigImageFilename":"7ed4185a5c528c999af62a9ff6593eed.jpeg","tags":["大","好身材","美腿"],"width":906,"height":1024},{"title":"星期五","id":18224,"date":"2019/5/24 09:32:00","imageFilename":"ace04cdca82f38c3450785571b9b80f8.jpeg","bigImageFilename":"4aa10aaffb6b9b6bef8b1fd0fb53f615.jpeg","tags":["大"],"width":768,"height":1024},{"title":"DUIER","id":18222,"date":"2019/5/21 06:35:00","imageFilename":"dae0eb03e59200bb2608bd1025bfc109.jpeg","bigImageFilename":"ba3dd5de41ac7992202a857971448675.jpeg","tags":["好身材","美腿"],"width":900,"height":1003},{"title":"地下凉","id":18221,"date":"2019/5/16 11:42:00","imageFilename":"22737d77b4168087a781d4834dd6a70d.jpeg","bigImageFilename":"67c63f1425c06feb3efd9a44a34cd457.jpeg","tags":["大","好身材","美腿"],"width":861,"height":1200},{"title":"游泳归来","id":18219,"date":"2019/5/16 05:59:00","imageFilename":"8dd1462caace2b6a2029634e4c90d151.jpeg","bigImageFilename":"5bb6ae45272f1a72f040cecaacb84cff.jpeg","tags":["好身材","美腿","贵在真实"],"width":1080,"height":1080},{"title":"胸不胸","id":18220,"date":"2019/5/16 07:39:00","imageFilename":"2aa8a92d1556bb2d759cfea748014b81.jpeg","bigImageFilename":"4dd6ff19f40107981ccd17a44a14cd18.jpeg","tags":["大"],"width":1200,"height":1123},{"title":"该换夏凉被了","id":18218,"date":"2019/5/15 12:24:00","imageFilename":"c76e17a772760cd411daacf7cf050df6.jpeg","bigImageFilename":"90864eefa9956d48ec5813c4c5d15594.jpeg","tags":["美腿","贵在真实"],"width":900,"height":1200},{"title":"新华大街店","id":18217,"date":"2019/5/15 09:15:00","imageFilename":"fec5202d8c3bd494007ad913dab571fe.jpeg","bigImageFilename":"4d3fc6b22c3eed7de8c0625258ac76b0.jpeg","tags":["在路上","好身材","贵在真实"],"width":600,"height":800},{"title":"什么车","id":18216,"date":"2019/5/15 08:09:00","imageFilename":"e550de817ab20d5e8e5a740ba4d0c215.jpeg","bigImageFilename":"8e0c32355caacbef6240c09fb6f87546.jpeg","tags":["美腿"],"width":926,"height":1200},{"title":"中国风","id":18215,"date":"2019/5/15 08:08:00","imageFilename":"53c063b8fb1699adee842ae84dc6204a.jpeg","bigImageFilename":"f8ee9e3e426d65c38f9e2d1ba298119c.jpeg","tags":["美腿"],"width":785,"height":1200},{"title":"瑜伽","id":18214,"date":"2019/5/14 06:05:00","imageFilename":"5151622aa4cb7a517d595609d75a47c3.jpeg","bigImageFilename":"b48c2581cae0aa754ba64b22e6450505.jpeg","tags":["好身材"],"width":600,"height":898},{"title":"Awesome","id":18213,"date":"2019/5/14 06:03:00","imageFilename":"125026114662c7c348bba93e61590b15.jpeg","bigImageFilename":"3bf7d10ca9200a88001cb5c11e9c19f8.jpeg","tags":["美腿"],"width":600,"height":1133},{"title":"什么游戏","id":18212,"date":"2019/5/14 04:43:00","imageFilename":"82f4826a4eb8b964b0c6232fc22090c8.jpeg","bigImageFilename":"4c3de95729dce0c4ab8b07523b2e4a35.jpeg","tags":["大"],"width":640,"height":960},{"title":"你能举起不","id":18211,"date":"2019/5/14 03:31:00","imageFilename":"decad97b766ed4bc31c49f3facdf4b67.jpeg","bigImageFilename":"903f2111df287426666a5c1551011e56.jpeg","tags":["大","好身材"],"width":700,"height":933},{"title":"落地灯","id":18210,"date":"2019/5/14 02:54:00","imageFilename":"e3b928b8f04421df4bee682a784d7829.jpeg","bigImageFilename":"1a6abdd741882b612a7f145916a337b1.jpeg","tags":["大","好身材","美腿"],"width":799,"height":1200},{"title":"这是哪里","id":18209,"date":"2019/5/13 12:03:00","imageFilename":"dcfd2120c09d94cd0fd60b40f797cec5.jpeg","bigImageFilename":"e5e51117c88b5028e6e15d58961b58a2.jpeg","tags":["美腿"],"width":960,"height":1200},{"title":"什么包","id":18199,"date":"2019/5/8 07:07:00","imageFilename":"ccdef863915405f06522d5e66aae9b5a.jpeg","bigImageFilename":"23195cef0f42e29093b29393b7b318ca.jpeg","tags":["美腿","贵在真实"],"width":900,"height":1200},{"title":"东方明珠","id":18198,"date":"2019/5/8 05:46:00","imageFilename":"94bc2d317f323f8b41311ef0dc1cb59c.jpeg","bigImageFilename":"3c6ee863319af3429d575f0617ee2df8.jpeg","tags":["大","好身材","美腿"],"width":793,"height":1200},{"title":"大煎饼","id":18197,"date":"2019/5/8 05:08:00","imageFilename":"0a1247de9841021544f53ff5e9822d37.jpeg","bigImageFilename":"e79fbabb1c7af9c75c11b167cad9d0d3.jpeg","tags":["大","好身材","美腿"],"width":720,"height":900},{"title":"午餐就吃KFC吧","id":18196,"date":"2019/5/8 05:06:00","imageFilename":"f0338ca95d645f5043b3fe4bccaf69d0.jpeg","bigImageFilename":"0d4bda48d431ec6927753f134a33edaa.jpeg","tags":["好身材","美腿"],"width":1200,"height":1200},{"title":"来一场","id":18194,"date":"2019/5/7 11:19:00","imageFilename":"e9b37244ea91a5848c8a10a709189321.jpeg","bigImageFilename":"0b4557cb48258e9c493bb378fde75013.jpeg","tags":["大","好身材"],"width":1025,"height":1200},{"title":"喝点什么","id":18195,"date":"2019/5/7 11:19:00","imageFilename":"be7adc8f302959ba419a0e58963c2f62.jpeg","bigImageFilename":"b05e9754f4a9cac2425d0abdf5f16ae2.jpeg","tags":["大","好身材"],"width":1075,"height":1200},{"title":"什么手机","id":18193,"date":"2019/5/7 05:15:00","imageFilename":"f0a8543b4b33400075efcbd453bf593a.jpeg","bigImageFilename":"6d6c2b93d44c652ee65a648ecfd36f96.jpeg","tags":["大","好身材","美腿","贵在真实"],"width":1080,"height":1080},{"title":"出门","id":18191,"date":"2019/5/6 06:54:00","imageFilename":"271ca1cb92c52f4fcef9078e3a15df46.jpeg","bigImageFilename":"0b0243ce062ff6ea7d5179bbc72f9cef.jpeg","tags":["好身材"],"width":956,"height":1200},{"title":"看什么那","id":18192,"date":"2019/5/6 11:33:00","imageFilename":"ecc111bf6177c7647d61b27218258893.jpeg","bigImageFilename":"7fb61d8e9d8825f8d2c9741062556d05.jpeg","tags":["大","好身材","美","美腿"],"width":1002,"height":1200},{"title":"是啦啦队吗","id":18207,"date":"2019/5/13 12:01:00","imageFilename":"a8cd584a6bc2e6864014d48f0c92e94c.jpeg","bigImageFilename":"e405af7be19dfce53ca59b47857279fe.jpeg","tags":["美腿"],"width":900,"height":1200},{"title":"吃个苹果","id":18208,"date":"2019/5/13 12:01:00","imageFilename":"ee315a503cf2efe53bf09e4751c8f169.jpeg","bigImageFilename":"ea0db009c79bf938981073940038ff4d.jpeg","tags":["美腿"],"width":1200,"height":1200},{"title":"你可以嘛","id":18206,"date":"2019/5/13 03:57:00","imageFilename":"f6ceca9f7446230afd3f2d275305a0cc.jpeg","bigImageFilename":"ab14a901d371d5469281ffe553dc737b.jpeg","tags":["好身材","美腿","趣图"],"width":720,"height":1080},{"title":"等你回家","id":18205,"date":"2019/5/10 11:04:00","imageFilename":"551e3fcbbc6f344f4414dc52ac00bed3.jpeg","bigImageFilename":"307af8e70b8d6f92eaaf7ee420d936de.jpeg","tags":["大"],"width":1200,"height":900},{"title":"这样会不会更累","id":18204,"date":"2019/5/10 10:55:00","imageFilename":"cbf2fffb859beb2da775fff3e6799312.jpeg","bigImageFilename":"6e3ec5f2f1f47f9da8cd1690f2be8386.jpeg","tags":["好身材","美","美腿","贵在真实"],"width":600,"height":734},{"title":"耳钉还是耳机","id":18203,"date":"2019/5/9 09:17:00","imageFilename":"29d3fc5df8d26d350bedbe01d0259967.jpeg","bigImageFilename":"b7f96a165b3e11dadab3474adbb50760.jpeg","tags":["大","美"],"width":1200,"height":901},{"title":"热不热","id":18201,"date":"2019/5/9 02:42:00","imageFilename":"6229099d11dbe9a5e7e6a9407be9f407.jpeg","bigImageFilename":"344ae7d5ac91da47139618c291c33888.jpeg","tags":["大","好身材"],"width":1080,"height":1080},{"title":"PUMA","id":18202,"date":"2019/5/9 06:55:00","imageFilename":"ceddd3254e3f78ee08a1d88925f63f6d.jpeg","bigImageFilename":"b25c1f3030f011831879314e75ef23cc.jpeg","tags":["美腿","贵在真实"],"width":1200,"height":788},{"title":"有点紧呢","id":18190,"date":"2019/5/6 05:13:00","imageFilename":"11c0f332f08bf3068597a6673e5c7fdd.jpeg","bigImageFilename":"a956b5698068b216ab66b084d2892ad7.jpeg","tags":["大","好身材"],"width":1080,"height":1080}],"allTags":["美腿","贵在真实","在路上","好身材","大","美","游客投稿","风景","趣图","欧美","害羞"]}