{"totalPage":66,"total":2356,"page":47,"pageSize":36,"list":[{"title":"躺会儿","id":8982,"date":"2017/6/4 17:54:00","imageFilename":"10e765bbc0dd7a7d1cd61931fa295885.jpeg","bigImageFilename":"b16f6182ffd0b44f46fc59e204e5ecc2.jpeg","tags":["美腿"],"width":500,"height":333},{"title":"碧海蓝天","id":8956,"date":"2017/6/4 17:55:00","imageFilename":"a0eed673ab7bcbb4bdc1ccd0ab2caa78.jpeg","bigImageFilename":"18ffd527f5c9e80ce13edf3cbd122bba.jpeg","tags":["好身材","美腿"],"width":500,"height":666},{"title":"看什么那","id":8942,"date":"2017/6/4 17:56:00","imageFilename":"8a2fca374418d9d0fc6cbfd1c362c6a4.jpeg","bigImageFilename":"e3799a59921d9f0d8c8f8af90232e2a2.jpeg","tags":["大","美"],"width":500,"height":611},{"title":"地下凉","id":8918,"date":"2017/6/5 20:46:00","imageFilename":"23f56e144e7659e4245a9d0c35b1f994.jpeg","bigImageFilename":"9b35b1017038418f43e9c6f6b15d053a.jpeg","tags":["美腿"],"width":500,"height":666},{"title":"阳光正好","id":8850,"date":"2017/6/6 20:25:00","imageFilename":"c5e170c8e6e3782ea74f1c75d21fea76.jpeg","bigImageFilename":"0a56eb71e9972adadfb95fb9b64281e5.jpeg","tags":["在路上"],"width":500,"height":500},{"title":"什么衣服","id":8844,"date":"2017/6/6 20:27:00","imageFilename":"23b992a1d69f5285680668c023dc3004.jpeg","bigImageFilename":"50a670ad810654ece1707b8c557d3787.jpeg","tags":["大"],"width":500,"height":476},{"title":"不错的沙发","id":8920,"date":"2017/6/5 20:46:00","imageFilename":"26f3c01dd9eee1eba4e8407523d64c20.jpeg","bigImageFilename":"4cb4822f53f64b8f5140ca9b1223fe74.jpeg","tags":["美腿"],"width":500,"height":500},{"title":"鲜艳的花朵","id":8858,"date":"2017/6/6 20:25:00","imageFilename":"208c5be0a3895852b115096823908618.jpeg","bigImageFilename":"b44601750ba515f7fd4c3ab94d43329b.jpeg","tags":["大"],"width":500,"height":665},{"title":"晚上加班","id":8860,"date":"2017/6/6 20:24:00","imageFilename":"f894d84f8abdb229ad26ce7876b584d9.jpeg","bigImageFilename":"cc7738d67c99dc35a19898550cd1b4e0.jpeg","tags":["贵在真实"],"width":500,"height":604},{"title":"鞋子不错","id":8884,"date":"2017/6/6 20:23:00","imageFilename":"1704230a6e13a7c4d8be0d06102bb2c1.jpeg","bigImageFilename":"c47b508309822dd00ff3939024348768.jpeg","tags":["好身材","美腿"],"width":500,"height":666},{"title":"生机盎然","id":8842,"date":"2017/6/6 20:27:00","imageFilename":"84be73ef5a34fb4239c69fe6f1635bef.jpeg","bigImageFilename":"d23bd6a148716dca56ccde78298bac1a.jpeg","tags":["好身材","美腿"],"width":500,"height":500},{"title":"表格要这样做","id":8832,"date":"2017/6/6 20:29:00","imageFilename":"72a007339aa35f378972dc06ce789f17.jpeg","bigImageFilename":"da48aeacf785c6a1b767ba06a800f63b.jpeg","tags":["美腿"],"width":500,"height":666},{"title":"等什么呢","id":8830,"date":"2017/6/6 20:29:00","imageFilename":"d2a1b00d00064b223a80f68af9b65074.jpeg","bigImageFilename":"bbadc3146ea3e7727c9fd530dfc99271.jpeg","tags":["美腿"],"width":500,"height":806},{"title":"吊坠不错","id":8826,"date":"2017/6/6 20:29:00","imageFilename":"0ea1363dab8359b6ac4ced1e3bc5c341.jpeg","bigImageFilename":"b168daa88ec037de1dc32247290f5e7a.jpeg","tags":["大"],"width":500,"height":666},{"title":"可爱的小熊","id":8836,"date":"2017/6/6 20:28:00","imageFilename":"9d97e8a808e5190571f5b2b68b59f78f.jpeg","bigImageFilename":"a9c4ab3493d082d17a7a1185b342b1fc.jpeg","tags":["美腿","贵在真实"],"width":500,"height":666},{"title":"夜色","id":8810,"date":"2017/6/6 20:30:00","imageFilename":"fe7268ecfc2e88c254d41931721236e5.jpeg","bigImageFilename":"9a068b4a0fcf3520b3cfd3cbd970e925.jpeg","tags":["在路上"],"width":440,"height":440},{"title":"有点累了","id":8782,"date":"2017/6/6 20:33:00","imageFilename":"406a3522faf06e05dce1a756a09d4550.jpeg","bigImageFilename":"daf8a76cd7582af2ae46abbeb09124ab.jpeg","tags":["美腿"],"width":500,"height":500},{"title":"脖子上是什么","id":8800,"date":"2017/6/6 20:32:00","imageFilename":"251a8f911bdc1fc4e331e93e58656d73.jpeg","bigImageFilename":"e3cf70cc86745ec50692f4a190af5aff.jpeg","tags":["贵在真实"],"width":500,"height":828},{"title":"要迟到了","id":8744,"date":"2017/6/6 20:35:00","imageFilename":"2626a0571692bda22d3b7b36f0be4bc5.jpeg","bigImageFilename":"dadbb3539720b3dcebcf1cc4ffb62990.jpeg","tags":["在路上"],"width":500,"height":666},{"title":"撅起小嘴","id":8676,"date":"2017/6/8 21:01:00","imageFilename":"d6df5944de2636b68859e71ee321a634.jpeg","bigImageFilename":"8edeae3dc5cbab8932e0e25ff4611fff.jpeg","tags":["大"],"width":500,"height":666},{"title":"夜深了","id":8658,"date":"2017/6/8 21:02:00","imageFilename":"cce954e3767b067aee3f4e12c0f8b38f.jpeg","bigImageFilename":"c7b45976bde0b3bd643a68a91f500996.jpeg","tags":["贵在真实"],"width":500,"height":483},{"title":"睡着了","id":8604,"date":"2017/6/10 16:12:00","imageFilename":"573b63b045a5963a0e981912fd8e4e2d.jpeg","bigImageFilename":"4a93d4ae0a1da917a70bc777edb5cbb0.jpeg","tags":["大"],"width":500,"height":666},{"title":"手链不错","id":8596,"date":"2017/6/10 16:13:00","imageFilename":"56499fb9c734c8feb5ed1645547211f1.jpeg","bigImageFilename":"585869d1c9078d982d2f2e8af6d40b35.jpeg","tags":["大"],"width":500,"height":375},{"title":"什么手机","id":8580,"date":"2017/6/10 16:14:00","imageFilename":"6c3596dd94dd3f362da61fe3e2a38fca.jpeg","bigImageFilename":"8f771c45638d40e6735f470da7df5a88.jpeg","tags":["美腿"],"width":500,"height":668},{"title":"这是几","id":8578,"date":"2017/6/10 16:14:00","imageFilename":"d966152343aaaf4cf5e51cc5dd7c3f68.jpeg","bigImageFilename":"defe01b21347eddd3bca669d917ebf41.jpeg","tags":["美腿"],"width":500,"height":666},{"title":"陶醉","id":8576,"date":"2017/6/10 16:14:00","imageFilename":"004274fd216c7339f03a9213b66db427.jpeg","bigImageFilename":"5ad1ccc992a41df9a842f331d04aea49.jpeg","tags":["趣图"],"width":500,"height":353},{"title":"白墙","id":8558,"date":"2017/6/10 16:16:00","imageFilename":"290a1fdad9b81a954b0a0b4861b2107a.jpeg","bigImageFilename":"05c2253146ca674ccdc08b5812a448fa.jpeg","tags":["美腿"],"width":500,"height":666},{"title":"纸上写的什么","id":8566,"date":"2017/6/10 16:15:00","imageFilename":"39e24efee98f90aaecd4a32054b6beb7.jpeg","bigImageFilename":"4f232be17f4222f3fc8ee2a60932825d.jpeg","tags":["美腿"],"width":500,"height":889},{"title":"什么车","id":8544,"date":"2017/6/10 16:17:00","imageFilename":"83276d8aa71bc0c3681f131c42ea9aff.jpeg","bigImageFilename":"c5b9c899fba6e118f820887996d21056.jpeg","tags":["美腿"],"width":500,"height":484},{"title":"蓝天白云","id":8556,"date":"2017/6/10 16:16:00","imageFilename":"147722b6ba80e951e79fa4fc4776bfc1.jpeg","bigImageFilename":"3b76468e5134a9d5920fc89c6735e0e9.jpeg","tags":["风景"],"width":500,"height":679},{"title":"一路向西","id":8500,"date":"2017/6/12 20:38:00","imageFilename":"3c1cd42fc42d8372d05008a42eb413b8.jpeg","bigImageFilename":"7782f064194349026812f437af934481.jpeg","tags":["在路上"],"width":500,"height":681},{"title":"撞色","id":8488,"date":"2017/6/12 20:39:00","imageFilename":"50d022d6dcf66cb68d208cbff5d0e96c.jpeg","bigImageFilename":"f502e801ae1aebd9da1bba5e6f98529e.jpeg","tags":["大"],"width":500,"height":500},{"title":"红与黑","id":8454,"date":"2017/6/18 09:58:00","imageFilename":"ec007c04da8122b9ca2486d236511d59.jpeg","bigImageFilename":"5af5a2f05752c88600dd35152733d83b.jpeg","tags":["大"],"width":500,"height":666},{"title":"空气循环扇","id":8442,"date":"2017/6/18 10:03:00","imageFilename":"a121d7ab848c3fde8ccec1c0855bdee7.jpeg","bigImageFilename":"d2ffdb0341f4588873d471afa7774c0b.jpeg","tags":["美腿"],"width":500,"height":500},{"title":"有点委屈","id":8438,"date":"2017/6/18 10:03:00","imageFilename":"456ec20ca142101d7f7049b483819134.jpeg","bigImageFilename":"8972493a6c4d6268a2ffc63911f96bfb.jpeg","tags":["美腿"],"width":500,"height":625},{"title":"柔软的衬衣","id":8378,"date":"2017/6/18 10:15:00","imageFilename":"03aadc961736b4ad81a054c6fa614ecd.jpeg","bigImageFilename":"21949d8b55454c13a674e91a5390ed50.jpeg","tags":["大"],"width":500,"height":666}],"allTags":["美腿","贵在真实","在路上","好身材","大","美","游客投稿","风景","趣图","欧美","害羞"]}