{"totalPage":66,"total":2356,"page":8,"pageSize":36,"list":[{"title":"出门","id":18531,"date":"2021/2/20 14:58:00","imageFilename":"d2d578586650a5335765b84263d6068c.jpeg","bigImageFilename":"93f2ad367b71d7b336fc7ef0f6669156.jpeg","tags":["好身材","美腿"]},{"title":"夕阳","id":18530,"date":"2021/2/20 09:52:00","imageFilename":"25c2d049bc8370e8d457b5ce58e88ea6.jpeg","bigImageFilename":"7ba29f4350f7882d6f0fba86470ff7ca.jpeg","tags":["风景"]},{"title":"全路段禁止","id":18532,"date":"2021/2/20 15:02:00","imageFilename":"80f8ff9f5484fac4f1b77207f70101f2.jpeg","bigImageFilename":"180b09fadfa6086c1eb8f2cb4db37b38.jpeg","tags":["美腿","贵在真实"]},{"title":"哈罗","id":18528,"date":"2021/2/20 09:18:00","imageFilename":"6c42cbff62c2b056707a18c3d6474208.jpeg","bigImageFilename":"4c482f74dcf95c5ca04905b2e791698f.jpeg","tags":["贵在真实"]},{"title":"买衣服","id":18527,"date":"2021/2/20 09:14:00","imageFilename":"fb4b28e35cd854f098dc63fdd70d7e57.jpeg","bigImageFilename":"6c3aeb2e98858ff90285d1e3fdb91dce.jpeg","tags":["贵在真实"]},{"title":"紫色","id":18526,"date":"2021/2/20 08:58:00","imageFilename":"471e1614a3fc1daa26ad9b8407e4b816.jpeg","bigImageFilename":"632ee14dd17f9a83d0fadc17792499f7.jpeg","tags":["好身材","美腿"]},{"title":"这是什么","id":18529,"date":"2021/2/20 09:24:00","imageFilename":"a33f927172522ecb6282e36eeeab67f4.jpeg","bigImageFilename":"acf7fa3176589b18d2d1812a441cd589.jpeg","tags":["趣图"]},{"title":"午后","id":18525,"date":"2021/2/20 08:48:00","imageFilename":"50c8ff4a9451c53957e1ce99b99dfb90.jpeg","bigImageFilename":"261c72dee28e8a5cc041d5e8f124d176.jpeg","tags":["贵在真实"]},{"title":"去拍点什么","id":18505,"date":"2020/8/18 03:46:00","imageFilename":"2d9dd2041b26a0cdde16ba7c2df271f6.jpeg","bigImageFilename":"8689d23de12a23170b01480d49d9edb1.jpeg","tags":["在路上","大","好身材"]},{"title":"春天来了","id":18524,"date":"2021/2/20 08:36:00","imageFilename":"b2afdc03e911c450295f46807f02fa25.jpeg","bigImageFilename":"06e876084e5938b6f8bc4a076e09e1b2.jpeg","tags":["好身材"]},{"title":"想起了一个朋友","id":18504,"date":"2020/8/18 03:45:00","imageFilename":"3982ae8e562cd3490e2af6bdd7abdc26.jpeg","bigImageFilename":"f87c02b96eaba611e100b2dda230e002.jpeg","tags":["大"]},{"title":"什么啤酒","id":18503,"date":"2020/8/3 04:46:00","imageFilename":"2ebab2d5686d3d8798d8e8e39772f6b3.jpeg","bigImageFilename":"3fe31efc7ddda5053371a0443195a84d.jpeg","tags":["大"]},{"title":"下一站是哪里","id":18502,"date":"2020/7/10 05:19:00","imageFilename":"9c48fe8e319735662b7f2fe99ec80648.jpeg","bigImageFilename":"b346475c5d24796e6b360e7a92022ab4.jpeg","tags":["在路上","大"]},{"title":"坐过站了","id":18501,"date":"2020/7/10 05:19:00","imageFilename":"29d5f7932c53248c1bc0265eb7ba61ef.jpeg","bigImageFilename":"f0e0165c1432d793120c8fd137314144.jpeg","tags":["在路上","大"]},{"title":"什么口罩","id":18500,"date":"2020/7/3 05:26:00","imageFilename":"83b06aae37d1f56316940d778265fd11.jpeg","bigImageFilename":"89d887d88f42489a356cb63937cb25a7.jpeg","tags":["好身材","美腿"]},{"title":"什么纹身","id":18499,"date":"2020/7/3 05:26:00","imageFilename":"9d13a1fa2d3e1b2eab0aaebea9d6bc7b.jpeg","bigImageFilename":"71caac004b5228f7e8585cffc07986f4.jpeg","tags":["好身材","美腿"]},{"title":"云","id":18498,"date":"2020/7/3 05:25:00","imageFilename":"eafbb1eccf412a3e0add3946a33b6443.jpeg","bigImageFilename":"31f3ffeea96392539b4d4d126e30ee21.jpeg","tags":["好身材","美腿"]},{"title":"小酌","id":18487,"date":"2020/6/29 05:14:00","imageFilename":"74b59ee81014429bbbb34a8d1c6bd5df.jpeg","bigImageFilename":"fd3092778b00f7cf97798ef043bd2a41.jpeg","tags":["美腿"]},{"title":"挡住了什么","id":18497,"date":"2020/7/2 09:36:00","imageFilename":"116ae9d11a7b4b10365490964ea700bc.jpeg","bigImageFilename":"76b8c6880d565a0a3b7fb281b9308009.jpeg","tags":["大","美"]},{"title":"还玩游戏不","id":18485,"date":"2020/6/24 05:10:00","imageFilename":"7a8d2fdfa049d72989fcc40a40759439.jpeg","bigImageFilename":"2e45f7496e07d7c0c386a2b63ac11750.jpeg","tags":["美腿","趣图"]},{"title":"这是哪里","id":18486,"date":"2020/6/28 05:39:00","imageFilename":"30e40bfbf0ba4850b357e452696550fa.jpeg","bigImageFilename":"40a217da27518a4eb999e7427d49bfa5.jpeg","tags":["美腿"]},{"title":"什么戒指","id":18483,"date":"2020/6/24 04:57:00","imageFilename":"294e49d56e3a6a217545e647e078256d.jpeg","bigImageFilename":"ba1873ca49619b9fba57ae5a2cf7e314.jpeg","tags":["大","好身材"]},{"title":"什么游戏","id":18484,"date":"2020/6/24 05:09:00","imageFilename":"21d62dc64f4c29626aeb1435b3947b93.jpeg","bigImageFilename":"fac93c213d6d3ed6f0e52398820e05bc.jpeg","tags":["美腿","趣图"]},{"title":"电梯里戴好口罩","id":18482,"date":"2020/6/24 04:17:00","imageFilename":"10a2358b2516fae225df085a918776ae.jpeg","bigImageFilename":"4f4d693037bdcb678ba049c61899236c.jpeg","tags":["贵在真实"]},{"title":"哇","id":18480,"date":"2020/6/19 11:22:00","imageFilename":"1f0aebf1680ba2843cc1a9d0bbf2a237.jpeg","bigImageFilename":"ab773c23e5e7735dae5b530cf2662bb7.jpeg","tags":["趣图"]},{"title":"修车","id":18479,"date":"2020/6/19 10:50:00","imageFilename":"62782bd9a5dfb89d1296c831258084af.jpeg","bigImageFilename":"862f05c010efb596f84367e0b18bb1d1.jpeg","tags":["美腿"]},{"title":"锻炼","id":18481,"date":"2020/6/23 04:59:00","imageFilename":"275d5942e90fe51ce78bad2c67f23c33.jpeg","bigImageFilename":"f301882806911a9c134f29ad54bb363c.jpeg","tags":["美腿"]},{"title":"美食厨房","id":18495,"date":"2020/7/1 04:55:00","imageFilename":"635d2319481a62abad29b3b61becceae.jpeg","bigImageFilename":"b13ccb2297d25fa252caed6bbb1dd2a7.jpeg","tags":["好身材","美腿"]},{"title":"溢杯","id":18496,"date":"2020/7/1 06:09:00","imageFilename":"6f688edf72301afb8e39f24b5302483e.jpeg","bigImageFilename":"55dda43a8ba67a7122ee8129e7da64c9.jpeg","tags":["大"]},{"title":"地铁上要戴口罩","id":18494,"date":"2020/7/1 04:53:00","imageFilename":"1eb095831fd82585273e796ad9221407.jpeg","bigImageFilename":"1b50ad4b061971a4e6d1f1771dad57cb.jpeg","tags":["在路上","美腿"]},{"title":"热","id":18493,"date":"2020/6/29 11:18:00","imageFilename":"58da637cf65c631885dde7acab68ae47.jpeg","bigImageFilename":"4f1c799eb38e07259fcd3c1fb8c790f2.jpeg","tags":["大","贵在真实"]},{"title":"不太合适","id":18492,"date":"2020/6/29 11:13:00","imageFilename":"098ce0fc93611a68ee8d85382b27654d.jpeg","bigImageFilename":"02497bb050fde4538f8a84368382c9ae.jpeg","tags":["趣图"]},{"title":"什么酒","id":18491,"date":"2020/6/29 05:16:00","imageFilename":"207218071d2b6a54f8f1ddd45d9def2d.jpeg","bigImageFilename":"4caa25ee65fc8b1952d57ea45c66939e.jpeg","tags":["美腿"]},{"title":"going down","id":18489,"date":"2020/6/29 05:14:00","imageFilename":"44ff437c412d827bef76f5dc93a6c7a8.jpeg","bigImageFilename":"ee7efe597533e5ab348f5f094d6f137a.jpeg","tags":["好身材"]},{"title":"扇子","id":18488,"date":"2020/6/29 05:14:00","imageFilename":"a0135ce13eaf3c4d42ed2daff594ee0e.jpeg","bigImageFilename":"647ed287cd408db40924fc917c33ef43.jpeg","tags":["美腿"]},{"title":"蓝天绿草","id":18490,"date":"2020/6/29 05:15:00","imageFilename":"17fce22970c68b937aab783e30f5dd86.jpeg","bigImageFilename":"9ef6c15ef3000f4db17291b29074fa54.jpeg","tags":["美腿"]}]}