{"totalPage":66,"total":2356,"page":53,"pageSize":36,"list":[{"title":"去年流行的透视装","id":5822,"date":"2016/5/14 19:40:00","imageFilename":"cb93198fce935cb503bcc23908114d6f.jpeg","bigImageFilename":"3eb62145e1ebcc7382646873ba9b70d7.jpeg","tags":["大","好身材"],"width":960,"height":639},{"title":"蓝天白云","id":5824,"date":"2016/5/14 19:42:00","imageFilename":"dfd43029a849035cd49b544f45c09f88.jpeg","bigImageFilename":"1f42ced9f05e93ade5f014cd611809b3.jpeg","tags":["大"],"width":852,"height":1136},{"title":"衣服弄脏了","id":5820,"date":"2016/5/14 19:39:00","imageFilename":"596a0c49853c4dd5909d469d208feb0a.jpeg","bigImageFilename":"b499a6524a6a2127d6e75196279f5b22.jpeg","tags":["在路上","大"],"width":750,"height":1000},{"title":"你选哪一个","id":5799,"date":"2016/5/14 15:50:00","imageFilename":"b8a05ffd5961dfeff8b03801d1f92e11.jpeg","bigImageFilename":"aecd71057d6dd68638f2793cb67ad1fe.jpeg","tags":["在路上","美腿"],"width":540,"height":810},{"title":"坐不住呢","id":5797,"date":"2016/5/14 15:49:00","imageFilename":"ea59aabe0964acec01c59b8917d4227d.jpeg","bigImageFilename":"3ee8376169706ceee82108e166e498e0.jpeg","tags":["在路上","美腿"],"width":641,"height":960},{"title":"保护色泳装","id":5795,"date":"2016/5/14 15:49:00","imageFilename":"96528313a127b4b8d6f94210d508839a.jpeg","bigImageFilename":"0ceb26553860aaa1d5587fcfbc6fd4aa.jpeg","tags":["好身材"],"width":644,"height":900},{"title":"被什么虫子咬的","id":5793,"date":"2016/5/14 15:48:00","imageFilename":"2436d0ebe65a998a0062c432ac5cbfa8.jpeg","bigImageFilename":"0879e744e01b1c6e9878eb5fc3fc1483.jpeg","tags":["贵在真实"],"width":500,"height":666},{"title":"OhYeah","id":5791,"date":"2016/5/14 15:47:00","imageFilename":"f7eeab2778f46b7b4eb3f86ee2b16bca.jpeg","bigImageFilename":"e867c748cc9841b94a33fbc9f8b6c271.jpeg","tags":["美腿"],"width":440,"height":614},{"title":"粉色系","id":5787,"date":"2016/5/14 15:46:00","imageFilename":"cf47f5310b7d8f8046baf345f2e4a582.jpeg","bigImageFilename":"71e04080c3ff5ef9498cfc8463ca6fbe.jpeg","tags":["在路上","美腿"],"width":500,"height":752},{"title":"我喜欢去书店","id":5789,"date":"2016/5/14 15:47:00","imageFilename":"73c5fa2f35a399c5ed61ea0d2fe08f8c.jpeg","bigImageFilename":"715698885cbb0a3c40b4e8a70ede65bc.jpeg","tags":["在路上"],"width":540,"height":720},{"title":"功课很忙","id":5710,"date":"2016/5/8 14:57:00","imageFilename":"a0e8c3b9728897cff598b38a5d5d27e8.jpeg","bigImageFilename":"240af71f0d00c7be54cfb112477eaa8d.jpeg","tags":["贵在真实"],"width":658,"height":854},{"title":"两个苹果","id":5688,"date":"2016/5/7 14:41:00","imageFilename":"25c944c992ef54d99252569a3b2a1b0c.jpeg","bigImageFilename":"fbc764cf35c4971c9ea71abeb6e02bd1.jpeg","tags":["美腿"],"width":768,"height":1024},{"title":"草莓味的","id":5686,"date":"2016/5/7 14:41:00","imageFilename":"af3c117be681e48cb82af23987a03d49.jpeg","bigImageFilename":"0ce9fa37e62a825f2ca8c993a51b56f6.jpeg","tags":["在路上","美腿"],"width":540,"height":720},{"title":"坐车挺累的","id":5684,"date":"2016/5/7 14:40:00","imageFilename":"532e193842b561f56e434c60396441e4.jpeg","bigImageFilename":"3c7a5c1c90ff842fb9e8b84ebc6da4e9.jpeg","tags":["在路上","美腿"],"width":735,"height":549},{"title":"准备出门","id":5682,"date":"2016/5/7 14:39:00","imageFilename":"cce83b077c15043cc45c5c84e67398f1.jpeg","bigImageFilename":"bf3c9fa8dc92c938876389393bc270e9.jpeg","tags":["好身材","美腿"],"width":540,"height":810},{"title":"出差也要加班的","id":5678,"date":"2016/5/7 14:38:00","imageFilename":"9d3a17d403bdfc2c33298b63943d9d64.jpeg","bigImageFilename":"dfbfb8fa2c20b1c02fd068e6bb38abf2.jpeg","tags":["美腿"],"width":373,"height":810},{"title":"烈焰红唇","id":5626,"date":"2016/5/2 22:46:00","imageFilename":"0677a2c7992e427a47e4c550b73e09ba.jpeg","bigImageFilename":"e9b0e911381eb5ea6d83f99e10bc3c07.jpeg","tags":["美"],"width":891,"height":1280},{"title":"谁的手","id":5622,"date":"2016/5/2 19:16:00","imageFilename":"41a7ef68b82f9db52ca7bf41402a5818.jpeg","bigImageFilename":"615b356d3d2bbafc2ce873e6c5fdca2b.jpeg","tags":["在路上"],"width":477,"height":594},{"title":"去游泳","id":5607,"date":"2016/5/1 12:57:00","imageFilename":"a5c3a444619e15d1e12b5236217d1dbe.jpeg","bigImageFilename":"7003b4f1a1de86a8a83e622e65673416.jpeg","tags":["在路上","好身材"],"width":540,"height":679},{"title":"光腿会更美吧","id":5599,"date":"2016/4/30 18:22:00","imageFilename":"65b861f279520e18f6701fb730110403.jpeg","bigImageFilename":"1dad7facb2d30551df9582095ccfdbed.jpeg","tags":["好身材","美腿"],"width":1067,"height":1600},{"title":"健身要换衣服啊","id":5597,"date":"2016/4/30 18:21:00","imageFilename":"8966bc678bb315fb57615b9368ea3961.jpeg","bigImageFilename":"44b0a9a8b46712e7e332321bd9fb6467.jpeg","tags":["美腿"],"width":640,"height":852},{"title":"绿色大狗","id":5593,"date":"2016/4/30 18:18:00","imageFilename":"97c46d3d04fae331581f121df6022758.jpeg","bigImageFilename":"bace65c3992f96b1f664be336bcc1b84.jpeg","tags":["好身材","美腿"],"width":1080,"height":1440},{"title":"沙发地板都很舒服","id":5591,"date":"2016/4/30 18:17:00","imageFilename":"bd06a061b00d8b1691d08be7c90449b4.jpeg","bigImageFilename":"c1904420b92b5b9124c4a332578a0468.jpeg","tags":["好身材","美腿","贵在真实"],"width":1004,"height":1519},{"title":"春光明媚","id":5595,"date":"2016/4/30 18:20:00","imageFilename":"f0e4c6b0b9569441c268766e3a83ee12.jpeg","bigImageFilename":"b72f3b94ad4c87a97d7d949913181a6c.jpeg","tags":["好身材","风景"],"width":1674,"height":2214},{"title":"丝袜和地板很搭哦","id":5589,"date":"2016/4/30 18:15:00","imageFilename":"12618b82884a274d1939e88fca2607ee.jpeg","bigImageFilename":"40d5f4f4eea351eafebce08537f701ea.jpeg","tags":["好身材","美腿"],"width":600,"height":800},{"title":"衣服和长椅很搭哦","id":5585,"date":"2016/4/30 18:13:00","imageFilename":"2ded96a361f9c2d66f59817e7436f491.jpeg","bigImageFilename":"79c6b91727406a0d432a8eaec2f2b256.jpeg","tags":["美腿"],"width":1011,"height":1459},{"title":"去泡温泉","id":5587,"date":"2016/4/30 18:14:00","imageFilename":"39e6a7cfcd8c6bb07b13a57be40f4105.jpeg","bigImageFilename":"664147e662110aa4d6b33a31b4aac78b.jpeg","tags":["大"],"width":3264,"height":2448},{"title":"月上柳梢头","id":5582,"date":"2016/4/30 18:12:00","imageFilename":"26a8add73d88b92b9b453f2efb68d9d4.jpeg","bigImageFilename":"c68812bbad3ed47f56579e672cf97ffe.jpeg","tags":["在路上"],"width":640,"height":640},{"title":"这是什么健身房","id":5580,"date":"2016/4/30 18:10:00","imageFilename":"fce192844fa2919516adeffb33f3d016.jpeg","bigImageFilename":"0e55af5a4564a2f609a51a3362b820a3.jpeg","tags":["好身材"],"width":535,"height":660},{"title":"碧海蓝天","id":5578,"date":"2016/4/30 18:10:00","imageFilename":"0f4300b8876e9f60e39d4dcf400c2610.jpeg","bigImageFilename":"b18658f619f93d84801ba6d1f3f5020b.jpeg","tags":["风景"],"width":1280,"height":853},{"title":"补下口红","id":5574,"date":"2016/4/30 18:06:00","imageFilename":"377a2ac42b2314cf3a8552f8119a7ab3.jpeg","bigImageFilename":"60e06394a25a4c06886b58a96bc7cefb.jpeg","tags":["在路上"],"width":563,"height":800},{"title":"小蛮腰","id":5576,"date":"2016/4/30 18:08:00","imageFilename":"4df05b1b37c4263dee70a78f20dd6e3b.jpeg","bigImageFilename":"e1808a356514b954b7208ffe82065c22.jpeg","tags":["大","好身材"],"width":1620,"height":2096},{"title":"请排队上车","id":5554,"date":"2016/4/30 13:28:00","imageFilename":"260d82b0929caf2f6f9d0a6bdc4cd5b2.jpeg","bigImageFilename":"1b5333d156bf8b29eb7b777b10af0ee6.jpeg","tags":["在路上"],"width":462,"height":810},{"title":"课间休息","id":5539,"date":"2016/4/29 17:33:00","imageFilename":"dcb956b9155e6fe3a3eea06fe3a9fa96.jpeg","bigImageFilename":"790b13e157017685efba049ec0b78748.jpeg","tags":["美腿"],"width":604,"height":851},{"title":"灯罩丢了","id":5510,"date":"2016/4/26 21:04:00","imageFilename":"029236da86f06a5c0c5b26143a379692.jpeg","bigImageFilename":"c29123024e40c4013f9de82255270028.jpeg","tags":["好身材"],"width":540,"height":720},{"title":"什么颜色","id":5502,"date":"2016/4/26 08:04:00","imageFilename":"33f28960a0e9015c24a2b0ae1568dadc.jpeg","bigImageFilename":"2681d70bdf19c71d8fe26af0c21496bf.jpeg","tags":["美腿"],"width":428,"height":610}],"allTags":["美腿","贵在真实","在路上","好身材","大","美","游客投稿","风景","趣图","欧美","害羞"]}