{"totalPage":66,"total":2356,"page":43,"pageSize":36,"list":[{"title":"准备睡吧","id":11193,"date":"2017/7/29 21:16:00","imageFilename":"1fbf5ff5ff08620b3559cf8a6c0309d8.jpeg","bigImageFilename":"6b3299cc7eee36a9b050db1c18162f36.jpeg","tags":["美腿"]},{"title":"上车","id":11197,"date":"2017/7/29 21:18:00","imageFilename":"776e5f6baa41cf9fe19dfd1bc74493fd.jpeg","bigImageFilename":"fa470755a44770afd6ef22d994b691c0.jpeg","tags":["在路上","美腿"]},{"title":"好困","id":11189,"date":"2017/7/29 21:12:00","imageFilename":"5360329c049a87b716be1e2488a9ef59.jpeg","bigImageFilename":"e05b6899c975073cbd496e760ac78910.jpeg","tags":["在路上","贵在真实"]},{"title":"今晚看点什么","id":11191,"date":"2017/7/29 21:14:00","imageFilename":"a89ffef2b4e219e685c76579803407b0.jpeg","bigImageFilename":"809a3067672614b00f1e1bd6a0a0d455.jpeg","tags":["贵在真实"]},{"title":"学习中","id":11187,"date":"2017/7/29 21:11:00","imageFilename":"ed8c61b3627fedfd99209e87b316a209.jpeg","bigImageFilename":"96e953ff8d0ba0221102bc987aeb3928.jpeg","tags":["贵在真实"]},{"title":"准备出发","id":11183,"date":"2017/7/29 21:08:00","imageFilename":"e7caeea49c95021e0e4ad6e48eac3b83.jpeg","bigImageFilename":"6a3e01945f23ac6c47443dad485b2bed.jpeg","tags":["好身材"]},{"title":"请注意听讲","id":11185,"date":"2017/7/29 21:09:00","imageFilename":"6c381c5169d44f41466ef7de86e9391e.jpeg","bigImageFilename":"fe7909800d771d5ae05b8fa0e5cba252.jpeg","tags":["美腿","贵在真实"]},{"title":"起风了","id":11181,"date":"2017/7/29 21:06:00","imageFilename":"c9a88e4f8f0534fed1f1e0e9e9ee51d1.jpeg","bigImageFilename":"a6a7c654d3b367ad8c750a0b2eea59bc.jpeg","tags":["在路上","美腿"]},{"title":"爱上跑步","id":11178,"date":"2017/7/29 21:03:00","imageFilename":"879b9e6e919fb22d2ab2e5f660c0d3a2.jpeg","bigImageFilename":"48d3856b13aafd8c00befdcd4cdd9773.jpeg","tags":["在路上","好身材"]},{"title":"打开后备箱","id":11175,"date":"2017/7/25 14:06:00","imageFilename":"ee1374390ec3a7fd27a15c75ec04c49d.jpeg","bigImageFilename":"ebe90b9fe2a2142f220b50310fccde21.jpeg","tags":["好身材","美腿"]},{"title":"点的什么歌","id":11171,"date":"2017/7/20 20:40:00","imageFilename":"8e13404512b92096b7de5ee3251e4202.jpeg","bigImageFilename":"9eaf63431a9714a1dfa091a76e0c9550.jpeg","tags":["美腿"]},{"title":"去上班","id":11169,"date":"2017/7/20 20:39:00","imageFilename":"74b543f43005c22ae25070095f35cc7e.jpeg","bigImageFilename":"6224454b321a3d2257586b2b84ba64c5.jpeg","tags":["美腿"]},{"title":"午后的阳光","id":11167,"date":"2017/7/20 20:37:00","imageFilename":"7187de73cf903f7eba4d37d3fc539f20.jpeg","bigImageFilename":"feb958bb3e0a4d47ece4f80188e6482e.jpeg","tags":["在路上","美腿"]},{"title":"有乘客喊","id":11164,"date":"2017/7/19 21:11:00","imageFilename":"4f09e6d5aeaa9b3da539b0d2a6eec581.jpeg","bigImageFilename":"64a9a63376f49f7c648120eea3fa95c8.jpeg","tags":["美腿"]},{"title":"很困","id":11162,"date":"2017/7/19 21:09:00","imageFilename":"627fe24b422b048894833aefaec60d97.jpeg","bigImageFilename":"d686745f06ef6f32f9a5315ee98b3aba.jpeg","tags":["美腿"]},{"title":"准备睡了","id":11160,"date":"2017/7/19 21:07:00","imageFilename":"9cb986099758c068b6f4478f2f696743.jpeg","bigImageFilename":"43de4064087796b223e6203bdc481161.jpeg","tags":["美腿"]},{"title":"努力","id":11156,"date":"2017/7/19 21:04:00","imageFilename":"11e78a343d90ed4a628985711771ef2d.jpeg","bigImageFilename":"f7498d7c063cf1de9fa10c21b20986fd.jpeg","tags":["美腿"]},{"title":"参加婚礼","id":11154,"date":"2017/7/19 21:03:00","imageFilename":"550d2f7d2ed283f68a86bfdec0a35067.jpeg","bigImageFilename":"f3485bfe30264f1ec03d436949dd78d4.jpeg","tags":["美腿"]},{"title":"不好抓","id":11152,"date":"2017/7/19 21:01:00","imageFilename":"f9692562a97d4c74c073f6980cc7e118.jpeg","bigImageFilename":"e849f8ffb9b3c755c3c3adfd5735abe8.jpeg","tags":["在路上","贵在真实"]},{"title":"今天真热","id":11101,"date":"2017/7/10 21:19:00","imageFilename":"173a5e1ea733d5ab84bbd304de1587fd.jpeg","bigImageFilename":"40cb0684c5091e441501ca606ac2cd4e.jpeg","tags":["在路上","美腿"]},{"title":"你选哪一个","id":11150,"date":"2017/7/19 20:56:00","imageFilename":"7b2ad7cc2cbebfd55546495714a1124c.jpeg","bigImageFilename":"46b4af30ba61bcd6fb8f2121711d5d3c.jpeg","tags":["美腿"]},{"title":"sunset","id":11085,"date":"2017/6/20 10:01:00","imageFilename":"5903cd47f75e88a5e07ef6e7d37caa2f.jpeg","bigImageFilename":"36cd4451c22633bfd31419c3ae814cc2.jpeg","tags":["风景"]},{"title":"去买衣服","id":11158,"date":"2017/7/19 21:06:00","imageFilename":"39bb3fea4bbd9ed079859bff48c2b87d.jpeg","bigImageFilename":"d8637a8de8605fca5f79128cd6593978.jpeg","tags":["美腿"]},{"title":"凉爽","id":11022,"date":"2017/6/6 20:43:00","imageFilename":"ff0296908985edf2473f6188527cac26.jpeg","bigImageFilename":"a5725f89e63fd1c019a16e8a24ec5869.jpeg","tags":["大","贵在真实"]},{"title":"清晨读书","id":10905,"date":"2017/5/30 15:33:00","imageFilename":"19ea9e5462032b0e812c6a51e69b525d.jpeg","bigImageFilename":"5ad24b50b6463c96062671dcab689e73.jpeg","tags":["美腿"]},{"title":"痒不痒","id":10808,"date":"2017/5/26 21:32:00","imageFilename":"98d1cb6c5ab07b0d6ad9a93f85fb3229.jpeg","bigImageFilename":"19c249bcdc5f1124d0ff93fce6efb363.jpeg","tags":["大"]},{"title":"吊坠不错","id":10790,"date":"2017/5/26 21:34:00","imageFilename":"e72d64f3fea25ee850d11f0d8041e09a.jpeg","bigImageFilename":"7cf84a6d495466703f7259e11c5b58de.jpeg","tags":["大"]},{"title":"开关也需要保护","id":11025,"date":"2017/6/6 20:49:00","imageFilename":"0871091c98703c01d357e022c18df430.jpeg","bigImageFilename":"f55b4d25c3929638d59b09e45bc7862c.jpeg","tags":["大","好身材","美腿","贵在真实"]},{"title":"你要听话哦","id":10784,"date":"2017/5/26 21:34:00","imageFilename":"7b98664c1dce975baa20cb98654f7eb7.jpeg","bigImageFilename":"537a60de71efe9d2aed067157e4e4f0e.jpeg","tags":["大"]},{"title":"阳光刺眼","id":10750,"date":"2017/5/28 10:15:00","imageFilename":"b538bdd69c0ddaa346dac6ccf4a847ff.jpeg","bigImageFilename":"fa26b23c786d98abedd8a011afd18d61.jpeg","tags":["在路上","大"]},{"title":"过马路要小心","id":10742,"date":"2017/5/26 10:54:00","imageFilename":"588d5d3c846ad990918051fb287a38ec.jpeg","bigImageFilename":"b695a8ca3b563eb644aff4edfd340a21.jpeg","tags":["在路上","美腿"]},{"title":"台灯挺亮","id":10640,"date":"2017/5/25 21:04:00","imageFilename":"d5e703f325dd317b0d75f7e1d0a7e1d0.jpeg","bigImageFilename":"b9c2dd1c0361d59f20e79b83123a84df.jpeg","tags":["贵在真实"]},{"title":"压箱底","id":10630,"date":"2017/5/25 21:05:00","imageFilename":"d5d8ceff0b081c05eef07bc434b967d8.jpeg","bigImageFilename":"15da1a89719e68bbdaca1b1e320b41d9.jpeg","tags":["美腿"]},{"title":"冷不冷","id":10604,"date":"2017/5/25 21:07:00","imageFilename":"18ea008f4b595661710217c5e59f3ef8.jpeg","bigImageFilename":"c1d7b7214397f4df24b6d446660aa288.jpeg","tags":["大"]},{"title":"有点热","id":10752,"date":"2017/5/28 10:16:00","imageFilename":"eac4a0629c313ec1b78e9625b2fe51aa.jpeg","bigImageFilename":"f7fc267875555121bfefb010a1f851a1.jpeg","tags":["在路上","大"]},{"title":"面朝大海","id":10535,"date":"2017/5/28 10:22:00","imageFilename":"07b980b59df022b4065a0334433689c4.jpeg","bigImageFilename":"3173af6b2a48d2b95f1b4936f5a9e389.jpeg","tags":["趣图"]}],"allTags":["美腿","贵在真实","在路上","好身材","大","美","游客投稿","风景","趣图","欧美","害羞"]}