{"totalPage":66,"total":2356,"page":49,"pageSize":36,"list":[{"title":"踮起脚尖够得着","id":7665,"date":"2017/8/10 20:23:00","imageFilename":"0a4e2df782869df7a72a1ca8e0ce92d0.jpeg","bigImageFilename":"f38e6ab24eef4c87486547856dc44bd3.jpeg","tags":["贵在真实"]},{"title":"困","id":7651,"date":"2017/8/10 20:26:00","imageFilename":"fbfb1ba725cfeacf743859c94d291733.jpeg","bigImageFilename":"fe87ffb0de56864e23dd6605eb65048e.jpeg","tags":["贵在真实"]},{"title":"拿上外套","id":7643,"date":"2017/8/10 20:33:00","imageFilename":"9055a9dfc0b6fdb79e19652d4c0ff593.jpeg","bigImageFilename":"1251134fc80a11c518a399a710a27552.jpeg","tags":["美腿"]},{"title":"去爬山","id":7641,"date":"2017/8/10 20:33:00","imageFilename":"4f31b7ded2b47b38173188e50a73e693.jpeg","bigImageFilename":"45554af23e84bef016c5e717e272913d.jpeg","tags":["美腿"]},{"title":"有点大","id":7631,"date":"2017/8/10 20:27:00","imageFilename":"f420afdd0e8cc27aad98a9361f6615c5.jpeg","bigImageFilename":"36c9d8801a1fb51954e62fe1455a7dfd.jpeg","tags":["大"]},{"title":"这是什么车","id":7615,"date":"2017/8/10 20:28:00","imageFilename":"5fa02a44c3a423fe6770d8ec7c841a69.jpeg","bigImageFilename":"29254674eb3cbdf244ef18c74f47bc28.jpeg","tags":["在路上"]},{"title":"喝点什么","id":7540,"date":"2017/4/23 10:42:00","imageFilename":"a71db130ed3c5ececbddaaa13c119d7c.jpeg","bigImageFilename":"9f54f6a5ad4af2e01b48e56416eb1ed9.jpeg","tags":["好身材","美腿"]},{"title":"紫色的椅子","id":7535,"date":"2017/4/20 13:10:00","imageFilename":"f42b9a84eaf2eb2d11fa145b5c6e7587.jpeg","bigImageFilename":"128ca431d46baa89e336dd544aae7010.jpeg","tags":["好身材","美","美腿","贵在真实"]},{"title":"昨晚没睡好","id":7528,"date":"2017/4/12 11:10:00","imageFilename":"ea3f54911bc57d9c5554610b43573f8c.jpeg","bigImageFilename":"9afdb651734ef187ff975b9497766e93.jpeg","tags":["好身材","美","美腿","贵在真实"]},{"title":"看画展","id":7532,"date":"2017/4/20 13:08:00","imageFilename":"4e88abbfa93e188ae32ca9eb617c158a.jpeg","bigImageFilename":"022763e1088cefd88c32cdbfc64c7b49.jpeg","tags":["好身材","美"]},{"title":"放松下脚","id":7524,"date":"2017/3/24 10:27:00","imageFilename":"01912d5603580e390d174bdd62e6e1f2.jpeg","bigImageFilename":"f28c199b7aadd39404a1256c57d374b0.jpeg","tags":["在路上","贵在真实"]},{"title":"再出发","id":7513,"date":"2017/2/28 12:58:00","imageFilename":"ece144de4d91b1fdef4ea17f7303947f.jpeg","bigImageFilename":"26db34340b0dde3de76696e4aa3f85d2.jpeg","tags":["在路上","大","好身材"]},{"title":"长发及腰","id":7516,"date":"2017/3/15 16:22:00","imageFilename":"782a2bccf5ec3ce3986309063741c599.jpeg","bigImageFilename":"b715887af2549391126a27bf603da829.jpeg","tags":["好身材","贵在真实"]},{"title":"出发","id":7510,"date":"2017/2/28 12:56:00","imageFilename":"1745b61348384144386d0c5041d3066a.jpeg","bigImageFilename":"104f2cedc892f4797b123f43df2701e2.jpeg","tags":["在路上","大","好身材"]},{"title":"蜜桃臀","id":7507,"date":"2017/2/28 12:54:00","imageFilename":"5bd472bb48c4c9e40a3fbd906130744b.jpeg","bigImageFilename":"33a402d079e8d93133c4f47b3246e323.jpeg","tags":["贵在真实"]},{"title":"顺","id":7504,"date":"2017/2/28 12:52:00","imageFilename":"9101bcf4a27bdf91706e91a6a34e86a2.jpeg","bigImageFilename":"bd27006071d20933c248e8a47be5d8e2.jpeg","tags":["好身材","贵在真实"]},{"title":"极简沙发","id":7501,"date":"2017/2/28 12:51:00","imageFilename":"c9f1ce7fa05a31b47821820291079a84.jpeg","bigImageFilename":"e9e45a757f45ec45bf408fd5d50ff578.jpeg","tags":["美腿"]},{"title":"慢点走","id":7491,"date":"2017/1/19 13:25:00","imageFilename":"285bdc45fe60030183108569912c5ca0.jpeg","bigImageFilename":"65cf59f7d1142d8c50ccb4ca3bc55cec.jpeg","tags":["在路上"]},{"title":"背影","id":7494,"date":"2017/1/19 19:04:00","imageFilename":"1c8149f14bc733a652d04ff18ebb9f1f.jpeg","bigImageFilename":"eece17e8ef6f1f1cad5d4c143e99439c.jpeg","tags":["好身材"]},{"title":"面壁思过","id":7486,"date":"2017/1/17 08:45:00","imageFilename":"36c60e1a66137ca5efd524d7107ae603.jpeg","bigImageFilename":"875420b8a6403e2d03f2d00147928418.jpeg","tags":["好身材","美腿"]},{"title":"过年吃饺子","id":7483,"date":"2017/1/8 19:00:00","imageFilename":"f29e51ecfbec52a08cd26eb482279269.jpeg","bigImageFilename":"0ecee87dfd4475e8cebc16d7d4d7a2df.jpeg","tags":["好身材"]},{"title":"晒晒太阳","id":7497,"date":"2017/1/22 13:09:00","imageFilename":"ef9f2a89780e226326be70253d766f7d.jpeg","bigImageFilename":"8dac24b49c0865d3641ad637be2107db.jpeg","tags":["好身材"]},{"title":"毛衣挺好看","id":7477,"date":"2017/1/8 18:58:00","imageFilename":"a507520eeed012fcb346c99e01cf3ac2.jpeg","bigImageFilename":"fee54be41ede743818660b9692444c2d.jpeg","tags":["好身材","美腿"]},{"title":"去看电影","id":7473,"date":"2017/1/8 18:57:00","imageFilename":"23405c8e678477bfaf4b94797b48e5a6.jpeg","bigImageFilename":"ea1ceed8835f040627405dec1c5b26a1.jpeg","tags":["在路上","美腿"]},{"title":"公司空调坏了","id":7470,"date":"2017/1/8 18:33:00","imageFilename":"51cca7bdf6081bb86722b74cb7bf3a8a.jpeg","bigImageFilename":"cb4a681ae6ec6dea68c7af633e36f4f3.jpeg","tags":["趣图"]},{"title":"姑娘加个微信呗","id":7467,"date":"2017/1/8 17:36:00","imageFilename":"23592664fe2a73b9e6eced52a3353fa9.jpeg","bigImageFilename":"3be684b8979cf4edc5313b18773af6cb.jpeg","tags":["在路上","美腿","贵在真实"]},{"title":"是红的的吗","id":7461,"date":"2017/1/8 17:25:00","imageFilename":"f3a4ce0d76e202960b927a55f042b18f.jpeg","bigImageFilename":"ad034a2a596e938906887febe7e6c0ed.jpeg","tags":["在路上","大","好身材","美腿","贵在真实"]},{"title":"姑娘你爱听什么歌","id":7455,"date":"2017/1/8 17:22:00","imageFilename":"43efcfd6261967cc6685c0b09937d489.jpeg","bigImageFilename":"a815ff347ecd8c9d32f929b15cc16da4.jpeg","tags":["在路上","美腿","贵在真实"]},{"title":"都看什么呢","id":7464,"date":"2017/1/8 17:32:00","imageFilename":"68d4fdc78225d9d61065de4b0d8bd321.jpeg","bigImageFilename":"ee754f7325ed8f83be4a6c7c37adc807.jpeg","tags":["好身材","美腿","贵在真实"]},{"title":"狼牙鞋","id":7458,"date":"2017/1/8 17:23:00","imageFilename":"855e40f7e16e1b524393f0f194302bf6.jpeg","bigImageFilename":"f002cda61304f0b28c56df770082ac51.jpeg","tags":["在路上","美腿","贵在真实"]},{"title":"上衣有点瘦","id":7452,"date":"2017/1/8 17:20:00","imageFilename":"aaaac78851ae8c874b1d3c628e341a76.jpeg","bigImageFilename":"31f02e7ad1293a4a9d31ba716762fce9.jpeg","tags":["大","贵在真实"]},{"title":"姑娘你怎么了","id":7443,"date":"2017/1/8 17:02:00","imageFilename":"26e9ed28eff72908355af252ca3715bf.jpeg","bigImageFilename":"9bae202c91de038d43141adf9aeee3bf.jpeg","tags":["美腿"]},{"title":"我挺喜欢公交车","id":7449,"date":"2017/1/8 17:15:00","imageFilename":"16ae05d66e362a92e71c3655d5940d0e.jpeg","bigImageFilename":"15e6b52aeab890d7c0df4aef60e3e119.jpeg","tags":["在路上","美腿","贵在真实"]},{"title":"问个问题","id":7440,"date":"2017/1/8 17:00:00","imageFilename":"c84a2bfdbe2053af144b638671b62a15.jpeg","bigImageFilename":"5fd7859a8a0d9edb4cb210cc7fc5f057.jpeg","tags":["好身材","贵在真实"]},{"title":"看窗外","id":7433,"date":"2017/1/7 17:51:00","imageFilename":"e15b3115a5a617811d84978114c28ec1.jpeg","bigImageFilename":"b62f338a44bd54b0fd07de16fc7e855b.jpeg","tags":["好身材"]},{"title":"姑娘这样不安全","id":7430,"date":"2017/1/7 17:44:00","imageFilename":"5f2fb811814ad69ad5e02b1a8f95b918.jpeg","bigImageFilename":"ca7faad44b50aeada60119c814ea5a72.jpeg","tags":["在路上","美腿"]}],"allTags":["美腿","贵在真实","在路上","好身材","大","美","游客投稿","风景","趣图","欧美","害羞"]}