{"totalPage":66,"total":2356,"page":13,"pageSize":36,"list":[{"title":"爱看书","id":18334,"date":"2019/8/29 08:40:00","imageFilename":"aad2a4b863e49dee2598bf6bba47338e.jpeg","bigImageFilename":"967fb37fab34d8b96cb038f5b6e38ef2.jpeg","tags":["贵在真实"],"width":1536,"height":2048},{"title":"新买的跑步机","id":18342,"date":"2019/9/18 05:16:00","imageFilename":"b9689c5f42980df442a3c9596f83a695.jpeg","bigImageFilename":"3847ebe8506f849ff77265801caf4b61.jpeg","tags":["好身材"],"width":400,"height":711},{"title":"早","id":18332,"date":"2019/8/28 06:15:00","imageFilename":"597cf7a03ae6de0feaeee1510b735a48.jpeg","bigImageFilename":"3fe0ef1931fd0d9e420a040e00a05391.jpeg","tags":["好身材","美"],"width":1080,"height":1349},{"title":"贤妻良母","id":18331,"date":"2019/8/27 11:23:00","imageFilename":"7313ffdc52b315f90ba8a89c8d43bd84.jpeg","bigImageFilename":"74d166d7b7c3851f76aedcd710dce18d.jpeg","tags":["在路上","大","好身材","美腿"],"width":1008,"height":1277},{"title":"买的什么","id":18330,"date":"2019/8/16 02:08:00","imageFilename":"97864195ec4b5b93e6548a5a424a5686.jpeg","bigImageFilename":"1406b04ea2305807e0d4f0c5e6fa6f95.jpeg","tags":["美腿"],"width":768,"height":1024},{"title":"海浪","id":18329,"date":"2019/8/15 06:17:00","imageFilename":"2d9725603b081b4e33a1c2323ebc9e58.jpeg","bigImageFilename":"5ea63bd5a6e788ffac2c758857250069.jpeg","tags":["贵在真实"],"width":1125,"height":815},{"title":"这件行不","id":18328,"date":"2019/8/14 10:37:00","imageFilename":"1153d4b37fe7a983443743d91953de34.jpeg","bigImageFilename":"425302ea498f107416ec927fed585b35.jpeg","tags":["美腿"],"width":1080,"height":1440},{"title":"可爱的考拉","id":18327,"date":"2019/8/13 07:31:00","imageFilename":"a0e6cda812f01d2baa4eac44f1489442.jpeg","bigImageFilename":"5ee13e1c6520c0ca65281b2eacf81038.jpeg","tags":["美腿"],"width":816,"height":1600},{"title":"你选哪一个","id":18326,"date":"2019/8/12 11:25:00","imageFilename":"7d29450b68fc6fb6e4ae1d7ffe20fe70.jpeg","bigImageFilename":"bbf871b4476205196235ceb3a1f8e486.jpeg","tags":["欧美","在路上","大","好身材","美腿"],"width":640,"height":800},{"title":"你选哪一个","id":18325,"date":"2019/8/12 05:34:00","imageFilename":"82d34f9a3e52a24ddf35e0ead48bd2a7.jpeg","bigImageFilename":"4e87d5f3f7cb5973353789e5fd78be95.jpeg","tags":["美腿"],"width":600,"height":772},{"title":"受伤了","id":18323,"date":"2019/8/12 02:41:00","imageFilename":"682daff2ae6cca9ac69377d625cc9c48.jpeg","bigImageFilename":"3b98e0207508e75af4a9b20c570a6bc7.jpeg","tags":["美腿","贵在真实"],"width":1080,"height":1936},{"title":"凉不凉","id":18324,"date":"2019/8/12 05:24:00","imageFilename":"f7abe09bab25b3e2725962accac6626c.jpeg","bigImageFilename":"79b29ca0cbb9f1a3b369b9d423fc8a3e.jpeg","tags":["在路上","美腿"],"width":2048,"height":1536},{"title":"下飞机了","id":18322,"date":"2019/8/9 10:39:00","imageFilename":"9bf3ad5a5bd93b729302a7b8f1b3c479.jpeg","bigImageFilename":"e5597127c8f6a96ad3857688e4b72d91.jpeg","tags":["在路上","美腿","贵在真实"],"width":1536,"height":2048},{"title":"街边小憩","id":18321,"date":"2019/8/8 11:37:00","imageFilename":"fbb573c904b29d1139b61d85dd3c8863.jpeg","bigImageFilename":"15e73ac0b369bf9728221c00c52c87de.jpeg","tags":["大"],"width":710,"height":1168},{"title":"桃仙机场","id":18320,"date":"2019/8/8 05:28:00","imageFilename":"f4ae9b99d4476261b87a7f17c90af6fe.jpeg","bigImageFilename":"ac908fc591f15a1e49a4635a3fde337a.jpeg","tags":["在路上","好身材","美腿","贵在真实"],"width":750,"height":1152},{"title":"这是什么","id":18319,"date":"2019/8/5 10:49:00","imageFilename":"274d10ad5c45cdcfe33c3c089eb3376e.jpeg","bigImageFilename":"ec449b649d908f221bbe0bfb2f0e3ae4.jpeg","tags":["大"],"width":1536,"height":2048},{"title":"有点累了","id":18317,"date":"2019/8/4 12:41:00","imageFilename":"8aa1534b504f0cd3845068121128765c.jpeg","bigImageFilename":"3d106dc7073e71e1650c6051fce15085.jpeg","tags":["好身材"],"width":960,"height":1200},{"title":"浴缸不错","id":18318,"date":"2019/8/4 12:41:00","imageFilename":"56cd86177d9c43c9587ea3adb929fce5.jpeg","bigImageFilename":"be68ec3e0337005b912ed9ace0b3ef3a.jpeg","tags":["大","好身材"],"width":961,"height":1200},{"title":"夏夜","id":18315,"date":"2019/7/28 00:07:00","imageFilename":"9f3d0568957e61bcaae80a22893c639f.jpeg","bigImageFilename":"7d5ac3cc0071c47938606d92cd08a734.jpeg","tags":["大"],"width":960,"height":1200},{"title":"真丝睡衣","id":18316,"date":"2019/7/30 12:16:00","imageFilename":"9ccf6ea340e00d9ad83f73f0af2191d2.jpeg","bigImageFilename":"54d7c1915405e58cb974734286903c03.jpeg","tags":["大"],"width":1080,"height":1198},{"title":"太热了","id":18314,"date":"2019/7/28 00:05:00","imageFilename":"1e56c7518cef8dd78a5e3fc2fde57834.jpeg","bigImageFilename":"84d0d389a39c16bf9fd9a32d1bb04990.jpeg","tags":["美腿","贵在真实"],"width":900,"height":1200},{"title":"下雨啊","id":18313,"date":"2019/7/24 11:31:00","imageFilename":"698cde3d97f49f887767badea71cfa97.jpeg","bigImageFilename":"724b02569be4fc1f189f99cdeb3b55fd.jpeg","tags":["大","贵在真实"],"width":1200,"height":1195},{"title":"不错的鞋子","id":18311,"date":"2019/7/23 02:30:00","imageFilename":"08c2a6857b819889bc7826db64ed9493.jpeg","bigImageFilename":"49f176cf26eeb799b3bcefe6dc7e792a.jpeg","tags":["美腿"],"width":1366,"height":2048},{"title":"加会儿班","id":18312,"date":"2019/7/23 04:36:00","imageFilename":"a00c7faa6374649eabe89e9c832998fa.jpeg","bigImageFilename":"6c5b1d94dd18dea2d9f6c34820830871.jpeg","tags":["美腿","贵在真实"],"width":1080,"height":1440},{"title":"火烧云","id":18310,"date":"2019/7/22 15:25:00","imageFilename":"69f706b985b6c8d33c8abf5d8480cfd6.jpeg","bigImageFilename":"737f060f021bccf729134b94d378e04c.jpeg","tags":["好身材","美","美腿","风景"],"width":960,"height":1200},{"title":"楼道凉","id":18309,"date":"2019/7/22 15:24:00","imageFilename":"5fdb2c8498e97ff0b5e01de25ffafc14.jpeg","bigImageFilename":"280d977ff34a7449946dfef608262e98.jpeg","tags":["大","好身材","美腿","贵在真实"],"width":961,"height":1200},{"title":"最爱炸鸡","id":18308,"date":"2019/7/22 15:21:00","imageFilename":"61f9c2b70b6dca1c0e06a81559bec808.jpeg","bigImageFilename":"03aa4403bc553645aeec67e29de1371c.jpeg","tags":["大"],"width":1038,"height":1199},{"title":"多高","id":18307,"date":"2019/7/22 15:14:00","imageFilename":"dba0f719962536c414b325801c3a3541.jpeg","bigImageFilename":"35ab5ceeb2af6a66277ba5352fb911b8.jpeg","tags":["大"],"width":961,"height":1200},{"title":"哈罗单车","id":18306,"date":"2019/7/22 13:23:00","imageFilename":"ff47abe2ec025861ee8955329e6a912a.jpeg","bigImageFilename":"f7a8967cc9df26f79e264a0e3d0d7755.jpeg","tags":["在路上","好身材","美腿","贵在真实"],"width":640,"height":1142},{"title":"什么车","id":18305,"date":"2019/7/22 09:38:00","imageFilename":"0df06545c1c3f2b1c55622c8b3a1a2c1.jpeg","bigImageFilename":"30478283262987a3f9db3079e1359ab0.jpeg","tags":["大"],"width":960,"height":1200},{"title":"炸鸡和啤酒","id":18304,"date":"2019/7/22 05:06:00","imageFilename":"e4e8fa475fa5c41610151265a32901ab.jpeg","bigImageFilename":"c3731cda8e22b85c4f757c31c43750d8.jpeg","tags":["大"],"width":600,"height":628},{"title":"什么车","id":18302,"date":"2019/7/22 04:51:00","imageFilename":"8f59d04af8aee914dad6f16f612a9f57.jpeg","bigImageFilename":"1f224ed195494018d6d57fa29fedf32f.jpeg","tags":["美腿","贵在真实"],"width":870,"height":1200},{"title":"需要雨水滋润","id":18301,"date":"2019/7/21 14:26:00","imageFilename":"63d7dcf062d62f4fe9c2aae3b411fd2d.jpeg","bigImageFilename":"57567b1f44fc12c721f4c6842a8c0244.jpeg","tags":["大","好身材","美腿"],"width":961,"height":1200},{"title":"正面","id":18300,"date":"2019/7/21 14:24:00","imageFilename":"51b277f80bbd246eefcc3735649517cd.jpeg","bigImageFilename":"d2825301fe5d8adb6a7d2a574e0e4b96.jpeg","tags":["大","好身材","美腿"],"width":1020,"height":1200},{"title":"shiro","id":18299,"date":"2019/7/21 14:23:00","imageFilename":"b906d7edbd7409aa0984a158ffc194ab.jpeg","bigImageFilename":"9ea52242b11a95ec07f85ab544a76e05.jpeg","tags":["大","好身材","美腿"],"width":1020,"height":1200},{"title":"空气循环扇","id":18297,"date":"2019/7/19 16:56:00","imageFilename":"87c5e8f347f470fd7286a9a5c9998ea5.jpeg","bigImageFilename":"01638ab6608eaea09df0a5425ff970ec.jpeg","tags":["大","好身材"],"width":1075,"height":1200}],"allTags":["美腿","贵在真实","在路上","好身材","大","美","游客投稿","风景","趣图","欧美","害羞"]}