{"totalPage":66,"total":2356,"page":37,"pageSize":36,"list":[{"title":"背面","id":16789,"date":"2018/3/31 11:38:00","imageFilename":"5d3436d31fca23d36613b01414f545de.jpeg","bigImageFilename":"9f54cf16a39309569496c3774c38bc78.jpeg","tags":["好身材"],"width":824,"height":1199},{"title":"正面","id":16792,"date":"2018/3/31 11:39:00","imageFilename":"b1ca65bcf87110f493c10391da971161.jpeg","bigImageFilename":"d70a9ca8c54edd542397859cd52b5b4d.jpeg","tags":["大","好身材"],"width":855,"height":1200},{"title":"春困","id":16783,"date":"2018/3/31 11:35:00","imageFilename":"b0759a22e133fa477a23abfb75f82557.jpeg","bigImageFilename":"571e75818d353a738c3949eacba84afd.jpeg","tags":["大"],"width":959,"height":1080},{"title":"这是几号线","id":16786,"date":"2018/3/31 11:36:00","imageFilename":"a2ae62792e4c5bab9755834047870e52.jpeg","bigImageFilename":"bde6af043695ae34a741eda0932a3ee2.jpeg","tags":["好身材"],"width":900,"height":1200},{"title":"招财猫","id":16755,"date":"2018/3/18 20:45:00","imageFilename":"f890ddde92eee805f27fb0bb4c4e8116.jpeg","bigImageFilename":"cfb32d1ab7848c266f79f7791ac45a38.jpeg","tags":["美腿"],"width":675,"height":1200},{"title":"一夜入夏","id":16780,"date":"2018/3/28 11:11:00","imageFilename":"cffd05f6ed2b3e4eee07ac66653e9f8c.jpeg","bigImageFilename":"49e39a5d35f0e62a3405fb2743e77ed7.jpeg","tags":["美腿"],"width":999,"height":1200},{"title":"什么狗","id":16759,"date":"2018/3/24 00:26:00","imageFilename":"810a4a847fb83c369d2448027efa4de0.jpeg","bigImageFilename":"97bcaa4fdeb539ab0df3e5ca1e3c2e5b.jpeg","tags":["大"],"width":1024,"height":1024},{"title":"水有些脏","id":16752,"date":"2018/3/18 19:11:00","imageFilename":"ebc15fbc5025e68f89dfed2dd7dd826e.jpeg","bigImageFilename":"44ddd422660a97bf3de0d24f00472d8b.jpeg","tags":["好身材"],"width":1024,"height":1024},{"title":"碧海蓝天","id":16747,"date":"2018/3/18 14:00:00","imageFilename":"20e5978d6064639135b674761ea4e494.jpeg","bigImageFilename":"ea8c4bc4722b37a81df95d21ecc97fb0.jpeg","tags":["风景"],"width":1200,"height":1188},{"title":"是她的白眼吗","id":16738,"date":"2018/3/14 23:00:00","imageFilename":"595d065e6c40e180c2e7902406a6d574.jpeg","bigImageFilename":"7c7d34db5cbbf234c35d8563ffc234b5.jpeg","tags":["大"],"width":592,"height":800},{"title":"老师傅手艺好","id":16735,"date":"2018/3/14 22:38:00","imageFilename":"146917e5daa782deb6c32f5d8b83c342.jpeg","bigImageFilename":"2c54f9baf7fc3cb5e5f823c7fd71430a.jpeg","tags":["美腿"],"width":1200,"height":915},{"title":"天气暖和了","id":16728,"date":"2018/3/14 22:34:00","imageFilename":"48e1691aead4b8b957922eb9f48102bb.jpeg","bigImageFilename":"5b5ce012b6621a0f13956488ec758033.jpeg","tags":["美腿"],"width":628,"height":1024},{"title":"害羞啦","id":16731,"date":"2018/3/14 22:35:00","imageFilename":"87942a172fcc88e5433014eb015ae536.jpeg","bigImageFilename":"5c0a391186dad6f3ee29d70111f19769.jpeg","tags":["美腿","贵在真实"],"width":883,"height":1199},{"title":"春装","id":16724,"date":"2018/3/8 10:22:00","imageFilename":"34d627310d28d1bed951644b5c027ac1.jpeg","bigImageFilename":"fb29025c3e04a1a423bb7e9a560f053a.jpeg","tags":["好身材","美腿"],"width":1080,"height":1080},{"title":"不太合身","id":16721,"date":"2018/3/7 13:20:00","imageFilename":"1f5a324fe8a3e9565572739dc6909f53.jpeg","bigImageFilename":"ab2b7b73bc84c55a32f8769210a0b0e9.jpeg","tags":["大"],"width":690,"height":960},{"title":"来瓶可乐","id":16718,"date":"2018/3/6 13:19:00","imageFilename":"58e9b7bfc1d2b987a429c528f90df167.jpeg","bigImageFilename":"da520ed5181b24df1d633cb0f2fe36d0.jpeg","tags":["好身材","美腿"],"width":647,"height":887},{"title":"贵妃椅","id":16679,"date":"2018/3/28 08:31:00","imageFilename":"0fe26e5394a531ca0d505930f580f5e0.jpeg","bigImageFilename":"763f129b9edf09cfeb20377efa1fd7cd.jpeg","tags":["美腿"],"width":562,"height":750},{"title":"喝点什么","id":16715,"date":"2018/3/6 13:18:00","imageFilename":"7cdf6da84ef98d0a494f684a43903956.jpeg","bigImageFilename":"82196c698b1ceac642f31227723f96b5.jpeg","tags":["美腿"],"width":662,"height":894},{"title":"不喜欢纹身","id":16675,"date":"2018/3/28 08:31:00","imageFilename":"186345fb69890609fba5d132b9721512.jpeg","bigImageFilename":"ff675609b35536fd3c3c2008bbdc09c7.jpeg","tags":["好身材"],"width":1080,"height":1370},{"title":"先看会儿电视","id":16669,"date":"2018/3/28 08:47:00","imageFilename":"49a6d99cd86765afbbbfa2844f8b9eaa.jpeg","bigImageFilename":"67eb7ec106817eead30f552ec7cb5bd0.jpeg","tags":["美腿"],"width":1080,"height":1080},{"title":"可以买么","id":16655,"date":"2018/3/28 08:54:00","imageFilename":"3ec79f1e19df5229cb37363a6bb7d97f.jpeg","bigImageFilename":"5b6207cb0c51c6d18ae03be5c7c51407.jpeg","tags":["美腿"],"width":1080,"height":1226},{"title":"动作不标准","id":16649,"date":"2018/3/28 08:53:00","imageFilename":"b52b18968391b8910623f3372ee9bdd2.jpeg","bigImageFilename":"2e036a8aa7372b214f6d2cfbbcccc741.jpeg","tags":["好身材","美腿"],"width":1080,"height":1398},{"title":"颜色不错","id":16641,"date":"2018/3/28 08:53:00","imageFilename":"80c4d91038c1db6d06389adb529c9886.jpeg","bigImageFilename":"1c6cb70add92aa49b8c9ed5d0f328c46.jpeg","tags":["美腿"],"width":1080,"height":1440},{"title":"灯太亮了","id":16629,"date":"2018/3/28 08:52:00","imageFilename":"e3f1c33c246384504c434d1f6b5adf6c.jpeg","bigImageFilename":"7669ce9d87e971218c87308d3ca6e389.jpeg","tags":["大"],"width":1080,"height":1440},{"title":"浅水区","id":16533,"date":"2018/4/5 15:43:00","imageFilename":"4d9e49d43baede7dae974d04b682d49f.jpeg","bigImageFilename":"3df4c40cca0f4dd0873a06e13e7847e8.jpeg","tags":["大","好身材"],"width":724,"height":703},{"title":"春暖花开","id":16535,"date":"2018/4/5 15:44:00","imageFilename":"1ed3088303b540f5d641267976db9c5c.jpeg","bigImageFilename":"df992056c3d8ca19e801dae91dd8a588.jpeg","tags":["好身材","风景"],"width":1080,"height":1439},{"title":"夕阳西下","id":16461,"date":"2018/4/13 12:02:00","imageFilename":"8d230e3bb89fe141a1d080754108756a.jpeg","bigImageFilename":"9e616e7d10048ac90bd4915fbe7b003b.jpeg","tags":["大"],"width":1080,"height":810},{"title":"伸个懒腰","id":16447,"date":"2018/4/13 11:55:00","imageFilename":"ccbab724d3077a657a51e853186a68bd.jpeg","bigImageFilename":"b0f00e7a048887d771a4809234866846.jpeg","tags":["好身材"],"width":1080,"height":1080},{"title":"不太合身吧","id":16451,"date":"2018/4/13 11:58:00","imageFilename":"2db4afd5c53f13d390635cf96e50921f.jpeg","bigImageFilename":"392cebff8fe1214001ecf9223ec15663.jpeg","tags":["大"],"width":1080,"height":1080},{"title":"面壁思过","id":16403,"date":"2018/4/13 12:25:00","imageFilename":"305c7c0e5fc45cff74a82bd6e514e90d.jpeg","bigImageFilename":"f0078469b52ad47b1cfb513d55069b76.jpeg","tags":["好身材","美腿"],"width":1080,"height":1080},{"title":"不想上班","id":16189,"date":"2018/5/1 20:23:00","imageFilename":"64cd143848ed9edfd2be73c0cc55f6dd.jpeg","bigImageFilename":"45c623380a54853d621171f1c3d13330.jpeg","tags":["美腿"],"width":1080,"height":1299},{"title":"我们都爱读书","id":16357,"date":"2018/5/1 18:45:00","imageFilename":"5e61813ebdd9747f8f8d3a31ca61ef94.jpeg","bigImageFilename":"a6ba01bf307707bdfb50b84d9bb08bc6.jpeg","tags":["大"],"width":1080,"height":1437},{"title":"鞋子好看不","id":16162,"date":"2018/5/22 13:05:00","imageFilename":"24f0488d115547ce8d3f3ee985330a83.jpeg","bigImageFilename":"8c6ef8f72e54ae81def17959c45a4bd3.jpeg","tags":["美腿"],"width":864,"height":1278},{"title":"花","id":16164,"date":"2018/5/22 13:05:00","imageFilename":"4cc30a674bf2d1e00d3cefaaa337f149.jpeg","bigImageFilename":"0b4d4a45b80a6d0dc0ea437467e6bc46.jpeg","tags":["美腿"],"width":1079,"height":1104},{"title":"腿上是什么","id":16150,"date":"2018/5/22 13:06:00","imageFilename":"7cb69aa75a90d20338b9202a86309831.jpeg","bigImageFilename":"5b1a396cd06feaf218c3ef609e81ec49.jpeg","tags":["好身材","美腿"],"width":500,"height":666},{"title":"闪光灯","id":16148,"date":"2018/5/22 13:07:00","imageFilename":"5c1952b2bdd7a7d75e5671c64d5b7087.jpeg","bigImageFilename":"b5a4c2d550e4472dd7094c6cf94495c5.jpeg","tags":["美腿"],"width":440,"height":664}],"allTags":["美腿","贵在真实","在路上","好身材","大","美","游客投稿","风景","趣图","欧美","害羞"]}