{"totalPage":66,"total":2356,"page":21,"pageSize":36,"list":[{"title":"日光浴","id":18045,"date":"2019/3/8 06:11:00","imageFilename":"a2f968d3df4406fa605ad5445406d2c7.jpeg","bigImageFilename":"c7f6b5958a10552d7ce2521e83a45d55.jpeg","tags":["好身材"]},{"title":"几级能耗","id":18044,"date":"2019/3/7 05:27:00","imageFilename":"be2af4e58f5a19469a27e0a1ba65d5a8.jpeg","bigImageFilename":"e856acdcb721c567802c13afde99da43.jpeg","tags":["好身材","美腿"]},{"title":"消火栓","id":18043,"date":"2019/3/7 02:34:00","imageFilename":"5a4b745bfd5e6f8a6e763e380da96d30.jpeg","bigImageFilename":"2afd1fd12d755e0fcf99d1d3d87dff77.jpeg","tags":["好身材"]},{"title":"用力","id":18048,"date":"2019/3/8 07:23:00","imageFilename":"c05ed5affd400d0b113c03e84059e1b1.jpeg","bigImageFilename":"579664fd5d2547840d38fc920b746431.jpeg","tags":["大","好身材"]},{"title":"地下凉呢","id":18042,"date":"2019/3/6 06:17:00","imageFilename":"1916ee4de0f480602efbb66156e47ce4.jpeg","bigImageFilename":"669ef868feac16d996a9d796a5b9bdc1.jpeg","tags":["美腿"]},{"title":"想吃点什么","id":18040,"date":"2019/3/6 04:53:00","imageFilename":"56d90f2a62da2a88594d81e583cbc4f1.jpeg","bigImageFilename":"ec8618c78463a9182dc56b1c2d8eb39e.jpeg","tags":["贵在真实"]},{"title":"对镜而坐","id":18041,"date":"2019/3/6 06:17:00","imageFilename":"3c44b4d67356413c771ac03431073f6d.jpeg","bigImageFilename":"93a9c55b2c2d1ba717aa497af56b0b06.jpeg","tags":["美腿"]},{"title":"新来的前台","id":18038,"date":"2019/3/5 09:53:00","imageFilename":"949e24140d9a401babed06fb6da8d6a8.jpeg","bigImageFilename":"a80561fc2fe2d7e53f49576e03ee37cb.jpeg","tags":["大","贵在真实"]},{"title":"爱读书","id":18039,"date":"2019/3/6 02:58:00","imageFilename":"cedf60dc5e424f25c1b97b584f4d4709.jpeg","bigImageFilename":"e3fde9a6382c65c161305eb037f759c5.jpeg","tags":["美腿","贵在真实"]},{"title":"灯笼床头灯","id":18037,"date":"2019/3/5 05:21:00","imageFilename":"aa34afb814aecca6cedc7dbfb3975db4.jpeg","bigImageFilename":"c3b90a690687dedfee746480068f4ae0.jpeg","tags":["美腿","贵在真实"]},{"title":"什么车","id":18036,"date":"2019/3/4 15:30:00","imageFilename":"4dcacdab9882016fb53907ff7697f9ca.jpeg","bigImageFilename":"9d7a0b35d762325bef6b835da8d5471f.jpeg","tags":["大","好身材","美腿"]},{"title":"你选哪一个","id":18035,"date":"2019/3/4 15:29:00","imageFilename":"abcac02ae102e3066a0ccd9193194f4f.jpeg","bigImageFilename":"df4cd08bdb61a562e63eb3a9d3158d7d.jpeg","tags":["大","好身材"]},{"title":"脱衣睡觉","id":18034,"date":"2019/2/27 08:55:00","imageFilename":"3ffc83c1d704b241b4a83115f41df856.jpeg","bigImageFilename":"52c847b7f74a2c940a426d585d95b297.jpeg","tags":["大"]},{"title":"你选哪一个","id":18033,"date":"2019/2/27 05:44:00","imageFilename":"af6a1ef56a58dfc2606805fa5927ad6c.jpeg","bigImageFilename":"86e46858b465e3c3a15bed58d3351d23.jpeg","tags":["好身材","美腿"]},{"title":"有颗痣","id":18031,"date":"2019/2/26 12:03:00","imageFilename":"f0b08be469bf1ab49179ba629b326f86.jpeg","bigImageFilename":"68ba977aa8b5eba8b75c7782620f6308.jpeg","tags":["大"]},{"title":"壁纸不错","id":18032,"date":"2019/2/27 05:44:00","imageFilename":"2af60d60a5f9ae3abbc11bc88f346645.jpeg","bigImageFilename":"645733a19d0864e5dc6d1c0efddc4f53.jpeg","tags":["美腿"]},{"title":"地毯不错","id":18030,"date":"2019/2/26 12:02:00","imageFilename":"cd4fdb9707db8617e9227e9847dc5932.jpeg","bigImageFilename":"85b11cffbb77a1eec8d8c4b7cd0fa9df.jpeg","tags":["美腿"]},{"title":"试试浴缸","id":18019,"date":"2019/2/18 09:36:00","imageFilename":"5f7e1dc38e35b97c9907a8f1e5ca398d.jpeg","bigImageFilename":"3c8c63a0ea60c00af31c0b45f7e35148.jpeg","tags":["大","好身材","美腿"]},{"title":"打个响指","id":18029,"date":"2019/2/26 12:02:00","imageFilename":"8a9b87eac2b4e9c51f1a6132b5f06ad1.jpeg","bigImageFilename":"9bcf73626851a6bb73c6ae2377baaa06.jpeg","tags":["大"]},{"title":"去越野","id":18017,"date":"2019/2/18 06:31:00","imageFilename":"26e75b93729f53c4fafe2a173d41dd77.jpeg","bigImageFilename":"434765520235c5b97af039d839467a7a.jpeg","tags":["在路上","美腿"]},{"title":"乱花渐欲迷人眼","id":18018,"date":"2019/2/18 07:51:00","imageFilename":"8c7cbe45f2032fdd88abcfdf3b0fed45.jpeg","bigImageFilename":"f6e65ee904c798ea5c1afa44cf5de249.jpeg","tags":["在路上","美腿"]},{"title":"你选哪一个","id":18016,"date":"2019/2/18 05:29:00","imageFilename":"cf9db3bc4fe1bf4ce9b9b3fbe614ff53.jpeg","bigImageFilename":"a0c54e8bafe5ca06fdad326799d2135c.jpeg","tags":["在路上","美腿"]},{"title":"小熊帽子","id":18015,"date":"2019/2/18 05:29:00","imageFilename":"05dd4d10cff2e27cd16b454d47b7f3e0.jpeg","bigImageFilename":"994a7ea06f8b6e5fb6a4810a983a5db5.jpeg","tags":["在路上","大","美腿"]},{"title":"什么车","id":18014,"date":"2019/2/18 05:28:00","imageFilename":"f2850613128f902a734fc6c0f141353b.jpeg","bigImageFilename":"3985beefff66017997571fe6cb47a58e.jpeg","tags":["在路上","美腿"]},{"title":"爱骑自行车","id":18013,"date":"2019/2/18 05:13:00","imageFilename":"fb3b75d20841a666fe79c297c52a851f.jpeg","bigImageFilename":"33e796cb721048ee51971c2a79990360.jpeg","tags":["好身材"]},{"title":"小憩","id":18012,"date":"2019/2/17 12:52:00","imageFilename":"78d486d47e9ca588cb3d3682933a6fe7.jpeg","bigImageFilename":"d272a2018200d2fac0c3dda9578e24fb.jpeg","tags":["大","好身材"]},{"title":"你选哪一个","id":18011,"date":"2019/2/17 07:36:00","imageFilename":"7918a85cabdf3a4de7d3645ef3c44e11.jpeg","bigImageFilename":"f8cb5763bb2c709c6dbb0d8b69e835a2.jpeg","tags":["好身材"]},{"title":"辣妹子","id":18009,"date":"2019/2/17 06:29:00","imageFilename":"2f2f6155e69140d4cd2ddec67a8df28f.jpeg","bigImageFilename":"ab090d79c713fd393788bb5c59877fb5.jpeg","tags":["大"]},{"title":"你选哪一个","id":18010,"date":"2019/2/17 07:35:00","imageFilename":"09209659017e59e5cd568057c6433a13.jpeg","bigImageFilename":"a7dff1fdddcbac7a50f716bb8db46d00.jpeg","tags":["美腿"]},{"title":"这样好多了","id":18007,"date":"2019/2/16 11:40:00","imageFilename":"1bdbe59edfbf4f9f03b6d933a8b45d15.jpeg","bigImageFilename":"1b84b42f3890b34515f6852ddcce2130.jpeg","tags":["美腿","贵在真实"]},{"title":"沙发","id":18008,"date":"2019/2/17 06:26:00","imageFilename":"b388f035b5cd88fc78a97970e92ac0c4.jpeg","bigImageFilename":"4137f64035c5a124757f583f329bdf65.jpeg","tags":["美腿"]},{"title":"这样不文明","id":18006,"date":"2019/2/16 11:40:00","imageFilename":"be1414a684796374b02beb31c44daadf.jpeg","bigImageFilename":"2a6703387bbe9c7d0436d4ba8749b1b0.jpeg","tags":["美腿","贵在真实"]},{"title":"回来啦","id":18005,"date":"2019/2/16 11:39:00","imageFilename":"7203181314d34b106769b9e8534bc31b.jpeg","bigImageFilename":"53464399e7dc713a184fdb0899c486ea.jpeg","tags":["在路上","美腿","贵在真实"]},{"title":"是玫瑰吗","id":18004,"date":"2019/2/16 11:39:00","imageFilename":"9731b540d250ddcb939234412681c591.jpeg","bigImageFilename":"5ff8c11bd63c00a9d97892c0a81c3540.jpeg","tags":["好身材","美腿"]},{"title":"什么裙子","id":18003,"date":"2019/2/16 11:37:00","imageFilename":"20fcb12dfd9cca61ffdcf242dfbf16ef.jpeg","bigImageFilename":"5c4b611b9582b9a3f79ea32deea51144.jpeg","tags":["大","贵在真实"]},{"title":"阳光正好","id":18002,"date":"2019/2/16 11:33:00","imageFilename":"c8125178fafe7d1908456f9e6b51c5b4.jpeg","bigImageFilename":"835152443bed194fd3638bbddaa5ec18.jpeg","tags":["好身材"]}],"allTags":["美腿","贵在真实","在路上","好身材","大","美","游客投稿","风景","趣图","欧美","害羞"]}