{"totalPage":66,"total":2356,"page":14,"pageSize":36,"list":[{"title":"草坪需要维护","id":18298,"date":"2019/7/21 14:22:00","imageFilename":"f6ee657725761794ff778df6575c0014.jpeg","bigImageFilename":"bb7d7567261949cd61e3c5b501041563.jpeg","tags":["大","好身材"]},{"title":"青山绿水","id":18295,"date":"2019/7/19 16:55:00","imageFilename":"4eaaee72c0cbc83d985cb70718ecf7ca.jpeg","bigImageFilename":"f9b8fef124a846e921b67afa587cee7b.jpeg","tags":["好身材","美腿"]},{"title":"挠挠头","id":18296,"date":"2019/7/19 16:56:00","imageFilename":"3314c1d791ee84ac1771ac9897cf2ae9.jpeg","bigImageFilename":"472c6def8d6429b0818557242555fb76.jpeg","tags":["好身材","美腿"]},{"title":"什么车","id":18303,"date":"2019/7/22 04:51:00","imageFilename":"22c5ce57fc6508760da1f722d7aaae97.jpeg","bigImageFilename":"4340346a642f36764c0c43c09fd42557.jpeg","tags":["美腿","贵在真实"]},{"title":"几号","id":18294,"date":"2019/7/19 05:50:00","imageFilename":"b46e428df27060958e1ebed770bd6670.jpeg","bigImageFilename":"9a47a3305bff9a6a3dab1c277f524df1.jpeg","tags":["好身材"]},{"title":"碧海蓝天白云","id":18293,"date":"2019/7/17 14:42:00","imageFilename":"3894b5f8d383f274559f5be7086b8c44.jpeg","bigImageFilename":"b719f5f7941e942311d6ca5ea974ed8c.jpeg","tags":["好身材","美腿","风景"]},{"title":"镜中","id":18292,"date":"2019/7/17 14:24:00","imageFilename":"318ddfc99d8cdc765ef6a460a0d285dd.jpeg","bigImageFilename":"6f32aab2e89dd45f6bb95a301c227b80.jpeg","tags":["好身材"]},{"title":"穿的有点多","id":18291,"date":"2019/7/17 14:21:00","imageFilename":"c2eee01bbde8ec2fbaefd16dfa8b9c50.jpeg","bigImageFilename":"57a1e35221c2cf27303fb4a08d266c70.jpeg","tags":["大","好身材"]},{"title":"小花","id":18289,"date":"2019/7/17 04:59:00","imageFilename":"0e1d33ed079450ba5ecb7bf4df658f4e.jpeg","bigImageFilename":"ba4df3adc47a671ecedb064c76702718.jpeg","tags":["大","好身材"]},{"title":"海水清澈","id":18290,"date":"2019/7/17 05:01:00","imageFilename":"cbd6683f3ed18f2d8d675d728bf0efbd.jpeg","bigImageFilename":"61b75830fe186a1c8c494be60706db27.jpeg","tags":["好身材","美腿"]},{"title":"什么遥控器","id":18288,"date":"2019/7/16 14:24:00","imageFilename":"de4b2acc32ef2aaddcab7dac3cc40cd7.jpeg","bigImageFilename":"899d255351026e46a9145d0a7ae631aa.jpeg","tags":["大"]},{"title":"来接机","id":18287,"date":"2019/7/16 14:23:00","imageFilename":"3788602550e7f1536ed0f55d3eaa9568.jpeg","bigImageFilename":"abc47a727a4c1fdff9d67a529d4eee71.jpeg","tags":["大","好身材","美腿"]},{"title":"海浪","id":18286,"date":"2019/7/16 14:22:00","imageFilename":"866c4eaff166eb01aa96568391d61ddc.jpeg","bigImageFilename":"dc59150645f39e230ca4d9601012e91a.jpeg","tags":["大","好身材","美腿"]},{"title":"你去哪里啊","id":18285,"date":"2019/7/16 11:10:00","imageFilename":"d854bce7a9aec1dc2576aaee7775981f.jpeg","bigImageFilename":"bf231d1f8fbafde4a14f72f1390d6e49.jpeg","tags":["在路上","游客投稿","美腿","贵在真实"]},{"title":"机车骑士","id":18284,"date":"2019/7/16 07:00:00","imageFilename":"50ea6be6f5a2c9c69878fb27fe1cba0e.jpeg","bigImageFilename":"25274df07b01f2e4b0f272d7094fbd4f.jpeg","tags":["好身材","害羞","欧美","游客投稿","美","美腿"]},{"title":"优惠中","id":18283,"date":"2019/7/16 02:26:00","imageFilename":"a7ac1c93c8fa6e14210d9147714c7ff0.jpeg","bigImageFilename":"202227f0446d0f3b6648990f18df4b84.jpeg","tags":["美腿","贵在真实"]},{"title":"试试鞋","id":18282,"date":"2019/7/15 09:42:00","imageFilename":"3b0e372560243776c732f675f0100dd2.jpeg","bigImageFilename":"a1eda11ed5cbf27bde6877f4762ef867.jpeg","tags":["好身材","美腿","贵在真实"]},{"title":"这个表怎么填","id":18281,"date":"2019/7/15 09:35:00","imageFilename":"11f8d557214039a0533dc4ce7c6ef56c.jpeg","bigImageFilename":"3fc0615aa7a9206f7fca0d9ff6ab9934.jpeg","tags":["美腿","贵在真实"]},{"title":"打开窗户","id":18280,"date":"2019/7/15 05:41:00","imageFilename":"eb2f0fff03412f87a1e4f5aa4262b975.jpeg","bigImageFilename":"47bd33e84a771f662b5375abb5ab87a3.jpeg","tags":["大"]},{"title":"睡衣不错","id":18279,"date":"2019/7/14 15:01:00","imageFilename":"4500ae69db0617363c8799fedac920d2.jpeg","bigImageFilename":"79d47ece70a84d707ff9cbcac7789c5d.jpeg","tags":["大"]},{"title":"穿的有点多","id":18278,"date":"2019/7/14 15:00:00","imageFilename":"49ffb592cabdd64dd414403b3d0d9206.jpeg","bigImageFilename":"fac7b293d8f37b4801cab2f2d927fd4c.jpeg","tags":["大","好身材","美腿"]},{"title":"颜色挺搭","id":18277,"date":"2019/7/14 14:59:00","imageFilename":"5eb676393848a4abcc9db681dc4de292.jpeg","bigImageFilename":"f6d3f93cf5b75909efafe93cbc53f7e6.jpeg","tags":["大"]},{"title":"手影","id":18276,"date":"2019/7/14 14:58:00","imageFilename":"7e4dfcdd66d0588652f3a610e79d176c.jpeg","bigImageFilename":"3d29b1bcadcbf6b87e894e25bb13c68f.jpeg","tags":["大"]},{"title":"找什么呢","id":18275,"date":"2019/7/14 14:58:00","imageFilename":"8b3acec68acc3f37e9c2f09d6752d6b4.jpeg","bigImageFilename":"a5c252128c22117f2772a705ee06bb76.jpeg","tags":["大","美腿"]},{"title":"大海","id":18274,"date":"2019/7/14 14:57:00","imageFilename":"1498a06c5c095c36a70781cdf1cc33bb.jpeg","bigImageFilename":"8e18f73a856b2e9514199f6ed70cac9a.jpeg","tags":["好身材"]},{"title":"海风","id":18273,"date":"2019/7/14 14:53:00","imageFilename":"fb15542d0541b0e8023ea53912b83c4a.jpeg","bigImageFilename":"196cfe161cc13b78d71da737b382292a.jpeg","tags":["大"]},{"title":"坐在哪里","id":18272,"date":"2019/7/14 14:53:00","imageFilename":"ebdf213eb857adc0df066921a01b4b56.jpeg","bigImageFilename":"11b89ce1cfa13802ac1e127d2061df95.jpeg","tags":["好身材","趣图"]},{"title":"碧海蓝天","id":18271,"date":"2019/7/14 14:52:00","imageFilename":"785ba59797aed78b399ca5173f5c7378.jpeg","bigImageFilename":"88ed457f22c787684fcac5bf1ed7cc88.jpeg","tags":["大"]},{"title":"晚霞","id":18270,"date":"2019/7/14 14:41:00","imageFilename":"17b02405fdc16c94d013d2ff74a4ab63.jpeg","bigImageFilename":"0d9da32f3a85bb7dfb537cc53a94c1da.jpeg","tags":["好身材","美","美腿","风景"]},{"title":"webatt","id":18269,"date":"2019/7/14 14:41:00","imageFilename":"3b6f65829293823af08bc844bd18dfc8.jpeg","bigImageFilename":"ca66c6eef781fac568d471cd1e374ddc.jpeg","tags":["大","好身材"]},{"title":"这是哪里","id":18268,"date":"2019/7/14 14:40:00","imageFilename":"e6dfa36cf6708359dcd9085c4c3350cc.jpeg","bigImageFilename":"e643f057e9af8d4fab06fbd636a2143b.jpeg","tags":["好身材"]},{"title":"什么首饰","id":18267,"date":"2019/7/14 14:39:00","imageFilename":"5d9c276000f43d61076260d11d7eedee.jpeg","bigImageFilename":"5d9d4c80672c49433c337c6cdc3579ca.jpeg","tags":["大","好身材","美腿"]},{"title":"大螃蟹","id":18266,"date":"2019/7/14 14:39:00","imageFilename":"45bbabd1d83b23b60b7d636844e8f7c0.jpeg","bigImageFilename":"a2f68450424ee1af660fab069c0d9407.jpeg","tags":["贵在真实"]},{"title":"海天一色","id":18264,"date":"2019/7/14 14:37:00","imageFilename":"8e2fcee6f5d93e451b1ec586e5693155.jpeg","bigImageFilename":"2e3d9193921f23ae2465554da8c6327a.jpeg","tags":["大","好身材"]},{"title":"去买螃蟹","id":18265,"date":"2019/7/14 14:38:00","imageFilename":"0944a0645012ebd1b243a56469824c91.jpeg","bigImageFilename":"8fafd6ebcf42ad28608f70c3975100f5.jpeg","tags":["在路上","贵在真实"]},{"title":"去洗手间","id":18253,"date":"2019/7/9 02:13:00","imageFilename":"86e6729c1765c11c19cf0bad6f739c2a.jpeg","bigImageFilename":"2a211e57432b79adbc3005a15c8c0ede.jpeg","tags":["在路上","好身材"]}]}