{"totalPage":66,"total":2356,"page":17,"pageSize":36,"list":[{"title":"哪家商场","id":18200,"date":"2019/5/8 08:43:00","imageFilename":"44f06eb1d7b9e23c6b11aaa6cd224807.jpeg","bigImageFilename":"6e9c3524c6bfe92718eb6bce339f6873.jpeg","tags":["大","好身材","美腿"]},{"title":"什么喝的","id":18189,"date":"2019/5/6 04:17:00","imageFilename":"a5080b947e84514ca6d898d65bc61669.jpeg","bigImageFilename":"beefc9a209b5a01a49a46eebcf98edbf.jpeg","tags":["在路上","好身材"]},{"title":"热爱艺术","id":18188,"date":"2019/5/6 02:15:00","imageFilename":"cd0b7a619cd91a1d9aa1c50f18b1f305.jpeg","bigImageFilename":"002b1f4e8ef18484827f56f8f7025adb.jpeg","tags":["好身材","美腿"]},{"title":"什么树","id":18187,"date":"2019/5/5 10:44:00","imageFilename":"35ad4678c6d2c15bcc4343f886d0e0d1.jpeg","bigImageFilename":"6e4b38f2fa61657bc3eee1157d18c24c.jpeg","tags":["大","好身材","美腿","风景"]},{"title":"挺热的","id":18186,"date":"2019/5/5 10:43:00","imageFilename":"df6f28f6f800679ed2128396f058bbb7.jpeg","bigImageFilename":"35dd586f79246d8b2c01b207d6909b21.jpeg","tags":["大","好身材","美腿"]},{"title":"塔","id":18185,"date":"2019/5/5 05:15:00","imageFilename":"32082494eeb0fdb15f9d266d7b74debf.jpeg","bigImageFilename":"2e4586b59d2438ec039b77f537790cda.jpeg","tags":["大","好身材"]},{"title":"镂空裙","id":18184,"date":"2019/5/5 04:40:00","imageFilename":"764e6544308fc47fd460c28907c4584b.jpeg","bigImageFilename":"848911ecd47c813245fb75c276b5a29f.jpeg","tags":["好身材","美腿"]},{"title":"没换泳衣呢","id":18183,"date":"2019/5/5 04:40:00","imageFilename":"0eb018a5000e52ce0aa8095b57b12dda.jpeg","bigImageFilename":"b34576939fba84e8fefe5e21a6b383cd.jpeg","tags":["大","好身材","美腿"]},{"title":"我爱滑梯","id":18182,"date":"2019/5/5 04:39:00","imageFilename":"788214bf659241da353db65c9d7753f7.jpeg","bigImageFilename":"215923e94c57e4c9273d5cdc44bae02c.jpeg","tags":["好身材","美腿"]},{"title":"这件行吗","id":18181,"date":"2019/5/5 02:30:00","imageFilename":"efedd47011fc407bd2ecaad952c690b9.jpeg","bigImageFilename":"316da0c984e2f07bd4cb836314ed4031.jpeg","tags":["大","好身材"]},{"title":"在害羞嘛","id":18180,"date":"2019/4/30 10:21:00","imageFilename":"8895c69e933a7ae31dd6a9a279557664.jpeg","bigImageFilename":"717ec3e0be04689ec4d37ed4cad88470.jpeg","tags":["好身材","美腿","贵在真实"]},{"title":"你选哪一个","id":18179,"date":"2019/4/30 10:20:00","imageFilename":"d9e37dd2664b5ef2649da1cb92b0ca92.jpeg","bigImageFilename":"cd026c86f66d0880358cac7ab13bd78b.jpeg","tags":["好身材","美腿"]},{"title":"吃的什么","id":18178,"date":"2019/4/30 09:45:00","imageFilename":"9cbead34e335862f4b91feba2a6ce46a.jpeg","bigImageFilename":"cc637b26bf21132c152493b3c2313e29.jpeg","tags":["大","好身材"]},{"title":"碧海蓝天白云远山","id":18177,"date":"2019/4/30 07:32:00","imageFilename":"8346fd3e8cdbe15ac7ec30fd3808554e.jpeg","bigImageFilename":"8bc6dc7947e8079723950a98a40f234b.jpeg","tags":["好身材","美","美腿","风景"]},{"title":"BEYOND LIMITS","id":18176,"date":"2019/4/30 07:06:00","imageFilename":"25cb07802d4c6a95a7f1521314056454.jpeg","bigImageFilename":"08594cc0707c0af9d79f28a658c455ee.jpeg","tags":["好身材","美腿"]},{"title":"LANCOME","id":18174,"date":"2019/4/30 04:52:00","imageFilename":"ca557dfb2cd7b194cafe12197f5a8f9d.jpeg","bigImageFilename":"8ef9f3f078e70e1023dcac993d028c7c.jpeg","tags":["在路上","大","好身材"]},{"title":"好多书","id":18173,"date":"2019/4/30 04:51:00","imageFilename":"6d9904bd2eacfd62590001130d8d2a99.jpeg","bigImageFilename":"9bc8e8ec0cf1bdd13fc10c14f590c1f5.jpeg","tags":["大"]},{"title":"草什么时候绿","id":18172,"date":"2019/4/28 15:23:00","imageFilename":"66e62d87f02b0902710778c519172aad.jpeg","bigImageFilename":"3f278093b7e77d3e53d7dee6b45915f8.jpeg","tags":["好身材"]},{"title":"好长的影子","id":18175,"date":"2019/4/30 07:05:00","imageFilename":"64e6356bd2b49e612af69fad9dd03f09.jpeg","bigImageFilename":"a80223f8c9fd925bb6566889c0e87b84.jpeg","tags":["好身材","美腿","风景"]},{"title":"早上好","id":18171,"date":"2019/4/28 15:23:00","imageFilename":"9f7f36da002491e160ee71a389b7d74a.jpeg","bigImageFilename":"78ebbdbe06a12b6e063e3d4227f121eb.jpeg","tags":["大","好身材","美腿"]},{"title":"舞","id":18170,"date":"2019/4/28 15:22:00","imageFilename":"18631fc61d05ce8ac7af349bcde96e8e.jpeg","bigImageFilename":"32231c8c96ca819bac28b7b88b17a465.jpeg","tags":["好身材","美腿","风景"]},{"title":"选哪个好","id":18169,"date":"2019/4/28 15:21:00","imageFilename":"3ed16a978ad7ea6c7f1566bba0c7e281.jpeg","bigImageFilename":"207b18afc2075dd7950705bf76ac79f0.jpeg","tags":["好身材","美腿"]},{"title":"镜中","id":18167,"date":"2019/4/28 15:20:00","imageFilename":"541343b8f0e15fe4baefe0245055a1cb.jpeg","bigImageFilename":"dd80ea54535faead6b6a670138abebab.jpeg","tags":["好身材","美腿"]},{"title":"这款还不错吧","id":18166,"date":"2019/4/28 05:10:00","imageFilename":"24fe6689c00e61007a1ffc6b779d4019.jpeg","bigImageFilename":"514e07de4fc72a856b13deb555344095.jpeg","tags":["大","好身材"]},{"title":"窗帘不错","id":18165,"date":"2019/4/28 03:10:00","imageFilename":"154e2dc35451d52f9331c7824b2c3465.jpeg","bigImageFilename":"84bbbd68b5df31fc3b29df2b95b3b466.jpeg","tags":["大","好身材","美腿"]},{"title":"买了不少东西","id":18164,"date":"2019/4/26 01:59:00","imageFilename":"20783c8bb503cd421ae9210fb74f5c86.jpeg","bigImageFilename":"2b2635ba1f0fb0450211554204c39733.jpeg","tags":["在路上","好身材","美腿"]},{"title":"这是哪里","id":18163,"date":"2019/4/25 11:39:00","imageFilename":"d3ceb8a5ddaafed75f192746340d697b.jpeg","bigImageFilename":"aa4d372c71a745ff56b7e8565e4591a1.jpeg","tags":["风景"]},{"title":"柜门","id":18168,"date":"2019/4/28 15:21:00","imageFilename":"86c8a171ccab93312ebd22ad892bcc1c.jpeg","bigImageFilename":"5e5ad3b40fcb277206586c0db8822582.jpeg","tags":["大","好身材","美腿"]},{"title":"什么摩托车","id":18161,"date":"2019/4/25 05:43:00","imageFilename":"fce9ab58cd71e4dcccbfe2d676fab539.jpeg","bigImageFilename":"17420948e29c3e093b181ac25f64ce52.jpeg","tags":["好身材","美腿"]},{"title":"天气真好","id":18160,"date":"2019/4/25 03:16:00","imageFilename":"0ce766e3a39e638c40bb0f06bbd24895.jpeg","bigImageFilename":"38f1440b1598ed9bfdda8a6c115e6cc2.jpeg","tags":["风景"]},{"title":"腹肌出来了","id":18159,"date":"2019/4/25 02:37:00","imageFilename":"da1098c138617409e10cda0bf7aac335.jpeg","bigImageFilename":"e9fafc3d973bb759e1a62a454b96af22.jpeg","tags":["好身材"]},{"title":"小狗台灯","id":18158,"date":"2019/4/24 11:31:00","imageFilename":"d17f322605fb6f7a2f965693d53ab741.jpeg","bigImageFilename":"a79447b4a9c0b9d7e91b24f9d417bcaf.jpeg","tags":["大","好身材"]},{"title":"什么绿植","id":18157,"date":"2019/4/24 05:04:00","imageFilename":"95a96db68fbb0f3783762340cc6eb078.jpeg","bigImageFilename":"596ec375ccd7d186c0e7cd548059116a.jpeg","tags":["大","好身材","美腿"]},{"title":"画的像不","id":18155,"date":"2019/4/24 02:03:00","imageFilename":"8f6986332c07159a3555f49b7bb1c875.jpeg","bigImageFilename":"ee1a8fb33f0c0fbb7a5c1006ab200b74.jpeg","tags":["好身材","美腿"]},{"title":"灯","id":18162,"date":"2019/4/25 11:32:00","imageFilename":"bce0dfe224c0948ce431a73c3c26cdfc.jpeg","bigImageFilename":"058a6417f33a90584d070304fb39cfd1.jpeg","tags":["美腿"]},{"title":"帽子不错吧","id":18156,"date":"2019/4/24 02:04:00","imageFilename":"e79285b467ee88ef37e5e012b7683d61.jpeg","bigImageFilename":"276764debed2177c829fc88f6da8ec63.jpeg","tags":["好身材"]}]}