{"totalPage":66,"total":2356,"page":25,"pageSize":36,"list":[{"title":"沙发很舒服","id":17900,"date":"2019/1/17 05:11:00","imageFilename":"9b8a029d5cf2223e8c4ca9d0fdb21062.jpeg","bigImageFilename":"979b67d62c417bd256261baa9aeb9f5b.jpeg","tags":["美腿"]},{"title":"躺一会儿","id":17899,"date":"2019/1/17 05:09:00","imageFilename":"1ee40c5554bb1a99f766058dc0cc71dd.jpeg","bigImageFilename":"24d6347eafcf2577f7966bcb23a159e1.jpeg","tags":["美腿"]},{"title":"索尼笔记本","id":17901,"date":"2019/1/17 11:52:00","imageFilename":"946f11c04e299b8d1f30799bfe433632.jpeg","bigImageFilename":"fe2385f8b05739089ee8781b5d277853.jpeg","tags":["美腿"]},{"title":"脚有点累了","id":17898,"date":"2019/1/17 05:08:00","imageFilename":"863e03333b54def740fa35ff1e93e193.jpeg","bigImageFilename":"001155cabb5e23a1faf44e277d25e9f7.jpeg","tags":["美腿"]},{"title":"好白啊","id":17897,"date":"2019/1/17 01:19:00","imageFilename":"82f142f14fdefe827063ddd2c70436b2.jpeg","bigImageFilename":"ec797af940cdeae31c44c12176313bef.jpeg","tags":["美腿"]},{"title":"休息放松下","id":17896,"date":"2019/1/17 01:18:00","imageFilename":"f3db849298e89f130cb48fa9ddbb7565.jpeg","bigImageFilename":"d1195a69bf38b21374c58e020cc987c6.jpeg","tags":["美腿"]},{"title":"晚上锻炼","id":17894,"date":"2019/1/16 14:55:00","imageFilename":"2ab453f40787252d93a2cf829e9409a9.jpeg","bigImageFilename":"119a5cc3ba221b3de3da27c20f7e1925.jpeg","tags":["美腿"]},{"title":"哪座桥","id":17893,"date":"2019/1/16 14:05:00","imageFilename":"4c6222082aaee9d5e683f4f7aad58058.jpeg","bigImageFilename":"804c9529f33707b19fad7f764c83f72c.jpeg","tags":["美腿"]},{"title":"这样穿热不热","id":17892,"date":"2019/1/16 07:52:00","imageFilename":"6ed58894bf5fb71f752260604e90690b.jpeg","bigImageFilename":"4373cd826a5113dbb46ef1bf7a429afc.jpeg","tags":["在路上","美腿"]},{"title":"蓝天","id":17895,"date":"2019/1/16 14:58:00","imageFilename":"2172cbfcffb3f9e2c6457d89b8e34fd3.jpeg","bigImageFilename":"685cf6b5557bffa32342328ce7b1e9d8.jpeg","tags":["美腿"]},{"title":"沙滩秋千","id":17889,"date":"2019/1/16 01:02:00","imageFilename":"30e45c91e14c53359930524d300645fa.jpeg","bigImageFilename":"50049d614898b566f047e8df0e9c2fc0.jpeg","tags":["好身材","美腿"]},{"title":"哪家店","id":17890,"date":"2019/1/16 02:04:00","imageFilename":"04b3bf568c499ac083132b4746bf4f7e.jpeg","bigImageFilename":"eef83e8d1bd754a7105cf867afa54367.jpeg","tags":["美腿"]},{"title":"什么材质的泳衣","id":17888,"date":"2019/1/16 01:01:00","imageFilename":"1e88a42a67dc13eda17f75a4c6416f18.jpeg","bigImageFilename":"5ebd0621e7d0c5e4929418ec27c098d8.jpeg","tags":["好身材","美腿"]},{"title":"影子","id":17886,"date":"2019/1/15 14:01:00","imageFilename":"e9c6042b5b05efac66375b4fc62181fe.jpeg","bigImageFilename":"2f2e9b8f5479eb0825deac175c96f73b.jpeg","tags":["好身材"]},{"title":"你有这样穿的女同事吗","id":17891,"date":"2019/1/16 05:06:00","imageFilename":"35a8c43a83b11a7cd40bb49a8863202a.jpeg","bigImageFilename":"8b7b282955a431572f73e80fde3a383d.jpeg","tags":["贵在真实"]},{"title":"绿巨人","id":17885,"date":"2019/1/15 13:34:00","imageFilename":"5613998c6174e5264b92d55a989faaa2.jpeg","bigImageFilename":"1917c14923c625a5d9379ee054b26b56.jpeg","tags":["好身材"]},{"title":"有鱼","id":17883,"date":"2019/1/15 13:30:00","imageFilename":"ef1eaa520e2fda6643994dc1f5c3e91b.jpeg","bigImageFilename":"bffc5af1597be3dc3414cbab1833db34.jpeg","tags":["好身材"]},{"title":"热爱跑步","id":17884,"date":"2019/1/15 13:33:00","imageFilename":"c6c2de8b2c09da86452c172e6b99c4ea.jpeg","bigImageFilename":"f035e0c56c9991aa0b89d3bce5fd5cf0.jpeg","tags":["好身材"]},{"title":"什么球","id":17887,"date":"2019/1/15 14:01:00","imageFilename":"ff382f43ac9ef569ad8c544bfc97d589.jpeg","bigImageFilename":"de600df8fbea8d78ef14953be8001d72.jpeg","tags":["好身材"]},{"title":"裤子破了","id":17882,"date":"2019/1/15 13:13:00","imageFilename":"4051309771ceb77537dd638876cdcf14.jpeg","bigImageFilename":"c270171dcfdabf5c5f279f33c2c064b5.jpeg","tags":["大"]},{"title":"蓝天白云","id":17881,"date":"2019/1/15 13:12:00","imageFilename":"c33879a4f57162ae6f7163fe1eb5c97d.jpeg","bigImageFilename":"14fcef06c7c03bc282cc65462b020a88.jpeg","tags":["好身材"]},{"title":"终于到了","id":17880,"date":"2019/1/15 13:07:00","imageFilename":"14def9232f6c352a6ef373ec134bd332.jpeg","bigImageFilename":"31671e5d247a841f18e11e4b3df5693c.jpeg","tags":["好身材","美腿"]},{"title":"粉色毛线裙","id":17879,"date":"2019/1/15 13:02:00","imageFilename":"5d04f06d2bf3b651f5971e6a888798c8.jpeg","bigImageFilename":"1a4905cfa2a3640b6ff44c595b088002.jpeg","tags":["大"]},{"title":"想看看红唇","id":17877,"date":"2019/1/15 12:59:00","imageFilename":"55e7fca11099904ef7b29ba2c1f46164.jpeg","bigImageFilename":"543e7ba1fb9bdc6d0eefee9064d7e506.jpeg","tags":["大"]},{"title":"什么车","id":17876,"date":"2019/1/15 12:59:00","imageFilename":"25bcaa833a0a6d54cfa73d621b4376aa.jpeg","bigImageFilename":"9cf8253e85150cafcf64171b2cb9c9ac.jpeg","tags":["美腿"]},{"title":"这是什么衣服","id":17878,"date":"2019/1/15 13:01:00","imageFilename":"9a6961bfa6a092d5360b84f2c7da6ecd.jpeg","bigImageFilename":"89b04e68cc3002bd4e4425b1cb867c4d.jpeg","tags":["好身材"]},{"title":"挡一下","id":17875,"date":"2019/1/15 11:59:00","imageFilename":"544ac7373b5ab808ed95103ece6c7b47.jpeg","bigImageFilename":"5a8cb820edf90b7090a1c619883060c7.jpeg","tags":["贵在真实"]},{"title":"眼镜掉了哦","id":17874,"date":"2019/1/15 10:58:00","imageFilename":"e317e496f5e69fc28e35a53db96906a0.jpeg","bigImageFilename":"f2f41d09692a186ae717f298669e6dec.jpeg","tags":["在路上","好身材"]},{"title":"想念夏天","id":17872,"date":"2019/1/15 02:40:00","imageFilename":"1e448a4d16995fa3a3cc90ca1f9b50e6.jpeg","bigImageFilename":"fe4f9527062881c55a64f6b80f139538.jpeg","tags":["在路上","美腿","贵在真实"]},{"title":"出去玩","id":17873,"date":"2019/1/15 10:58:00","imageFilename":"491f05c8f1827f4c2454f0f41da5764c.jpeg","bigImageFilename":"e202325e516fa39e9ca12e9ca88777ec.jpeg","tags":["美腿"]},{"title":"台北车站","id":17871,"date":"2019/1/14 12:14:00","imageFilename":"1a5432c2bb1739d6aa59b2e9d3503c84.jpeg","bigImageFilename":"d66d54828816497d6e0ed0c54b2a35a9.jpeg","tags":["大"]},{"title":"高椅子","id":17869,"date":"2019/1/14 12:12:00","imageFilename":"37b372d94b64fb103271f8a2e43782f3.jpeg","bigImageFilename":"02d9e6a74fe4d6f636ff47172dce71de.jpeg","tags":["大","好身材","美腿"]},{"title":"记得涂防蚊液","id":17870,"date":"2019/1/14 12:12:00","imageFilename":"0b07747ec49b85aa98b823a2327ec731.jpeg","bigImageFilename":"c27c3c8b834d339983930126b4b319a9.jpeg","tags":["美腿"]},{"title":"是仙人掌吗","id":17868,"date":"2019/1/14 12:11:00","imageFilename":"5bb45891bde132953cf7b74fa4ee6cb8.jpeg","bigImageFilename":"976c9cb2d85dd7004923ec3a3dc7d2e2.jpeg","tags":["好身材"]},{"title":"沙发很舒服","id":17867,"date":"2019/1/14 08:20:00","imageFilename":"ce3e421c3ae498d21f9e3e9c2bda24d4.jpeg","bigImageFilename":"d0209951bcdd4688c37d35428acdcdb9.jpeg","tags":["美腿"]},{"title":"这姿势挺舒服","id":17866,"date":"2019/1/14 05:10:00","imageFilename":"a7361598a12ff1cd09c78ca8a052c555.jpeg","bigImageFilename":"dc8b1e1fe42cb5705a0e3e5fb686b67b.jpeg","tags":["美腿"]}],"allTags":["美腿","贵在真实","在路上","好身材","大","美","游客投稿","风景","趣图","欧美","害羞"]}