{"totalPage":66,"total":2356,"page":48,"pageSize":36,"list":[{"title":"镜子在哪里","id":8316,"date":"2017/6/20 21:28:00","imageFilename":"1f1a6f839fb05d3a9a107c635fda0757.jpeg","bigImageFilename":"cac062185de2c6f57e9903f9adf593dc.jpeg","tags":["贵在真实"]},{"title":"小狗狗","id":8302,"date":"2017/6/20 21:29:00","imageFilename":"255e610c2e81169a096257c83b77a698.jpeg","bigImageFilename":"f712d3418e4e60e2c35beae59b6910a5.jpeg","tags":["好身材"]},{"title":"黑白配","id":8300,"date":"2017/6/20 21:31:00","imageFilename":"5a548cfe2c3d5a97bd4ce208dd33e176.jpeg","bigImageFilename":"169a2981485f654a6dd85c242a4828d7.jpeg","tags":["大"]},{"title":"绿意盎然","id":8278,"date":"2017/7/10 21:05:00","imageFilename":"c9b6b0525d2960b819175d356055d4ea.jpeg","bigImageFilename":"ad4e08701f95165d8464cc063fa2eb11.jpeg","tags":["好身材","美腿"]},{"title":"阳光明媚","id":8276,"date":"2017/6/20 22:14:00","imageFilename":"62694611cc4da2799e84c6a3547baadd.jpeg","bigImageFilename":"c097fb7919873f030457fc3f3d279091.jpeg","tags":["大"]},{"title":"吊坠挺精致","id":8154,"date":"2017/5/9 21:26:00","imageFilename":"d05887b7f3f038ffb1eeb07d339cca8c.jpeg","bigImageFilename":"39f7086e7d8cf301b53822b5a9fd9d41.jpeg","tags":["好身材"]},{"title":"躺下的镜子","id":8152,"date":"2017/5/9 21:31:00","imageFilename":"a7dae09ef0f2dd8b5df5185f6fc9a9ab.jpeg","bigImageFilename":"33b59868537c8ad04cbc028c139e8c40.jpeg","tags":["好身材","美腿"]},{"title":"做点什么吃","id":8148,"date":"2017/5/9 21:33:00","imageFilename":"659a59724e138bcb5644821d903a387a.jpeg","bigImageFilename":"1b5fff52886b39d8057e78596c6923fe.jpeg","tags":["美腿","贵在真实"]},{"title":"什么画展","id":8144,"date":"2017/5/9 21:43:00","imageFilename":"c9ceb23188aba51dbf4401113d28b0ed.jpeg","bigImageFilename":"c93aecfcdc839792452cb6dc2aaf035d.jpeg","tags":["好身材","美腿","贵在真实"]},{"title":"请不要逆行","id":8146,"date":"2017/5/9 21:41:00","imageFilename":"7dde0d3a9adb0956dc52a831f0a167f2.jpeg","bigImageFilename":"c534999db4c25b16561224815326edf1.jpeg","tags":["在路上","美腿"]},{"title":"什么手机壳","id":8134,"date":"2017/5/9 21:48:00","imageFilename":"59e4adf9f7906f4c67d5adc6a99bfbed.jpeg","bigImageFilename":"d565a57c1ba8931bb5a6439dfb8cae41.jpeg","tags":["好身材","美腿"]},{"title":"出门要穿凉快些","id":8136,"date":"2017/5/9 21:47:00","imageFilename":"dd6b1d14df06f82f5fd3ad240699a301.jpeg","bigImageFilename":"dd4386569f4e385d6e3dfefa2469dbea.jpeg","tags":["好身材","美腿"]},{"title":"是一套吗","id":8128,"date":"2017/5/9 21:51:00","imageFilename":"2bc87eeafa5d7343092fac70dccafb78.jpeg","bigImageFilename":"27f1a4b529a51c301d21cccf35724987.jpeg","tags":["贵在真实"]},{"title":"猜猜什么车","id":8120,"date":"2017/5/9 21:29:00","imageFilename":"025c8ebc4594b6820a9c99f9ea3d81ed.jpeg","bigImageFilename":"89eaedafc5796580c24fc31cb509e746.jpeg","tags":["在路上","美腿"]},{"title":"眼神迷离","id":8092,"date":"2017/5/8 18:23:00","imageFilename":"1f2819a5356adcf9d9524e975cc591a7.jpeg","bigImageFilename":"ea7fd0c62c0c65c52929ccc468a42ee1.jpeg","tags":["贵在真实"]},{"title":"地板下面是什么","id":8088,"date":"2017/5/8 18:23:00","imageFilename":"42e59c44109e9b574bd9d2909051f8a8.jpeg","bigImageFilename":"0f36890f7580e3e3f361c9f0ac48d3c6.jpeg","tags":["美腿","贵在真实"]},{"title":"窗帘有点土","id":8084,"date":"2017/5/8 18:22:00","imageFilename":"37ade54765d0ff00a31e7a6c2b77d1ff.jpeg","bigImageFilename":"e462b36893990b73149f12d21a5f2637.jpeg","tags":["大","好身材"]},{"title":"想拍一下","id":8080,"date":"2017/5/8 18:22:00","imageFilename":"32380633752c11c80a41e070ce72a86f.jpeg","bigImageFilename":"4fa92009bb8127400a151e40e4d15cb9.jpeg","tags":["好身材"]},{"title":"这书好看不","id":8076,"date":"2017/5/8 18:21:00","imageFilename":"38aaf9ff89d091c8efdbcbc101f5e06d.jpeg","bigImageFilename":"378d6928b246c31fce0351e9eadf067a.jpeg","tags":["美腿"]},{"title":"什么沙发","id":8082,"date":"2017/5/8 18:22:00","imageFilename":"f3c28290b7fe31b69696bf085de236a0.jpeg","bigImageFilename":"09eb973dfa953615bd73e138605f77fd.jpeg","tags":["好身材"]},{"title":"镜子不错","id":8074,"date":"2017/5/8 22:11:00","imageFilename":"752680351314e35d802afe8737fcbde6.jpeg","bigImageFilename":"4496e8f6f9b3a04da6c6f990fa7d8da5.jpeg","tags":["好身材","美腿","贵在真实"]},{"title":"妈妈让我穿秋裤","id":8072,"date":"2017/5/8 22:30:00","imageFilename":"0368d4970313c4a4f3d065b62a71fa9f.jpeg","bigImageFilename":"62421e9b72f8cd86ea748df9ed406dd3.jpeg","tags":["美腿","贵在真实"]},{"title":"地上凉","id":8036,"date":"2017/7/16 17:32:00","imageFilename":"7b3a50037d36008768fcf0f65ea7d258.jpeg","bigImageFilename":"1f9b9ea4a01cb89268f1ae814cfae5ac.jpeg","tags":["美腿"]},{"title":"谁的衬衣","id":7870,"date":"2017/7/17 20:49:00","imageFilename":"bd88e45a34dba9277b61d49e7ce4da62.jpeg","bigImageFilename":"edd77260802e9cc1624f1dcd2cb8ca9f.jpeg","tags":["大"]},{"title":"午后小憩","id":7934,"date":"2017/7/16 17:57:00","imageFilename":"31d528b4e07c58c04386dcfec1a2f31f.jpeg","bigImageFilename":"50aa6e80cd1a11d54dd135e105a1716d.jpeg","tags":["美腿"]},{"title":"瑜伽球","id":7862,"date":"2017/7/17 20:49:00","imageFilename":"14443804404272253d673b843ac55361.jpeg","bigImageFilename":"1e57d2df430b3cc23093d6f8a7bead5b.jpeg","tags":["好身材"]},{"title":"会不会破","id":7837,"date":"2017/7/17 20:52:00","imageFilename":"6eb021940a397897d1c73b608df0df4e.jpeg","bigImageFilename":"7046ea9624b9e2553538ae60570bde5c.jpeg","tags":["在路上"]},{"title":"地下凉","id":7819,"date":"2017/7/17 20:54:00","imageFilename":"4c4c7838f3cd2959ba7784051fa227ab.jpeg","bigImageFilename":"18a43a87cebb7ce2181df807f90f07a5.jpeg","tags":["美腿"]},{"title":"鞋子不错","id":7817,"date":"2017/7/17 20:54:00","imageFilename":"f5b64a2ce0a8b93549c2b3f34667ac9c.jpeg","bigImageFilename":"cc0e66d20ff498f1f486acf5c98e2c5b.jpeg","tags":["美腿"]},{"title":"摇头风扇","id":7777,"date":"2017/8/3 20:46:00","imageFilename":"906773297f238b75c53e96f3dcf92409.jpeg","bigImageFilename":"21956f9b19d9581190ff918cc44ea2ce.jpeg","tags":["好身材","贵在真实"]},{"title":"早","id":7775,"date":"2017/8/3 20:46:00","imageFilename":"eaa53489373987c1624461c70529406c.jpeg","bigImageFilename":"175e0888dc7a37d22c77c5f6cf5df717.jpeg","tags":["在路上","美腿"]},{"title":"什么地板","id":7771,"date":"2017/8/10 20:14:00","imageFilename":"3f72fe13d7d96c65e885b51147c8cfeb.jpeg","bigImageFilename":"69580a6bed44cf8a36c35883b3abed2e.jpeg","tags":["美腿"]},{"title":"困","id":7743,"date":"2017/8/10 20:15:00","imageFilename":"175d4bd201fbdae922f6cacec3b4f12e.jpeg","bigImageFilename":"fb893f2581968ee5871113ab21639798.jpeg","tags":["大"]},{"title":"好好学习","id":7727,"date":"2017/8/10 20:18:00","imageFilename":"fe85514b6152d4ebc8528e1a364efbea.jpeg","bigImageFilename":"9bdf58b1271dca2f3147136ba583a5bb.jpeg","tags":["美腿"]},{"title":"这样累不累","id":7669,"date":"2017/8/10 20:22:00","imageFilename":"314cd617458a5a156af2e2d1ec424ee2.jpeg","bigImageFilename":"106801f43143e447164ef5a274333daf.jpeg","tags":["大","美腿"]},{"title":"热不热","id":7689,"date":"2017/8/10 20:21:00","imageFilename":"420fc887d2e295cac55ea7e768c144f7.jpeg","bigImageFilename":"84772701a25b6204ddfbee6ad74ef29f.jpeg","tags":["好身材"]}],"allTags":["美腿","贵在真实","在路上","好身材","大","美","游客投稿","风景","趣图","欧美","害羞"]}