{"totalPage":66,"total":2356,"page":42,"pageSize":36,"list":[{"title":"这是哪的镜子","id":13060,"date":"2017/8/16 20:36:00","imageFilename":"2aa2aea585787ededdd37de818ac3b41.jpeg","bigImageFilename":"c27e218aecb2b8992da13dae89b28a42.jpeg","tags":["大"],"width":810,"height":1080},{"title":"减肥餐","id":13070,"date":"2017/8/16 20:35:00","imageFilename":"1ae922f307edb5074f6fd4fe73a7a5a0.jpeg","bigImageFilename":"2544289ec960b7cc7c70ee76c261c49b.jpeg","tags":["美腿"],"width":960,"height":1281},{"title":"裤子破了","id":13058,"date":"2017/8/16 20:37:00","imageFilename":"e6ad397ca1a776e4fdf5b90e5a89255e.jpeg","bigImageFilename":"39c8e5c7af5bcddb9e924f3e912dad2f.jpeg","tags":["好身材","美腿"],"width":333,"height":1075},{"title":"太困了","id":13034,"date":"2017/8/26 12:39:00","imageFilename":"d97ba027ff959454772af3ef4116071f.jpeg","bigImageFilename":"920066216ebf0a9ca61633583dfd8b7d.jpeg","tags":["好身材","美腿","贵在真实"],"width":647,"height":806},{"title":"花瓶不错","id":13030,"date":"2017/8/26 12:40:00","imageFilename":"4d171174ff749f8432856b292ce1e25a.jpeg","bigImageFilename":"6fbd498e2201e651b1e1c482e53ca5fa.jpeg","tags":["大"],"width":661,"height":960},{"title":"准备出门","id":13028,"date":"2017/8/26 12:40:00","imageFilename":"ae97dc8a675f484cc22f0a18dcfe7130.jpeg","bigImageFilename":"aff9976853b751322ff9e55cfb07c59f.jpeg","tags":["美腿","贵在真实"],"width":690,"height":856},{"title":"爱读书","id":12950,"date":"2017/8/27 10:53:00","imageFilename":"1b72960abccc24071fd486f364d4dc2e.jpeg","bigImageFilename":"d328043e825da9bac8f217195d5ab3e6.jpeg","tags":["大"],"width":750,"height":750},{"title":"头发需要保养了","id":12948,"date":"2017/8/27 10:53:00","imageFilename":"87aa5ced88b579b79fd8d5e6c8cc2901.jpeg","bigImageFilename":"b1198434b481f4b47abf6c53bfd53a50.jpeg","tags":["大"],"width":1000,"height":1000},{"title":"going down","id":13046,"date":"2017/8/26 12:38:00","imageFilename":"d9d91d4f6376a0b1716a81565de4ad5c.jpeg","bigImageFilename":"db3d1c18e4d43209d41bc724b2ada959.jpeg","tags":["在路上"],"width":1000,"height":964},{"title":"生日快乐","id":12856,"date":"2017/8/31 20:56:00","imageFilename":"95a51d071bc550b02d3cc720c25f7268.jpeg","bigImageFilename":"df77353cda8600ba1034f801b6730d11.jpeg","tags":["大"],"width":1000,"height":1000},{"title":"hellokitty","id":12694,"date":"2017/9/9 07:37:00","imageFilename":"3b06005fe179869a0601043481018cda.jpeg","bigImageFilename":"1f709b995e5ba2a8160e69cc174d8c8d.jpeg","tags":["美腿"],"width":1000,"height":578},{"title":"hellokitty","id":12692,"date":"2017/9/9 07:37:00","imageFilename":"d6113911e6789f26546d2103c88c0288.jpeg","bigImageFilename":"9b1a8a124210fae090474a7ec96d7b07.jpeg","tags":["美腿"],"width":1000,"height":899},{"title":"起床了","id":12746,"date":"2017/9/9 07:32:00","imageFilename":"eb4b4434ac19d0dfeed7569e4dc58181.jpeg","bigImageFilename":"72ce609521c64be52c566f6d1edda777.jpeg","tags":["贵在真实"],"width":1000,"height":1000},{"title":"胳膊挪开点","id":12676,"date":"2017/9/9 07:39:00","imageFilename":"cd3cd4b9336a13f6ca918d326f137f5a.jpeg","bigImageFilename":"dc93e74cfb6b5fba366b1db1e42e5e0d.jpeg","tags":["好身材","贵在真实"],"width":1000,"height":1269},{"title":"这件好看不","id":12650,"date":"2017/9/9 16:13:00","imageFilename":"db8eb3c7f4073297005391e7e78fe648.jpeg","bigImageFilename":"45c497b07e1f8c34a53bb9269d889ad6.jpeg","tags":["美腿"],"width":1000,"height":1382},{"title":"地上凉","id":12630,"date":"2017/9/9 16:14:00","imageFilename":"0c3cd525251f48f6a43d2d53d95cdd67.jpeg","bigImageFilename":"05bc29af5753a4ac816072cea06b370f.jpeg","tags":["美腿"],"width":970,"height":1280},{"title":"不要穿鞋上床","id":12592,"date":"2017/9/9 16:20:00","imageFilename":"5aa6352823c11a7ffdb1d561218a93bb.jpeg","bigImageFilename":"8005890b290aeea6cf2bb59b54a4a31e.jpeg","tags":["美腿"],"width":1000,"height":1398},{"title":"沙发不错","id":12588,"date":"2017/9/9 16:20:00","imageFilename":"cbf3b565e2ac6038fee0ae589e91761d.jpeg","bigImageFilename":"3d45fc16329a8cc7c846db8d2f515a0a.jpeg","tags":["美腿"],"width":960,"height":1242},{"title":"练什么项目","id":12620,"date":"2017/9/9 16:17:00","imageFilename":"33d6435af5e23897a0040268978c5f58.jpeg","bigImageFilename":"333a751cfeb39d8c64f896fd726511e5.jpeg","tags":["好身材"],"width":1000,"height":963},{"title":"国画","id":12570,"date":"2017/9/9 16:26:00","imageFilename":"f0dd4d9eb8a97e3f9fc6843f9a03272f.jpeg","bigImageFilename":"098398d34fb563387aaf634bcff51fe5.jpeg","tags":["好身材"],"width":664,"height":1160},{"title":"碧海蓝天","id":12554,"date":"2017/9/9 16:27:00","imageFilename":"5242bfb3c966ef5fb2e5ee813a35df54.jpeg","bigImageFilename":"155496fe072938bfcd840842e94e5931.jpeg","tags":["大"],"width":1000,"height":789},{"title":"碧海蓝天","id":12542,"date":"2017/9/9 16:30:00","imageFilename":"f34db5a010eeb439a0f8d23e4d8ced19.jpeg","bigImageFilename":"b45e667c0f1ecc5cbd81395e494c45f1.jpeg","tags":["大"],"width":961,"height":1200},{"title":"什么表","id":12508,"date":"2017/9/9 16:30:00","imageFilename":"2080896074684f8ddf945c8f705394a9.jpeg","bigImageFilename":"9a0088ac786e5a7e1fecbad777ee831b.jpeg","tags":["贵在真实"],"width":1000,"height":1333},{"title":"灯光太亮","id":12584,"date":"2017/9/9 16:24:00","imageFilename":"6f641e9ea58b789c841744652c89aef3.jpeg","bigImageFilename":"b83289ccabd85db1fc7b9d969a4ad6bb.jpeg","tags":["好身材","美腿"],"width":960,"height":1235},{"title":"什么琴","id":12502,"date":"2017/9/9 16:35:00","imageFilename":"346e1438aa87f609ae5c05b92ab182c7.jpeg","bigImageFilename":"f29e307c65f26136d93f6a27ba09f63a.jpeg","tags":["好身材"],"width":509,"height":763},{"title":"请注意形象","id":12496,"date":"2017/9/9 16:35:00","imageFilename":"be7aaf570881fdeb63f245eb5fba9d0d.jpeg","bigImageFilename":"1134aec709515f2091a09645f28b3d9e.jpeg","tags":["美腿"],"width":500,"height":607},{"title":"什么手机","id":12494,"date":"2017/9/9 16:36:00","imageFilename":"e951d030eec5681e5068b7f671860ce6.jpeg","bigImageFilename":"a462a59e62b887f4f31847ce3e5b7963.jpeg","tags":["大"],"width":1000,"height":1001},{"title":"什么竹子","id":12258,"date":"2017/8/14 21:05:00","imageFilename":"04c31f897358bf052ffa9a39476286b1.jpeg","bigImageFilename":"f6713400d20ad8456877989a4541c912.jpeg","tags":["大"],"width":750,"height":947},{"title":"午后","id":12241,"date":"2017/8/14 21:00:00","imageFilename":"3528d555da04036b7e1d103e80a0a039.jpeg","bigImageFilename":"a909aa1c8721b944da52c40922b008b5.jpeg","tags":["在路上","美腿"],"width":1000,"height":1333},{"title":"地上凉","id":12204,"date":"2017/8/14 20:57:00","imageFilename":"7eff703a6d383ea54ea42bb87436ae8c.jpeg","bigImageFilename":"bb8f28c5d20a39101bed61330e35c754.jpeg","tags":["美腿"],"width":1000,"height":1333},{"title":"你选哪一个","id":11210,"date":"2017/7/30 21:29:00","imageFilename":"d7ffda32bbdea3097ab7f3829ca8dfd1.jpeg","bigImageFilename":"0c083b79f19b4cec98d594519855bdc2.jpeg","tags":["大"],"width":1200,"height":900},{"title":"海洋球","id":12208,"date":"2017/8/14 20:56:00","imageFilename":"e36c6f86ab0c37e558b11b4aec7df64d.jpeg","bigImageFilename":"db83d00b969e32ee4076e93402c75cb8.jpeg","tags":["美腿"],"width":1000,"height":1282},{"title":"吊坠不错","id":11207,"date":"2017/7/30 11:25:00","imageFilename":"d1c08b023be32b6b40a09ee0433ec7fb.jpeg","bigImageFilename":"5eabdb280eb8d41618e673eed711903d.jpeg","tags":["好身材"],"width":1200,"height":677},{"title":"起风了","id":11204,"date":"2017/7/30 11:23:00","imageFilename":"b03752a9056c9fd0ec7348d56f4c3d04.jpeg","bigImageFilename":"445a0e7e19d55d678d3c13c55ab0cf3b.jpeg","tags":["在路上"],"width":900,"height":1200},{"title":"花裙子","id":11201,"date":"2017/7/30 11:21:00","imageFilename":"73bf5f61ee46dda72bcb00783dece172.jpeg","bigImageFilename":"0b85b3d0eddf19211b235c97511a7cf3.jpeg","tags":["美腿"],"width":849,"height":1200},{"title":"中场休息","id":11199,"date":"2017/7/29 21:19:00","imageFilename":"bc3b658b9809e73dbeb72ab85702a7ab.jpeg","bigImageFilename":"9de9aca0c6b8c0f6d35f66b0a9f5c3e4.jpeg","tags":["美腿"],"width":658,"height":882}],"allTags":["美腿","贵在真实","在路上","好身材","大","美","游客投稿","风景","趣图","欧美","害羞"]}