{"totalPage":66,"total":2356,"page":40,"pageSize":36,"list":[{"title":"硌脚不","id":15064,"date":"2017/10/7 22:20:00","imageFilename":"7f11d999fa4aacafffa14291f2936fcb.jpeg","bigImageFilename":"28d34adfdc4f4752bc21503612ffc447.jpeg","tags":["在路上","美腿"]},{"title":"沙发不错","id":15020,"date":"2017/10/6 12:23:00","imageFilename":"001124a810fe4ae81d84a7e463f38c93.jpeg","bigImageFilename":"f6d7579ba3e3395a7c5e5761b901c421.jpeg","tags":["美腿"]},{"title":"先生您吃点啥","id":15012,"date":"2017/9/30 21:31:00","imageFilename":"94e10fce7fbad4a19a24278d0e7bddd8.jpeg","bigImageFilename":"ddfd6cd92c3a2ae6c6679671f230e545.jpeg","tags":["大"]},{"title":"又报bug了","id":14994,"date":"2017/9/23 10:21:00","imageFilename":"53ce163fc6562c58836e046c76542405.jpeg","bigImageFilename":"326f65fa27633ec912c111fa06cee6fe.jpeg","tags":["贵在真实"]},{"title":"请转身","id":14991,"date":"2017/9/22 21:16:00","imageFilename":"0696adec585448973e10babb02c655c3.jpeg","bigImageFilename":"7a55542ca750419a0837ffe9a953d887.jpeg","tags":["好身材"]},{"title":"什么车","id":14988,"date":"2017/9/22 21:14:00","imageFilename":"ae30f9e55c669c74c5406f6a0b449fb5.jpeg","bigImageFilename":"db4e0cb54d376d6af422b9908f50e20d.jpeg","tags":["大","欧美"]},{"title":"玉佩不错","id":14964,"date":"2017/9/16 22:04:00","imageFilename":"a9767b1017194fd32579bcc910fa50d4.jpeg","bigImageFilename":"de490663d8f022bd7b74d0e9ed88d988.jpeg","tags":["大"]},{"title":"裤子该换了","id":14967,"date":"2017/9/16 22:15:00","imageFilename":"2c263e900584ed9da5b6e327ef823a72.jpeg","bigImageFilename":"94992711d646d92c0dd0b763002a2dee.jpeg","tags":["好身材","美腿"]},{"title":"晚自习","id":14936,"date":"2017/9/14 20:39:00","imageFilename":"599cf6b28654b67146b488889e5c6c17.jpeg","bigImageFilename":"e676393a71a8575209bf3221bbb286f4.jpeg","tags":["大"]},{"title":"镜子不错","id":14891,"date":"2017/9/14 20:49:00","imageFilename":"8f6b6090a10d2c4ad14960ae773aa0f0.jpeg","bigImageFilename":"68f559e5a73bfbe220fb9038a85ea39d.jpeg","tags":["贵在真实"]},{"title":"太困了","id":14933,"date":"2017/9/13 12:56:00","imageFilename":"104629d2bf3d07b9ab3a34bde336a385.jpeg","bigImageFilename":"27703b1b8b182c04078fd23168891069.jpeg","tags":["在路上"]},{"title":"啥项目","id":14881,"date":"2017/9/14 20:50:00","imageFilename":"f7c22835f96f34e1db2f023dee70bb98.jpeg","bigImageFilename":"f73a74acc7e604d3054bac397bc66513.jpeg","tags":["好身材","美腿"]},{"title":"涂了好几种颜色","id":14877,"date":"2017/9/14 20:50:00","imageFilename":"bf3bc94ee7ef29186ffe4e65522187c7.jpeg","bigImageFilename":"bc61eb4435811dd7def923db47fd1f23.jpeg","tags":["美腿"]},{"title":"碧海银沙","id":14871,"date":"2017/9/14 20:51:00","imageFilename":"e20147e43b9bba99f7b0f2cd70f0222a.jpeg","bigImageFilename":"e045c4971b48b8911f61adaeb36c46eb.jpeg","tags":["好身材"]},{"title":"是河马吗","id":14863,"date":"2017/9/14 20:52:00","imageFilename":"c2237202d2f25e61759e722893332bef.jpeg","bigImageFilename":"27bdb475b0f3b6dc4c4f07fbc36c4e1a.jpeg","tags":["好身材"]},{"title":"有点热","id":14859,"date":"2017/9/14 20:52:00","imageFilename":"3fceffa79859fa33d3bd2a69fe23acfa.jpeg","bigImageFilename":"6df86839807ce1939ec31f045f585115.jpeg","tags":["大","好身材"]},{"title":"阳光正好","id":14843,"date":"2017/9/14 20:55:00","imageFilename":"8456377030b130e430c9423d1f9a1090.jpeg","bigImageFilename":"a51921b70e14c444a6888d0a644e8737.jpeg","tags":["大"]},{"title":"什么品牌的衣服","id":14833,"date":"2017/9/14 20:56:00","imageFilename":"e9cc297fd4ca1672ee5c82f8624138c8.jpeg","bigImageFilename":"b37897993ab9726f13e07c29218ca697.jpeg","tags":["好身材"]},{"title":"下课吃饭","id":14789,"date":"2017/9/14 20:59:00","imageFilename":"fba01e94e5252d4a9b8835c4a2082961.jpeg","bigImageFilename":"a6c5502541afc507cf6137fec1f522e3.jpeg","tags":["大"]},{"title":"衣服得捋捋","id":14779,"date":"2017/9/14 21:00:00","imageFilename":"1591fcdac8c29eb13e760b83c07700ad.jpeg","bigImageFilename":"0a85610fa918193304f7dda622604cfa.jpeg","tags":["好身材"]},{"title":"晚自习","id":14767,"date":"2017/9/14 21:03:00","imageFilename":"89912431e9c6a7e768924ac53c40eadd.jpeg","bigImageFilename":"1626e130b7817aa4293018c1ed40b958.jpeg","tags":["大"]},{"title":"寝室有点挤","id":14769,"date":"2017/9/14 21:03:00","imageFilename":"f5159ff667544da062c42c0e69023abc.jpeg","bigImageFilename":"100df335c49b85c3c6cc11611d935264.jpeg","tags":["好身材","贵在真实"]},{"title":"太平洋AV","id":14685,"date":"2017/9/18 20:28:00","imageFilename":"dc68f73843c44b8dd4513e0e702c64a7.jpeg","bigImageFilename":"fd5802ebce643a997a7d49775c01350e.jpeg","tags":["在路上"]},{"title":"什么饰品","id":14693,"date":"2017/9/17 20:32:00","imageFilename":"c02ed541accc1f7169192e05314a0aa4.jpeg","bigImageFilename":"f2b351d50453b75ab3c8b379873f0dbe.jpeg","tags":["游客投稿"]},{"title":"再开一颗","id":14677,"date":"2017/9/18 20:29:00","imageFilename":"6c752706c2d106463cd25f126c02cfc2.jpeg","bigImageFilename":"b4aa4c8e5b7c99f47679b6b997f51555.jpeg","tags":[]},{"title":"镜框","id":14657,"date":"2017/9/18 20:30:00","imageFilename":"f2ca262fc3d8a30a237c6331ddada3db.jpeg","bigImageFilename":"9ca4190b8ce9037cde5c11e07d5b5c97.jpeg","tags":["美腿"]},{"title":"Girls can do anything!","id":14641,"date":"2017/9/18 20:32:00","imageFilename":"283f64cdda18e971540c9cfec2999ec1.jpeg","bigImageFilename":"d80ed8fe727b99ffc74a32982972a529.jpeg","tags":["大"]},{"title":"哪里的试衣间","id":14617,"date":"2017/9/18 20:34:00","imageFilename":"c21c965f69a63be502d4b45c0df2f605.jpeg","bigImageFilename":"850245ad275f7542e4186d98592b5813.jpeg","tags":["美腿"]},{"title":"裤子破了","id":14627,"date":"2017/9/18 20:33:00","imageFilename":"ff86c6b470a1076f279de43c43c1cede.jpeg","bigImageFilename":"6a573b26c9ab32becbcc7d5dda664321.jpeg","tags":["好身材"]},{"title":"指甲做的不错","id":14579,"date":"2017/9/18 20:38:00","imageFilename":"67a4b02621f5bea4207d6d0604bd1e16.jpeg","bigImageFilename":"a998752dcdaa85063504ade87defa617.jpeg","tags":["大"]},{"title":"累了请坐下","id":14609,"date":"2017/9/18 20:36:00","imageFilename":"07c808e921d4b7ec24eaf2f0e720a85c.jpeg","bigImageFilename":"bce6f40059ddeb4ca85ef989484d94f7.jpeg","tags":["好身材","美腿"]},{"title":"什么瓶子","id":14571,"date":"2017/9/25 20:49:00","imageFilename":"5b93112613676afdecb31ffcef95ddd3.jpeg","bigImageFilename":"db55799a788c0915b65ab900cb627d11.jpeg","tags":["大"]},{"title":"再高点","id":14567,"date":"2017/9/25 20:50:00","imageFilename":"632740d45a8806611a8cbf2ccfc6953b.jpeg","bigImageFilename":"16fd3d6e82df5577a086bf6bc7070d3e.jpeg","tags":["美腿"]},{"title":"准备出门","id":14325,"date":"2017/9/28 20:53:00","imageFilename":"8bc22b07d1f1f4e7791d65a2355ee387.jpeg","bigImageFilename":"bbac6ad851244c80b39ace7b87c86742.jpeg","tags":["好身材"]},{"title":"等车","id":14561,"date":"2017/9/25 20:50:00","imageFilename":"961fbe970a9e988bc79694bfae2b363b.jpeg","bigImageFilename":"4ff73f699dd26e6f7ecade425509d033.jpeg","tags":["在路上","好身材","美腿"]},{"title":"这件好看不","id":14335,"date":"2017/9/27 21:19:00","imageFilename":"9bed78153aa538b8af8cb7502576898f.jpeg","bigImageFilename":"e448d5635d226c0af398c29da8a5acf6.jpeg","tags":["好身材"]}],"allTags":["美腿","贵在真实","在路上","好身材","大","美","游客投稿","风景","趣图","欧美","害羞"]}