{"totalPage":66,"total":2356,"page":20,"pageSize":36,"list":[{"title":"可别碰到我的鸡蛋","id":18073,"date":"2019/3/21 02:36:00","imageFilename":"540c98a149cd3fec4c9872420514e2ab.jpeg","bigImageFilename":"188926305abcf6e842ee4b317503a30d.jpeg","tags":["在路上","贵在真实"]},{"title":"什么画","id":18071,"date":"2019/3/20 04:56:00","imageFilename":"b03346de36444a082c6760c105488846.jpeg","bigImageFilename":"0b0e9ec739df31ee6e9bf103cac1b88a.jpeg","tags":["大","好身材"]},{"title":"几号线","id":18072,"date":"2019/3/20 08:12:00","imageFilename":"c618aecb17d924b5b56fbb0ae066ff25.jpeg","bigImageFilename":"dd9024986816f9ebd200d6d4e9a5090e.jpeg","tags":["在路上","贵在真实"]},{"title":"什么手机","id":18070,"date":"2019/3/20 02:00:00","imageFilename":"72609e77a429f70d7a8686b6e4e8d5a1.jpeg","bigImageFilename":"7c8389e447ccb2d7c90287761362d404.jpeg","tags":["好身材"]},{"title":"有点雾霾","id":18069,"date":"2019/3/18 10:28:00","imageFilename":"7ebe1d16cc69f35ea39ed6f7ea968905.jpeg","bigImageFilename":"e3ec2a0a4754dbccc092ec73798fc295.jpeg","tags":["好身材","美腿"]},{"title":"喝的有点多","id":18067,"date":"2019/3/18 03:28:00","imageFilename":"f86c8422cca5508e5d7e2ec24aefa0be.jpeg","bigImageFilename":"ee386a0317e0851749d8b3f5a027a5d3.jpeg","tags":["大","好身材","美腿","贵在真实"]},{"title":"海边","id":18068,"date":"2019/3/18 03:43:00","imageFilename":"fbc7059f039cfcabb042367d55a12a0e.jpeg","bigImageFilename":"6bc25521357b7b730d6657801e69b19b.jpeg","tags":["好身材","美腿"]},{"title":"有什么不开心的","id":18066,"date":"2019/3/15 11:07:00","imageFilename":"0dcf6332871c88e07048a616696bdc89.jpeg","bigImageFilename":"a522065ccea13b19562dfca034d7ebe4.jpeg","tags":["好身材","美腿"]},{"title":"小汽车","id":18065,"date":"2019/3/15 11:04:00","imageFilename":"b3795c795409179d00599a0d3f372251.jpeg","bigImageFilename":"6d7a9c330fcdb10a38ce35885614f302.jpeg","tags":["好身材","美","美腿"]},{"title":"美少女爱运动爱读书","id":18082,"date":"2019/3/24 13:07:00","imageFilename":"d9de929361ae7db3c16d48d67db48899.jpeg","bigImageFilename":"8e7dab15b393a7bc98e040b5c0e1be04.jpeg","tags":["好身材","美腿"]},{"title":"应该扶住扶手啊","id":18081,"date":"2019/3/24 13:06:00","imageFilename":"9719db2b6f859a9d9fa8cafc72f12fa9.jpeg","bigImageFilename":"5277ab715d77e2f911681125fc748873.jpeg","tags":["在路上","好身材","美腿"]},{"title":"窗帘不错","id":18080,"date":"2019/3/22 12:42:00","imageFilename":"eeb572ce23cb9704be70367bcec97c1f.jpeg","bigImageFilename":"3703e96fff6551ee7f1e7f12c7647f4b.jpeg","tags":["大","好身材"]},{"title":"练的有成绩吧","id":18079,"date":"2019/3/22 12:42:00","imageFilename":"ea350069237a99752aa5d5823856d134.jpeg","bigImageFilename":"70cd6e7d406fcb5565a89b3d0e0e188a.jpeg","tags":["大","好身材"]},{"title":"月","id":18077,"date":"2019/3/22 10:13:00","imageFilename":"3e93b3f49413d30ca7f20b608a219e8c.jpeg","bigImageFilename":"cf5de8d60ed1ca68ea8b9c59a51dcdf1.jpeg","tags":["好身材","风景"]},{"title":"海边晚餐","id":18078,"date":"2019/3/22 10:52:00","imageFilename":"a3ab2afe29ab5fdaff52a5e813588f07.jpeg","bigImageFilename":"c58498e5eaef847600ae9c84fdbe1f58.jpeg","tags":["大"]},{"title":"提提袜子","id":18076,"date":"2019/3/21 12:12:00","imageFilename":"f7177bf0ea0621fb79f3597a26da71b7.jpeg","bigImageFilename":"44d7e9d981544b3d7660a1f6a3203755.jpeg","tags":["美腿"]},{"title":"阳光烂漫","id":18075,"date":"2019/3/21 11:02:00","imageFilename":"bf9659efb5885875ca5d9247943ea93a.jpeg","bigImageFilename":"51d693d32bff46d8644bbeb8edec9008.jpeg","tags":["大"]},{"title":"什么标志","id":18074,"date":"2019/3/21 10:42:00","imageFilename":"9e4c05cb200fba8837144dba06b58743.jpeg","bigImageFilename":"051915af744ea7a46b4565aa4ccf08ae.jpeg","tags":["好身材"]},{"title":"什么化妆品","id":18064,"date":"2019/3/15 07:44:00","imageFilename":"eed168d5d6672769023fab985f44dffe.jpeg","bigImageFilename":"137dcad1729ce08f9cf06b0c05a9b12e.jpeg","tags":["好身材"]},{"title":"鲜花盛开","id":18063,"date":"2019/3/15 04:56:00","imageFilename":"514b42c4b581594ea13a1a4f7b11297d.jpeg","bigImageFilename":"6963d945852e1fbfafa813a34c0ce2e2.jpeg","tags":["美腿"]},{"title":"朴素一餐","id":18062,"date":"2019/3/14 12:56:00","imageFilename":"6e8cb926f7ec52d42a1810d598a8f013.jpeg","bigImageFilename":"226b78e3bfc758e82f88f929236e3bbe.jpeg","tags":["大"]},{"title":"什么相机","id":18060,"date":"2019/3/14 07:04:00","imageFilename":"cb42da998307174b02d91f16dd576773.jpeg","bigImageFilename":"7344d66dbd3c505efd222f1487ba7f27.jpeg","tags":["好身材","美腿"]},{"title":"想吃点什么","id":18061,"date":"2019/3/14 12:55:00","imageFilename":"a9fbae37608e4bf2b880b2da58b48e94.jpeg","bigImageFilename":"6051338db17615ed5425993dc99a1f16.jpeg","tags":["大"]},{"title":"海边晨曦","id":18058,"date":"2019/3/12 04:50:00","imageFilename":"4458800c5ad4a7754360ad65099eeb05.jpeg","bigImageFilename":"c74a49e26b2beb70d996a3703c3cdd6f.jpeg","tags":["大"]},{"title":"什么车","id":18059,"date":"2019/3/12 11:16:00","imageFilename":"456f2f62c2afb19c2e19745dee979d48.jpeg","bigImageFilename":"feb211b6c7999aaa0d838e2f7063df91.jpeg","tags":["大","好身材"]},{"title":"什么相机","id":18057,"date":"2019/3/12 04:50:00","imageFilename":"8a8bfae2bad839ce2fbd4581c4f62822.jpeg","bigImageFilename":"f55bc6f89d3f7f884380ccdb88b8d4f5.jpeg","tags":["好身材","美腿"]},{"title":"表妹","id":18056,"date":"2019/3/11 10:48:00","imageFilename":"00dfe785dbccc03e022e9503038cba6c.jpeg","bigImageFilename":"5025e687322060cb30d12ed84aa8eaa3.jpeg","tags":["在路上","大","美腿"]},{"title":"困了","id":18055,"date":"2019/3/11 10:47:00","imageFilename":"583459d4bbb59f80e830c25a05dfab75.jpeg","bigImageFilename":"3c9874ab0eeb368ffce6e4bdfb2c6df5.jpeg","tags":["在路上","好身材","美腿"]},{"title":"你好呀","id":18054,"date":"2019/3/11 10:47:00","imageFilename":"b32b571894f0d22f34333a6ee417243b.jpeg","bigImageFilename":"8c39559bd4913d6d850a818d4c89b77c.jpeg","tags":["好身材","美腿"]},{"title":"能进球吗","id":18053,"date":"2019/3/8 10:53:00","imageFilename":"87fcee8b1e7c82185b00b39874878e26.jpeg","bigImageFilename":"d4c1ccc7dd880b03dbdc217ab99839ff.jpeg","tags":["好身材","美腿","贵在真实"]},{"title":"准备换衣服","id":18052,"date":"2019/3/8 10:52:00","imageFilename":"1f1ab65b941b1a2d15ef707c0b3cb55b.jpeg","bigImageFilename":"05726bbe928a7684728e4036960db210.jpeg","tags":["大","好身材","美腿"]},{"title":"下一个动作","id":18051,"date":"2019/3/8 09:32:00","imageFilename":"9274445f1e45324b9499f8b044981ada.jpeg","bigImageFilename":"8ca54ba9dd816737b242566eb0025412.jpeg","tags":["好身材"]},{"title":"拿的什么","id":18050,"date":"2019/3/8 09:31:00","imageFilename":"16876011afb2835db4e238aaee783f7b.jpeg","bigImageFilename":"c5c8cc98d01156226836584956e657a0.jpeg","tags":["好身材","美腿"]},{"title":"Queen size","id":18049,"date":"2019/3/8 09:31:00","imageFilename":"f6dc8f67437030514d183b8cab383b38.jpeg","bigImageFilename":"5673407a086f2cd885a9118943d08321.jpeg","tags":["好身材","美腿"]},{"title":"新买的内衣","id":18047,"date":"2019/3/8 07:22:00","imageFilename":"55a225194a2162eae824c294d14a1e9d.jpeg","bigImageFilename":"a79f02047ed9fca805eccf7355c24d39.jpeg","tags":["好身材"]},{"title":"你选哪一个","id":18046,"date":"2019/3/8 06:12:00","imageFilename":"dfa59453277cc176ef9e1d06d9382832.jpeg","bigImageFilename":"6a34398991c9879f6fb726e6bf5d9bee.jpeg","tags":["好身材","美腿"]}],"allTags":["美腿","贵在真实","在路上","好身材","大","美","游客投稿","风景","趣图","欧美","害羞"]}