{"totalPage":66,"total":2356,"page":38,"pageSize":36,"list":[{"title":"促进血液循环","id":16146,"date":"2018/5/22 13:07:00","imageFilename":"e6478d360c1e2ecdc5d727b895810ed7.jpeg","bigImageFilename":"7ba9e24e94e3af7b557cb93fb3f9d502.jpeg","tags":["美腿"]},{"title":"小星星","id":15744,"date":"2018/2/28 13:30:00","imageFilename":"b35dac66e5b0f476d5d338a761607cfe.jpeg","bigImageFilename":"64fc16f21b2eb7387ca1cf10deb24df3.jpeg","tags":["美腿"]},{"title":"困","id":15737,"date":"2018/2/24 17:34:00","imageFilename":"57598c8116adb64160bc3360cff53cda.jpeg","bigImageFilename":"b46ce25c3ee14607ed5ffa7b96d0f1b3.jpeg","tags":["大"]},{"title":"去运动","id":15659,"date":"2018/2/22 18:00:00","imageFilename":"1a34769e83edf040cb0509f64de2532c.jpeg","bigImageFilename":"1c74465a96541d0d5906136b58d434cc.jpeg","tags":["在路上","好身材","美腿"]},{"title":"开始上班了","id":15740,"date":"2018/2/26 11:08:00","imageFilename":"4d6553911e33f7bdb0895f8a3fa6badc.jpeg","bigImageFilename":"fd92d7269db16479bf6010a054848ea9.jpeg","tags":["美腿"]},{"title":"看什么那","id":15733,"date":"2018/2/23 11:36:00","imageFilename":"69240a45d756afae3479c6bebc5d1e55.jpeg","bigImageFilename":"ba78b0741658f8dcb7e17023af2c1a5b.jpeg","tags":["好身材"]},{"title":"喝喝茶看看报","id":15586,"date":"2018/2/22 18:41:00","imageFilename":"131fbd7ab770ce7c45bf8dfa4e9ad483.jpeg","bigImageFilename":"06739d48df4b9ffd97b25a66a232191d.jpeg","tags":["美腿"]},{"title":"星空","id":15553,"date":"2018/3/1 10:18:00","imageFilename":"7b96faaaa0006ded549e5a694bfd2777.jpeg","bigImageFilename":"fbf196d2de65d9f4935f415b1a724b37.jpeg","tags":["好身材"]},{"title":"沙发不错","id":15570,"date":"2018/2/22 13:55:00","imageFilename":"bb4661e9ea28bbe74eb4ef52e072a065.jpeg","bigImageFilename":"5f5e17ebf3708ce298df1f56c30c8d25.jpeg","tags":["美腿"]},{"title":"什么背景墙","id":15427,"date":"2018/3/1 15:43:00","imageFilename":"2c93ff4b5fd001eb7467014dd1289c29.jpeg","bigImageFilename":"6da5f99d7a4dcffed43e5da49e058ef2.jpeg","tags":["美腿"]},{"title":"下一站去哪里","id":15407,"date":"2018/3/1 15:47:00","imageFilename":"97f4c94d37e55caa8c0b3897bdbc147b.jpeg","bigImageFilename":"f2b4bac2332437cd42308cb0ce4cdb9b.jpeg","tags":["在路上","美腿"]},{"title":"哪款手机","id":15379,"date":"2018/3/1 15:48:00","imageFilename":"ad2df184eaed549b3c1410280759daa9.jpeg","bigImageFilename":"a628b98e57ae30d197072505709beea0.jpeg","tags":["大"]},{"title":"啥手机","id":15377,"date":"2018/3/1 15:48:00","imageFilename":"284512d4226b0a846aed54c8195b73fc.jpeg","bigImageFilename":"cd200d5200dcc075da3cd08234fc043f.jpeg","tags":["好身材"]},{"title":"圣诞快乐","id":15334,"date":"2018/1/25 17:27:00","imageFilename":"2e1f6632237efd96f8caa267d4dbbdef.jpeg","bigImageFilename":"1debc86e9ae33dbf50c0b84f3d0efb1a.jpeg","tags":["好身材"]},{"title":"酒店的床很软","id":15343,"date":"2018/2/2 16:10:00","imageFilename":"0f8f31123cfad710f6309f8aa66e50ce.jpeg","bigImageFilename":"126a9003eaee7b4e4241fb2c0aea7cae.jpeg","tags":["好身材"]},{"title":"手机拿反了","id":15339,"date":"2018/2/2 16:08:00","imageFilename":"28076a53325a90f13329a69188ab0ed0.jpeg","bigImageFilename":"b04491adabc02ff4ef13441f4a290614.jpeg","tags":["好身材","美腿"]},{"title":"吃点什么","id":15329,"date":"2018/1/11 19:51:00","imageFilename":"655c1f9a24ecdde5d2d0689fb7c60f7c.jpeg","bigImageFilename":"8cae54080e252fb7a02d8c7ee720c3c3.jpeg","tags":["好身材"]},{"title":"开车啦","id":15363,"date":"2018/3/1 15:49:00","imageFilename":"d94098b6f7ac80a6b4b2447ce1110a40.jpeg","bigImageFilename":"1f8ac54543b798ba5684e2c0b845f5bb.jpeg","tags":["美腿"]},{"title":"信号塔","id":15323,"date":"2018/1/9 13:18:00","imageFilename":"80347a54a8d9255cc918c3cbc69e2f50.jpeg","bigImageFilename":"53046d169ad024b444fbeb1d35b9cade.jpeg","tags":["好身材"]},{"title":"什么牌子","id":15316,"date":"2018/1/9 13:15:00","imageFilename":"91be426dee321074847fe78296361ab5.jpeg","bigImageFilename":"9213fc531763b739ef072e1a8871cc5a.jpeg","tags":["美腿"]},{"title":"保持住","id":15312,"date":"2018/1/9 10:23:00","imageFilename":"1c6dfd9e58021abb309da8abea1ebf6d.jpeg","bigImageFilename":"78a1ae0970a8aa625253842d98475ad6.jpeg","tags":["好身材"]},{"title":"去喝杯咖啡吧","id":15320,"date":"2018/1/9 13:17:00","imageFilename":"8e5c422b7ed5f583f3d0b02b14ad5163.jpeg","bigImageFilename":"d22c2bab89da4d399bbc71c62ed5d722.jpeg","tags":["好身材","美腿"]},{"title":"中午好","id":15306,"date":"2018/1/8 13:57:00","imageFilename":"fa7a39947758780adeaf20dd15b1bc31.jpeg","bigImageFilename":"dd48ac56110e18daedd07ed50483981e.jpeg","tags":["大"]},{"title":"韩语写的什么？","id":15302,"date":"2018/1/8 13:06:00","imageFilename":"dec9bf9ca7416c7feb560fced8fcb669.jpeg","bigImageFilename":"1a485e78726b1da13fbe922023e9a12a.jpeg","tags":["好身材"]},{"title":"自拍一张","id":15294,"date":"2018/1/3 13:36:00","imageFilename":"649d9ee15c8efd0c19bef611f0af6cc6.jpeg","bigImageFilename":"a9f05f68982e31bc477de3e2b778052f.jpeg","tags":["大"]},{"title":"今晚睡这","id":15285,"date":"2018/1/2 13:20:00","imageFilename":"587d230da038c8e3aea349666b5f63b7.jpeg","bigImageFilename":"101084e3d905c59ee4342af47fc28fae.jpeg","tags":["好身材"]},{"title":"好疼","id":15276,"date":"2017/12/26 14:45:00","imageFilename":"dbf7f1546fb7e3f0c3a11ee8cbb277d3.jpeg","bigImageFilename":"6c2bf1de32543b517196c49fe3e0e1b8.jpeg","tags":["好身材"]},{"title":"明天周末不上班","id":15265,"date":"2017/12/22 11:04:00","imageFilename":"692e05ad16aeae02f60c4f2758eff904.jpeg","bigImageFilename":"7f5859a207d9cdab6bb325be50c5cf32.jpeg","tags":["大"]},{"title":"天冷了","id":15270,"date":"2017/12/26 14:38:00","imageFilename":"33a703617b57591c030a1f3d6e39ab5a.jpeg","bigImageFilename":"50e7084eecdb20998a7a1f45caa37512.jpeg","tags":["美腿"]},{"title":"南方的冬天","id":15280,"date":"2017/12/27 10:23:00","imageFilename":"2fb3537ccc735a3ae462d0c7fcb091a8.jpeg","bigImageFilename":"02eec8bfcd95293be1f25bd47a53f513.jpeg","tags":["美腿"]},{"title":"夜","id":15257,"date":"2017/12/15 16:14:00","imageFilename":"e757f961d2ea3dbf9614c47028f94315.jpeg","bigImageFilename":"f5983423b1fe35ac7b5c8f7475c65b05.jpeg","tags":["好身材","美腿"]},{"title":"喝的啥","id":15252,"date":"2017/12/11 13:25:00","imageFilename":"539ad8aeecafb2c4116b69b20a4db19a.jpeg","bigImageFilename":"0e8574f797f44f7467fae2fd3214eaa3.jpeg","tags":["大","好身材","美腿"]},{"title":"Okay","id":15248,"date":"2017/12/11 13:05:00","imageFilename":"edf7112d78f763c1afac242a74dfc1b3.jpeg","bigImageFilename":"470d94f6a5790faa6b93ace51f2fbb6f.jpeg","tags":["美腿"]},{"title":"准备冲个澡","id":15236,"date":"2017/12/8 20:42:00","imageFilename":"f8a7ea211e32f36017a70f947c16baac.jpeg","bigImageFilename":"057247b7f2d47f011d6d00e2de58a0eb.jpeg","tags":["大"]},{"title":"沙发很舒服","id":15214,"date":"2017/12/4 21:32:00","imageFilename":"9e5be3d6bd30e983a6e079b973fa0fd4.jpeg","bigImageFilename":"97d0ed6f5256b88ac482b64e1f288681.jpeg","tags":["美腿"]},{"title":"下雪了","id":15222,"date":"2017/12/8 20:37:00","imageFilename":"7b7d829ebc1373e69d787713bb039494.jpeg","bigImageFilename":"f623aba6eedebbf81a663b3f7e9e8a8b.jpeg","tags":["好身材","美腿"]}],"allTags":["美腿","贵在真实","在路上","好身材","大","美","游客投稿","风景","趣图","欧美","害羞"]}