{"totalPage":66,"total":2356,"page":10,"pageSize":36,"list":[{"title":"戴上口罩","id":18432,"date":"2020/3/2 05:36:00","imageFilename":"69136d0f952dd9972b976065f9071568.jpeg","bigImageFilename":"5eab509cade2bf9dab6a53eb2a761a13.jpeg","tags":["大","贵在真实","趣图"]},{"title":"买点日用品","id":18431,"date":"2020/3/2 05:01:00","imageFilename":"4b7846c84b91347ca2a512153511aff0.jpeg","bigImageFilename":"e06823714e5afa5dacfc808a68864268.jpeg","tags":["好身材","美腿"]},{"title":"going down","id":18430,"date":"2020/3/2 05:00:00","imageFilename":"88cfd125a318653f5fb3efbc8bf87339.jpeg","bigImageFilename":"f5f600f410c3ec02192a4cbe8860c361.jpeg","tags":["在路上","好身材","美腿"]},{"title":"来杯星巴克","id":18429,"date":"2020/3/1 04:00:00","imageFilename":"4310e430a0b4bc6b904df1975c6ae3ec.jpeg","bigImageFilename":"2af1eeeefd4963ac58f3af8269c63373.jpeg","tags":["在路上"]},{"title":"背影","id":18428,"date":"2020/2/27 09:10:00","imageFilename":"1bd2649b0da1d3373075da370d4c88af.jpeg","bigImageFilename":"097703092d5ff7b70cf01663626f81a1.jpeg","tags":["在路上","好身材","美腿"]},{"title":"这是哪里","id":18433,"date":"2020/3/3 05:57:00","imageFilename":"8e2d958d72f0de448188fc37f6401195.jpeg","bigImageFilename":"7e34a96f19b7e84f22be90463ed6d229.jpeg","tags":["美腿"]},{"title":"和谁聊呢","id":18427,"date":"2020/2/27 09:09:00","imageFilename":"ea08b0ffc21dfa7ecc6f2be811173fcb.jpeg","bigImageFilename":"560339b41a0040cec28adfec1fca1348.jpeg","tags":["在路上","好身材","美腿"]},{"title":"可以出去吗","id":18425,"date":"2020/2/22 06:57:00","imageFilename":"d135ecbd2b1fe67429307b54aafffee2.jpeg","bigImageFilename":"5539ea8087d717fd84b550fd516fec18.jpeg","tags":["好身材","美腿"]},{"title":"你选哪一个","id":18426,"date":"2020/2/22 09:22:00","imageFilename":"89f23db45a7a4159c236aa07dff088f2.jpeg","bigImageFilename":"2e50269d3c40c4f8420b615253b7011c.jpeg","tags":["美腿"]},{"title":"点什么","id":18424,"date":"2020/2/22 06:56:00","imageFilename":"1659d64f831779f6ac5c72dc452a47c9.jpeg","bigImageFilename":"57ebe3627d1cff267d5edfac91be9968.jpeg","tags":["美腿"]},{"title":"生日快乐","id":18423,"date":"2020/2/17 04:59:00","imageFilename":"302270cb2624cd89a964ad2deb50a14b.jpeg","bigImageFilename":"f20858603ca6e53cf2e052dac3430416.jpeg","tags":["大"]},{"title":"出去放放风","id":18422,"date":"2020/2/14 06:04:00","imageFilename":"2f40d1ce24bf25dac9dd76443d53dc54.jpeg","bigImageFilename":"8660f092eb52d94419039aa2033b4d43.jpeg","tags":["美腿"]},{"title":"今天开始上班","id":18421,"date":"2020/2/10 05:19:00","imageFilename":"189cd46fc6871b318067af33805c2d3d.jpeg","bigImageFilename":"9c4cbcb816134f548e69adccb1b9b802.jpeg","tags":["美腿","贵在真实"]},{"title":"我好了","id":18420,"date":"2020/2/6 12:40:00","imageFilename":"b950eb1ae81f9e175fe393d4f1c6d767.jpeg","bigImageFilename":"d8384debfddb6ce92c3144ff26675fbb.jpeg","tags":["大","好身材"]},{"title":"找什么那","id":18419,"date":"2020/2/6 08:28:00","imageFilename":"5d7735fd5f38b510924b36c25f7138a2.jpeg","bigImageFilename":"924ccc4d3bf1e370deff224db8931716.jpeg","tags":["大","好身材"]},{"title":"云","id":18418,"date":"2020/2/4 05:45:00","imageFilename":"46ec5471ed596df935a8cb52e61f0c91.jpeg","bigImageFilename":"709b3339e3313302fffd6fad66408f52.jpeg","tags":["大","好身材","美腿"]},{"title":"碧海蓝天","id":18416,"date":"2020/2/4 05:42:00","imageFilename":"325b93d2d0deaea3fc8045c0d2aa3ea7.jpeg","bigImageFilename":"c41a4f5b5c0509dd882b444553368596.jpeg","tags":["好身材","美腿"]},{"title":"吃点水果","id":18442,"date":"2020/3/4 10:19:00","imageFilename":"6fccaf9c629d59596c3a681ebdf85ecf.jpeg","bigImageFilename":"bdc230632298f87916251c61f39cc958.jpeg","tags":["美腿"]},{"title":"歇歇脚","id":18417,"date":"2020/2/4 05:43:00","imageFilename":"1c64b22ba5258bfc199a0a17b9d5cc97.jpeg","bigImageFilename":"e4069d3dcedf12f2d7ae7fab4967836e.jpeg","tags":["美腿","贵在真实"]},{"title":"公园小憩","id":18441,"date":"2020/3/4 10:17:00","imageFilename":"66c997aac4dd05a2a8239d375df44c54.jpeg","bigImageFilename":"e420568de70d1044300a358e59545d1c.jpeg","tags":["美腿"]},{"title":"惬意","id":18439,"date":"2020/3/4 10:11:00","imageFilename":"cf5f67fc22e843ced9dcaf76ccf99203.jpeg","bigImageFilename":"efab351b77477cae6aea4c6c251b0b1a.jpeg","tags":["美腿"]},{"title":"鞋子好看不","id":18438,"date":"2020/3/4 10:09:00","imageFilename":"fc7a17219041efc8de28dc821c0e4b3f.jpeg","bigImageFilename":"60dc85ce307e766be04afeef820d5325.jpeg","tags":["美腿"]},{"title":"柔软的沙发","id":18437,"date":"2020/3/4 10:07:00","imageFilename":"f07701eb06563c4e628d2d06aeeb3318.jpeg","bigImageFilename":"cec9ec0c130eded236ebe1fda05406d6.jpeg","tags":["美腿"]},{"title":"又出差","id":18440,"date":"2020/3/4 10:15:00","imageFilename":"70c9129c900887556cb7bf5ae6a7e113.jpeg","bigImageFilename":"25a95d2a63ffa1ed86fa11a155093536.jpeg","tags":["美腿"]},{"title":"你选哪一个","id":18436,"date":"2020/3/4 10:06:00","imageFilename":"c37b54627d2b34935e087dcd978de1aa.jpeg","bigImageFilename":"eefb0fdaa54869aa6515b18a1d5ba8e2.jpeg","tags":["美腿"]},{"title":"人生苦短","id":18435,"date":"2020/3/4 06:50:00","imageFilename":"1b30f2671ed2f7e75f96f26298acd468.jpeg","bigImageFilename":"69b966a1b0a3782511194a20064667d7.jpeg","tags":["好身材","趣图"]},{"title":"提高免疫力","id":18434,"date":"2020/3/3 08:17:00","imageFilename":"127f258d311f12f2958395364c39562c.jpeg","bigImageFilename":"ecce19e0132495baf5cdd985b2f35131.jpeg","tags":["好身材","美","美腿","贵在真实"]},{"title":"哼","id":18406,"date":"2020/2/3 02:19:00","imageFilename":"6352d384b78d36f38fa0caa17cfc3556.jpeg","bigImageFilename":"1ba15a376859fff8788424344e6442d0.jpeg","tags":["大"]},{"title":"什么鞋子","id":18405,"date":"2020/2/2 15:25:00","imageFilename":"7f2aeeb07fba728743621193a87d044a.jpeg","bigImageFilename":"5136e32e076f971ea6ad08601b486222.jpeg","tags":["美腿"]},{"title":"新选手","id":18404,"date":"2020/2/2 14:54:00","imageFilename":"a0a24b68c8177743e4ce7fa871cea4be.jpeg","bigImageFilename":"a8ede9cac5b63482e9568ec26ce281a4.jpeg","tags":["Uncategorized"]},{"title":"扣子掉了一粒","id":18402,"date":"2020/1/24 05:35:00","imageFilename":"0a1f831aef53783f8e2946705b55bccf.jpeg","bigImageFilename":"abe88548618d33b0253c4ce944af07f8.jpeg","tags":["大","贵在真实"]},{"title":"新选手","id":18403,"date":"2020/2/2 14:54:00","imageFilename":"a0a24b68c8177743e4ce7fa871cea4be.jpeg","bigImageFilename":"a8ede9cac5b63482e9568ec26ce281a4.jpeg","tags":[]},{"title":"归心似箭","id":18399,"date":"2020/1/21 01:42:00","imageFilename":"e63c17f56a2211b816262ea903f07ddc.jpeg","bigImageFilename":"dcb8b06172f965418785f84875d51e45.jpeg","tags":["美腿","贵在真实"]},{"title":"我都醉了","id":18401,"date":"2020/1/21 09:22:00","imageFilename":"2921720015ce9a6d7481477a614d936f.jpeg","bigImageFilename":"1222a734386e4b1ed0886965b4d7aa76.jpeg","tags":["大","好身材","美腿","趣图"]},{"title":"一起不","id":18398,"date":"2020/1/19 08:15:00","imageFilename":"69e10c6a49c054512f2fcaed66002e4b.jpeg","bigImageFilename":"95f863f8f05214e9421dd6e5f9e31eb9.jpeg","tags":["大","好身材","美","美腿"]},{"title":"不想起床","id":18400,"date":"2020/1/21 01:43:00","imageFilename":"1c5baa5fd36180fe943ee5db57968e59.jpeg","bigImageFilename":"fad82ef1c2b570d5a59e2dc121fffa28.jpeg","tags":["大"]}]}