{"totalPage":66,"total":2356,"page":1,"pageSize":36,"list":[{"title":"冷冻水产","id":18802,"date":"2023/5/15 05:33:00","imageFilename":"7b86f3c37c87934e3d100c55679725d6.jpeg","bigImageFilename":"2d3473073d390ca4977dc394072f3521.jpeg","tags":["美腿"],"width":1080,"height":1396},{"title":"夏天来了","id":18800,"date":"2023/5/9 08:17:00","imageFilename":"c0b18b462a7029b76b03651adc787383.jpeg","bigImageFilename":"4995e8e1429b9cedd35613afe1a7254f.jpeg","tags":["大","美腿"],"width":1366,"height":2048},{"title":"什么门","id":18801,"date":"2023/5/15 05:29:00","imageFilename":"675f1b01c0bc53fd87154470f602fbcd.jpeg","bigImageFilename":"917f8c3e65ab6cb8255f13e8ec45e92d.jpeg","tags":["大"],"width":1128,"height":1504},{"title":"在讲什么","id":18799,"date":"2023/5/9 05:54:00","imageFilename":"8a50b3b4b270f53f1a23af4503bf96d4.jpeg","bigImageFilename":"c92091723ee73d5a2f9537ff675a9fa2.jpeg","tags":["大"],"width":1536,"height":1024},{"title":"会潜水吗","id":18798,"date":"2023/5/6 10:46:00","imageFilename":"74e719e29e68c2d2e81c49e995f81ab5.jpeg","bigImageFilename":"bcaf845bd60d65777d3c4dfb6c1d5fd3.jpeg","tags":["好身材"],"width":1920,"height":1440},{"title":"春色满园","id":18796,"date":"2023/4/10 09:50:00","imageFilename":"9ee2929d391f3cfa659567386052d6ee.jpeg","bigImageFilename":"aecfc73075865b8a70a77fcb78ee860c.jpeg","tags":["好身材"],"width":1024,"height":1365},{"title":"什么机器","id":18797,"date":"2023/5/6 10:39:00","imageFilename":"92ebbdcbe1970c8cc78b527d51db5ef9.jpeg","bigImageFilename":"f0361786e514b44462620e0d0b8faacf.jpeg","tags":["好身材","美腿"],"width":1536,"height":2048},{"title":"春天来了","id":18795,"date":"2023/4/4 05:09:00","imageFilename":"317b564e677d6956fc127c4244d6cb11.jpeg","bigImageFilename":"5e597ed12534ecaec4dc34c2a88bdbef.jpeg","tags":["在路上"],"width":1080,"height":1506},{"title":"春天的光","id":18794,"date":"2023/3/17 09:50:00","imageFilename":"2a4ee6e2f534cf25e063d9e6c82816de.jpeg","bigImageFilename":"c7715554e451e3060496e2d480dd4e47.jpeg","tags":["美腿"],"width":1536,"height":2048},{"title":"买的什么","id":18684,"date":"2022/3/21 15:20:00","imageFilename":"c6d1837bb186e1172c6bd2057d38b4cc.jpeg","bigImageFilename":"6dffa28645229f240e1d75f64d77bb45.jpeg","tags":["美腿"],"width":1143,"height":1715},{"title":"春风","id":18685,"date":"2022/3/28 08:40:00","imageFilename":"994a659295d340c9fc03a7bce462ba51.jpeg","bigImageFilename":"ecb66419cd66dfb90f1fa18989fe4192.jpeg","tags":["在路上","大","好身材"],"width":2151,"height":3442},{"title":"爱运动","id":18683,"date":"2022/3/19 03:26:00","imageFilename":"c66833f4d467bbdc3b42898c3c8332f6.jpeg","bigImageFilename":"6835e3e2563a8604980979faa145ed67.jpeg","tags":["好身材","美腿"],"width":1143,"height":1715},{"title":"去练瑜伽","id":18682,"date":"2022/3/18 18:17:00","imageFilename":"fa89e16aa17bd57c2e0fbfa92a2b21e8.jpeg","bigImageFilename":"dcfed129c88195af2fd311e578e1e8a4.jpeg","tags":["好身材"],"width":1266,"height":1950},{"title":"哈罗","id":18680,"date":"2022/3/18 18:01:00","imageFilename":"3144aedf7868a095ccc475ead0ed0550.jpeg","bigImageFilename":"600d3c77f8a8af75f61c38f1dcb200e6.jpeg","tags":["好身材"],"width":1080,"height":1440},{"title":"酒红睡衣","id":18681,"date":"2022/3/18 18:05:00","imageFilename":"d2308ebed496dcabac652f211e42afc7.jpeg","bigImageFilename":"3dd36df0dc5644ecd725810a49aad9e5.jpeg","tags":["美腿"],"width":1152,"height":2048},{"title":"大沙发","id":18678,"date":"2022/3/18 06:47:00","imageFilename":"bc93a9247b7536fe2a58902cf9274ad6.jpeg","bigImageFilename":"e286ca34f751d28fbeeb74a8e6f04d4d.jpeg","tags":["大","好身材"],"width":706,"height":1024},{"title":"腰带不错","id":18677,"date":"2022/3/18 05:59:00","imageFilename":"57bd60b620158be01825bce247316113.jpeg","bigImageFilename":"402b38897395b201cb9f16b1570cb12c.jpeg","tags":["在路上","大","好身材"],"width":682,"height":1024},{"title":"来杯咖啡","id":18679,"date":"2022/3/18 17:59:00","imageFilename":"76d69eebc1245a1e27a19ac39f1bcb92.jpeg","bigImageFilename":"d666469f54eca4e70aa32e048e905222.jpeg","tags":["好身材","美腿"],"width":1864,"height":3315},{"title":"什么瓜","id":18739,"date":"2022/9/11 19:46:00","imageFilename":"4ebb99547ed50b4374e02605365dbd44.jpeg","bigImageFilename":"ef872ab0118d40380a0ae86675403e64.jpeg","tags":["大"],"width":1080,"height":1350},{"title":"老树","id":18738,"date":"2022/9/11 19:12:00","imageFilename":"319eea50c8f488b586b9ee4a1b9eceea.jpeg","bigImageFilename":"0f3a3e672f317f60487675dff5ad1f39.jpeg","tags":["在路上","好身材"],"width":1536,"height":2048},{"title":"老师好","id":18737,"date":"2022/9/11 19:09:00","imageFilename":"b5ae9abae7477d723fe23d7afcd87c6e.jpeg","bigImageFilename":"2e8a660096d14f36027c50ff8ad466ca.jpeg","tags":["好身材","贵在真实"],"width":1150,"height":1388},{"title":"写字","id":18735,"date":"2022/8/30 05:36:00","imageFilename":"2283d40095172bed8fd6085e310d7a95.jpeg","bigImageFilename":"a830755a4c9af063027bf6a5709b1c28.jpeg","tags":["大"],"width":1440,"height":1889},{"title":"新裙子","id":18736,"date":"2022/9/2 10:08:00","imageFilename":"0bec073ba43e44761376a7de95cca576.jpeg","bigImageFilename":"d297b99ce43dd0d4c5d0fb9f25b223d0.jpeg","tags":["大"],"width":2048,"height":1372},{"title":"你选哪一个","id":18734,"date":"2022/8/27 13:42:00","imageFilename":"6a76699c7bf2173af14138a5dfda8b18.jpeg","bigImageFilename":"96aa483f01b5a6f7171679ed9a7592e6.jpeg","tags":["大","好身材"],"width":1080,"height":1440},{"title":"香不香","id":18733,"date":"2022/8/27 13:39:00","imageFilename":"e20bf0ba61d02460f8d18116c108ccf0.jpeg","bigImageFilename":"3ac480de5555493964f7ebe646e0ae72.jpeg","tags":["好身材"],"width":1440,"height":1836},{"title":"什么项目","id":18732,"date":"2022/8/27 13:28:00","imageFilename":"64ba7ae95a088665812ccd778c10686a.jpeg","bigImageFilename":"a150f47598aaa6c613c946a6eae89ee6.jpeg","tags":["大","好身材"],"width":1080,"height":810},{"title":"什么车","id":18731,"date":"2022/8/21 12:34:00","imageFilename":"2a824d2d94b9fed7d9a9977a7cf2cb89.jpeg","bigImageFilename":"d116bb0d5ec65b07c722bd3856766b52.jpeg","tags":["在路上","大"],"width":1440,"height":1080},{"title":"MDAY","id":18748,"date":"2022/10/25 13:50:00","imageFilename":"e877e0a53644b1b72db033a91d7a2f18.jpeg","bigImageFilename":"6f367fa1e4ecb0644d61e7841f438d26.jpeg","tags":["美腿"],"width":1080,"height":1440},{"title":"高铁","id":18746,"date":"2022/10/24 17:02:00","imageFilename":"1663bff2696fcdb545743130cbee52ec.jpeg","bigImageFilename":"0562bbc6d028237705ae869645f36631.jpeg","tags":["大","好身材","贵在真实"],"width":1080,"height":1080},{"title":"什么单词","id":18747,"date":"2022/10/25 13:44:00","imageFilename":"aeeba05a253cd17da4fcf86ec2162d40.jpeg","bigImageFilename":"c98125b19a3bb4effce224d611a7977f.jpeg","tags":["大"],"width":1080,"height":971},{"title":"CK","id":18745,"date":"2022/10/19 15:13:00","imageFilename":"63c1fc9894e274d1c4c88b918de76752.jpeg","bigImageFilename":"949cc4a7a8c1b57dd24ab1ee33013de9.jpeg","tags":["好身材"],"width":1536,"height":2048},{"title":"电梯偶遇","id":18744,"date":"2022/9/27 14:08:00","imageFilename":"cf1ad8539eaffee613412470341ff870.jpeg","bigImageFilename":"4fd57aba20f1308f24a7cedd3e6ae072.jpeg","tags":["大"],"width":1536,"height":2048},{"title":"买点零食","id":18743,"date":"2022/9/21 05:15:00","imageFilename":"7358aab5935b9412447979368986e0af.jpeg","bigImageFilename":"0941a7910fab3c2ce8265d5d1529edb6.jpeg","tags":["好身材"],"width":1080,"height":1423},{"title":"夕阳","id":18742,"date":"2022/9/19 05:54:00","imageFilename":"9df06ec31b6d7025923d93a47f62be44.jpeg","bigImageFilename":"c65907380dbbb869a1e14cc31be33538.jpeg","tags":["风景"],"width":1535,"height":2048},{"title":"什么地毯","id":18741,"date":"2022/9/15 06:11:00","imageFilename":"c7974eee4155e5c708477529058dc5c4.jpeg","bigImageFilename":"9cbc3fe572f09faa8cf4aecf11823469.jpeg","tags":["美腿"],"width":1080,"height":1439},{"title":"什么画","id":18740,"date":"2022/9/15 05:40:00","imageFilename":"f00688f37f51aa200c22babc03cf6a70.jpeg","bigImageFilename":"56a2288d54215cc6eab43750c75be0c2.jpeg","tags":["大"],"width":1280,"height":1707}],"allTags":["美腿","贵在真实","在路上","好身材","大","美","游客投稿","风景","趣图","欧美","害羞"]}