{"totalPage":66,"total":2356,"page":65,"pageSize":36,"list":[{"title":"请问这是什么车","id":116,"date":"2014/11/17 13:29:00","imageFilename":"11e9b682e3642a67dc074b7bf394e67a.jpeg","bigImageFilename":"3076b67b0e288251fdd4c67dc912fd82.jpeg","tags":["好身材","美腿"]},{"title":"期盼下一个夏天","id":118,"date":"2014/11/17 13:31:00","imageFilename":"427ccf2598938d2fb29f12ef069723d2.jpeg","bigImageFilename":"8cda28b1321b061d7da2d305f4990c40.jpeg","tags":["美腿"]},{"title":"这公司伙食不错","id":105,"date":"2014/8/7 14:03:00","imageFilename":"29760dd3dded248d1ec8ebda6fc011b6.jpeg","bigImageFilename":"30e5d51815689ebeab373bf0d51cb9bb.jpeg","tags":["趣图"]},{"title":"这背影是P出来的吧","id":101,"date":"2014/10/28 17:14:00","imageFilename":"e944f6eae81824f227e046a903515f18.jpeg","bigImageFilename":"37631f881d14b368983ac8abe9742e7c.jpeg","tags":["好身材","趣图"]},{"title":"衣服真的不能乱穿","id":106,"date":"2014/10/29 10:39:00","imageFilename":"fbe2bcdef915c610c9c4d2c58c6b862c.jpeg","bigImageFilename":"9c1d13e9c38a5926d6ac3e07c249a358.jpeg","tags":["趣图"]},{"title":"真直！","id":94,"date":"2014/10/23 13:35:00","imageFilename":"850c2b702d3910bf01c5e44c613debb0.jpeg","bigImageFilename":"6241d78fcb317ec0fdf9dc85aa417e02.jpeg","tags":["趣图"]},{"title":"角度好还是身材好","id":87,"date":"2014/10/22 14:05:00","imageFilename":"429d9a04746710ce4d4f850ee7acde65.jpeg","bigImageFilename":"e55c84bf149c826260ee648f303f086c.jpeg","tags":["好身材"]},{"title":"抓拍","id":67,"date":"2014/8/27 18:55:00","imageFilename":"7d84437f4a02ccfea1ffac40c80aae62.jpeg","bigImageFilename":"1fc9d0f688c7440b64cee651a6ab966a.jpeg","tags":["趣图"]},{"title":"坐怀不乱","id":71,"date":"2014/8/29 12:29:00","imageFilename":"06893dedb4d8a9b0b7e1d719c1a1f9d3.jpeg","bigImageFilename":"ea4d4275063627284467072d01efc4f1.jpeg","tags":["趣图"]},{"title":"放开那只熊，冲我来","id":49,"date":"2014/8/1 13:19:00","imageFilename":"0b8aa722638d3b40c3af869845b785ef.jpeg","bigImageFilename":"f59a911871ff4d35f06db317ea373ced.jpeg","tags":["趣图"]},{"title":"这是谁啊","id":63,"date":"2014/8/23 14:37:00","imageFilename":"288daeb49dbc988e1f0cf9cde87a3472.jpeg","bigImageFilename":"e1c376b0c1607ca32bd10afbb6221089.jpeg","tags":[]},{"title":"快放开那快门","id":45,"date":"2014/8/1 13:18:00","imageFilename":"94a8b4c2502f0caa7c4ce9123a968199.jpeg","bigImageFilename":"e70426c953c31bf7f8399f187f9ec22c.jpeg","tags":["趣图"]},{"title":"现在用联想手机的人挺多的","id":37,"date":"2014/7/24 12:53:00","imageFilename":"194e5b9295f20d67ddbc5373086c972c.jpeg","bigImageFilename":"bd674eb98667bd03e155497443440987.jpeg","tags":["趣图"]},{"title":"独自旅行的姑娘","id":41,"date":"2014/7/30 14:04:00","imageFilename":"9b7ef40821d32fa13f8bf8cf3a1be291.jpeg","bigImageFilename":"5484ebcb46eea24f60f3adaf3ef5eed3.jpeg","tags":["在路上"]},{"title":"【留澳槟城女大学生证实在MH17乘客名单中】 在澳洲著名的墨尔本大学求学的马来西亚槟城女生Elaine Teoh，已被证实在被击落客机的乘客名单中。","id":21,"date":"2014/7/18 12:24:00","imageFilename":"076657d438ea038b15ad511793526a69.jpeg","bigImageFilename":"0b79f2578fc7306c4096b223c83ad575.jpeg","tags":[]},{"title":"害羞了。。。","id":33,"date":"2014/7/23 14:14:00","imageFilename":"1b8baddf08311f7e8da97b7401495417.jpeg","bigImageFilename":"3a8ce4e20f6060b129b04ee4a0dec413.jpeg","tags":["害羞"]}],"allTags":["美腿","贵在真实","在路上","好身材","大","美","游客投稿","风景","趣图","欧美","害羞"]}