{"totalPage":66,"total":2356,"page":31,"pageSize":36,"list":[{"title":"挂的什么","id":17685,"date":"2018/12/5 10:33:00","imageFilename":"295cb1db82a302e855107525ffd83720.jpeg","bigImageFilename":"b61101f2122eb018cc7feacd696cfc87.jpeg","tags":["贵在真实"]},{"title":"高板凳","id":17684,"date":"2018/12/5 10:04:00","imageFilename":"297857d90042cee2ea84e0576c159573.jpeg","bigImageFilename":"b196b9f077b9b43df872b6d6d43c1ec3.jpeg","tags":["美腿"]},{"title":"有多重","id":17683,"date":"2018/12/5 02:54:00","imageFilename":"03a4e19fb62995bcaf059b2c3b9727c5.jpeg","bigImageFilename":"b8ded1ba890f5bbb36e27f4ce504fd0e.jpeg","tags":["好身材","美腿"]},{"title":"什么项目","id":17682,"date":"2018/12/5 02:48:00","imageFilename":"df4b92a96b7c6b72aaf9697bf27b8808.jpeg","bigImageFilename":"8feb45cf3f00e27154cd6e93df24c265.jpeg","tags":["好身材"]},{"title":"今晚加班","id":17670,"date":"2018/12/3 10:59:00","imageFilename":"c3f2e22188ff1b0522e547336e8df2a7.jpeg","bigImageFilename":"1f016cf8c0f982589e495f8e7fdaff67.jpeg","tags":["贵在真实"]},{"title":"闭目养神","id":17681,"date":"2018/12/4 06:24:00","imageFilename":"47fee946c02847b5289c5ebce2a5b211.jpeg","bigImageFilename":"8595fee2428b6583e0fc42426fc6cf41.jpeg","tags":["好身材"]},{"title":"晚","id":17665,"date":"2018/11/21 13:12:00","imageFilename":"e429be32fd6bd131a080ca7a1dfb700b.jpeg","bigImageFilename":"b3d0a4206312d88d3c38bc15de28ac3b.jpeg","tags":["好身材"]},{"title":"黑五加班","id":17669,"date":"2018/11/23 13:11:00","imageFilename":"da21fcaeb16bde5ccc5f8b2504df0c1d.jpeg","bigImageFilename":"655e748b71433eb26b48f0c715b2a43f.jpeg","tags":["大","好身材","贵在真实"]},{"title":"早","id":17663,"date":"2018/11/21 13:12:00","imageFilename":"2867eb3fa2d19ab442f54d68d6c18904.jpeg","bigImageFilename":"29bc89faae75285628c97e8cd1e5abf9.jpeg","tags":["大"]},{"title":"慢点下","id":17657,"date":"2018/11/17 17:03:00","imageFilename":"c5dbb796f241babd990680b2c8e0b9ac.jpeg","bigImageFilename":"5617b6011e4aea9f1616f34cd03f8a3f.jpeg","tags":["好身材","美腿"]},{"title":"瓶子里是什么","id":17660,"date":"2018/11/18 18:21:00","imageFilename":"78375b86b0b8b6b81a4807917d709c3e.jpeg","bigImageFilename":"da6ec2e608fe4ec9a253c60dcc48b007.jpeg","tags":["大"]},{"title":"慢点上","id":17654,"date":"2018/11/17 17:02:00","imageFilename":"8ec3da639261a02626c2edaf3e53dc82.jpeg","bigImageFilename":"a3c9e86164f6dc40a3a96bb818998a81.jpeg","tags":["好身材","美腿"]},{"title":"回眸","id":17651,"date":"2018/11/17 13:12:00","imageFilename":"3a8505c65a5e569ada2f5ff4dcf1df32.jpeg","bigImageFilename":"c1718d959181454f26e35799d2353b8f.jpeg","tags":["好身材"]},{"title":"准备去上班","id":17642,"date":"2018/11/15 10:34:00","imageFilename":"8b92f168a0bbee8de8069190b1bc569d.jpeg","bigImageFilename":"7647d0b6e5e4b4441ca0ae62c0a4d4dc.jpeg","tags":["好身材"]},{"title":"等待出发","id":17636,"date":"2018/11/14 15:32:00","imageFilename":"27cb56de2074d6e5a84085e15f64bf45.jpeg","bigImageFilename":"5f8d1cc2bb48d30da2b3ba2df2e999eb.jpeg","tags":["好身材"]},{"title":"好温馨的房间","id":17645,"date":"2018/11/15 13:03:00","imageFilename":"217147f2dd80c751cb34e9e5a69b3959.jpeg","bigImageFilename":"bec8b5c3e38f85a34f7001efa7bb07d1.jpeg","tags":["好身材","美腿"]},{"title":"秋","id":17639,"date":"2018/11/14 18:05:00","imageFilename":"b42a2dbebca36d3fd4142e40611441f0.jpeg","bigImageFilename":"b7dd7c038655af233ec68468fe33e657.jpeg","tags":["好身材"]},{"title":"什么手机","id":17633,"date":"2018/11/14 11:58:00","imageFilename":"769c8a4afcbe7b36972a324c10953d31.jpeg","bigImageFilename":"6b87ccc634b841362d13d271970a45aa.jpeg","tags":["好身材"]},{"title":"什么画","id":17630,"date":"2018/11/13 13:02:00","imageFilename":"768103ffc8d628bc4bac13a4424a00fc.jpeg","bigImageFilename":"d2883f3a9bf94d2a37c264ca06119c11.jpeg","tags":["好身材"]},{"title":"办公室着装","id":17623,"date":"2018/11/8 18:34:00","imageFilename":"173eb0030af1c14481ac88fbc28856fc.jpeg","bigImageFilename":"9cef6ab3d0dc226410d36aac88c47400.jpeg","tags":["大","好身材"]},{"title":"什么花","id":17620,"date":"2018/11/8 12:31:00","imageFilename":"38c115c153a7c5ed4a803b87a01fcd8c.jpeg","bigImageFilename":"d0b476d87d2883309556f5b15f658ad9.jpeg","tags":["好身材"]},{"title":"绿意盎然","id":17626,"date":"2018/11/9 11:27:00","imageFilename":"0871ed0c94560376943b5780c8710a6f.jpeg","bigImageFilename":"ed9bd15cfc187289efc2b4545f40ceda.jpeg","tags":["在路上","好身材"]},{"title":"USA5","id":17614,"date":"2018/11/1 18:59:00","imageFilename":"404fe5846024c961e97e23ac2a81422d.jpeg","bigImageFilename":"b928e884943ea92c07108963f4162a22.jpeg","tags":["美"]},{"title":"晨曦","id":17617,"date":"2018/11/2 12:40:00","imageFilename":"29dfda6466d607dc784d9b5ef9281dad.jpeg","bigImageFilename":"f71dde407c8cff97d7b94447a78dd73f.jpeg","tags":["美","美腿"]},{"title":"登高望远","id":17611,"date":"2018/10/31 13:41:00","imageFilename":"ab47fe332c60cc0e00ff795b0a1edc45.jpeg","bigImageFilename":"7cb7b80841d09ce3325d6f486e97b5fb.jpeg","tags":["美腿"]},{"title":"什么车","id":17607,"date":"2018/10/25 14:16:00","imageFilename":"bdadac5f0d40f03e2b35ff71b1c7a3af.jpeg","bigImageFilename":"865f4631930efb3edd42a3c15470b2c2.jpeg","tags":["在路上"]},{"title":"请接球","id":17604,"date":"2018/10/25 13:31:00","imageFilename":"75a472593b4b2e5425ef705afb79612d.jpeg","bigImageFilename":"178d8f0675d97fddffd760b4ca8e74ac.jpeg","tags":["好身材"]},{"title":"高铁女","id":17597,"date":"2018/10/18 13:03:00","imageFilename":"c8044912df1152b87c20415f45feb9c7.jpeg","bigImageFilename":"fa2b63f00d6d89e727c83ecbab5c0df4.jpeg","tags":["在路上"]},{"title":"又想学游泳了","id":17584,"date":"2018/9/29 13:32:00","imageFilename":"49b83fc106a64808e69adfbd551b5e5c.jpeg","bigImageFilename":"b18c2ee10f07d0af4ad5c955c8fb1815.jpeg","tags":["好身材"]},{"title":"看电视","id":17589,"date":"2018/10/8 13:10:00","imageFilename":"7952e50238712a17e88138b34d9dd5be.jpeg","bigImageFilename":"dc5defe89494623e6af69046aef05c6c.jpeg","tags":["美腿"]},{"title":"哪家店","id":17575,"date":"2018/9/29 11:07:00","imageFilename":"6fd5d051d965bd648b0ce816734933aa.jpeg","bigImageFilename":"b7fe8537f7036ece02eaedab7d249979.jpeg","tags":["好身材"]},{"title":"凤尾竹","id":17572,"date":"2018/9/27 11:41:00","imageFilename":"46b103a37b4bc3104278096947ad3cca.jpeg","bigImageFilename":"e2324344e3fbbcf40dcf0184412f62ec.jpeg","tags":["好身材"]},{"title":"干嘛呢","id":17566,"date":"2018/9/27 10:10:00","imageFilename":"2892bde1a8f6e21ce27cded1b8e22d48.jpeg","bigImageFilename":"5a12601903823af0a6f7f7a3a1c54c27.jpeg","tags":["在路上","大"]},{"title":"氛围灯","id":17560,"date":"2018/9/24 12:40:00","imageFilename":"bb57decface686b359f7758806e563f6.jpeg","bigImageFilename":"017396f455e4018cc2bdf975d83319fb.jpeg","tags":["美腿"]},{"title":"玩什么游戏那","id":17550,"date":"2018/9/17 16:18:00","imageFilename":"ba8d3f8565487d84aab94ef39a077679.jpeg","bigImageFilename":"a75f76c1503144e868961798cabfe245.jpeg","tags":["好身材"]},{"title":"玩手机","id":17557,"date":"2018/9/19 18:22:00","imageFilename":"79afce67f2db47efc5ecb5e0d3bb645d.jpeg","bigImageFilename":"59010c430d5c203362b2f0e3f5e87b78.jpeg","tags":["好身材","美腿"]}]}