{"totalPage":66,"total":2356,"page":52,"pageSize":36,"list":[{"title":"你选哪一个","id":6282,"date":"2016/6/25 21:07:00","imageFilename":"29f58b7b668657cb1c493ec4310dfb32.jpeg","bigImageFilename":"96d5badda39c5f8a7342a60892ae90e0.jpeg","tags":["好身材"]},{"title":"海水不够蓝","id":6280,"date":"2016/6/25 21:06:00","imageFilename":"77582119a96fca6375e1ead6f697885c.jpeg","bigImageFilename":"fb3d4706f06fad409e0969fdae90d875.jpeg","tags":["好身材"]},{"title":"初夏绿","id":6273,"date":"2016/6/25 15:15:00","imageFilename":"9a7900d0f36f644b0ce7bdef7d0a71a5.jpeg","bigImageFilename":"b85f6330ba5410ffc87b525b99b21ad8.jpeg","tags":["风景"]},{"title":"蓝天白云","id":6284,"date":"2016/6/25 21:08:00","imageFilename":"22d495bede4e404f3541e822591978ff.jpeg","bigImageFilename":"f0c11001bffba5eb1bf2f9db0aafaf1f.jpeg","tags":["好身材","美腿"]},{"title":"看什么呢","id":6231,"date":"2016/6/19 16:10:00","imageFilename":"f6aeccfaafd79b1c49358bf8336be18d.jpeg","bigImageFilename":"6f026f51dd2960a9bfdc9ba42977751f.jpeg","tags":["好身材"]},{"title":"回眸一笑","id":6222,"date":"2016/6/19 16:07:00","imageFilename":"5fdc26d47529526561e916f8d5958204.jpeg","bigImageFilename":"102812857360051195e42e287a93f3d0.jpeg","tags":["好身材"]},{"title":"这是什么车","id":6220,"date":"2016/6/19 16:07:00","imageFilename":"d3b94a138aae7958385e1196d5802584.jpeg","bigImageFilename":"44399ee72d966a59acde5b90242cd25e.jpeg","tags":["在路上","美腿"]},{"title":"困","id":6229,"date":"2016/6/19 16:09:00","imageFilename":"ce0896e2cf8777f7e663ed6ca25bd3a6.jpeg","bigImageFilename":"450ebebee7987448ab2eee09cc7c7b62.jpeg","tags":["好身材"]},{"title":"加班写文档","id":5973,"date":"2016/5/20 22:08:00","imageFilename":"058d3d53b9911336e90828cf3416a45a.jpeg","bigImageFilename":"1bbeff232ea1f3abc18b5556b2357683.jpeg","tags":["美腿"]},{"title":"地板不错","id":6227,"date":"2016/6/19 16:09:00","imageFilename":"b050372c7ca2f38e9bebefed37095f08.jpeg","bigImageFilename":"8226826df392844f4b35709085811feb.jpeg","tags":["美腿"]},{"title":"柔软的沙滩","id":5968,"date":"2016/5/20 21:49:00","imageFilename":"93438625ee3cd02e3d361020ee2caa74.jpeg","bigImageFilename":"87bf6f3b2305edc872df200109092883.jpeg","tags":["好身材","美","美腿"]},{"title":"海边有点凉","id":5964,"date":"2016/5/20 21:26:00","imageFilename":"21c9747123f9f7bb38052e4ec9364759.jpeg","bigImageFilename":"a5719fa90534b9f4ed9e5fea4e3d4c0f.jpeg","tags":["美腿"]},{"title":"蓝牙音箱","id":5961,"date":"2016/5/20 21:25:00","imageFilename":"0d44a308f5617f5c3faaadf75faf164a.jpeg","bigImageFilename":"a39d10b23695377b2bdc42b66b9207c2.jpeg","tags":["美腿"]},{"title":"周五还加班","id":5971,"date":"2016/5/20 21:50:00","imageFilename":"81fbae40481a8386cb420929632434ba.jpeg","bigImageFilename":"a76a65eaea92ae995746ecc92ca45124.jpeg","tags":["美腿"]},{"title":"点的什么","id":5957,"date":"2016/5/20 21:22:00","imageFilename":"d46f4d905db8f4762af50d845411b9f5.jpeg","bigImageFilename":"d935110f260c373abbecb46853ddfea4.jpeg","tags":["美腿"]},{"title":"发财树该浇水了","id":5952,"date":"2016/5/20 21:21:00","imageFilename":"f26b76978c16a91b0a90268cc0403b93.jpeg","bigImageFilename":"66ac3a908ef146d9de857985552fe068.jpeg","tags":["好身材","贵在真实"]},{"title":"什么相机","id":5950,"date":"2016/5/20 21:20:00","imageFilename":"b1cd4aaf18f07586adc24afefbfca69e.jpeg","bigImageFilename":"0caf7303ec467d4e65bac4f80a1f46b0.jpeg","tags":["好身材","美腿"]},{"title":"凌乱美","id":5945,"date":"2016/5/20 21:18:00","imageFilename":"e15ca3a5be45e0331b99f463854190ac.jpeg","bigImageFilename":"a9f5f65b0f2705fb33f45ee55a1b6cf4.jpeg","tags":["大"]},{"title":"好多手办","id":5948,"date":"2016/5/20 21:19:00","imageFilename":"e29a075989acbfd4394790f4e02d9d05.jpeg","bigImageFilename":"f5e25a3db32e61eb16b03e52fad7a9c2.jpeg","tags":["美腿"]},{"title":"镜子太小了","id":5943,"date":"2016/5/20 21:17:00","imageFilename":"dfc9a70a3675b1d2b03e81c681482731.jpeg","bigImageFilename":"0db9671a9e69d2b56a604af74221531a.jpeg","tags":["美腿"]},{"title":"有点小肚子","id":5941,"date":"2016/5/20 21:14:00","imageFilename":"b836d58969083029367076d21ba79551.jpeg","bigImageFilename":"32fb8231ced12100738daca8b3239b6b.jpeg","tags":["贵在真实"]},{"title":"蓝天白云绿树","id":5899,"date":"2016/5/18 13:18:00","imageFilename":"f01b880d323515bf43eb838794e7c4b4.jpeg","bigImageFilename":"12982c26313ee314770209d928a5369b.jpeg","tags":["在路上"]},{"title":"累了喝点水","id":5854,"date":"2016/5/14 20:07:00","imageFilename":"5ac749aab3a2ce7862a4a2dab95bf681.jpeg","bigImageFilename":"28358d517bb043a33b04e6d1a8621ab0.jpeg","tags":["美腿"]},{"title":"镜子该擦擦了","id":5852,"date":"2016/5/14 20:07:00","imageFilename":"292c4eaf229ab5d92cd4e80f709be766.jpeg","bigImageFilename":"3100621a4a69b4a2e9e3e3d853ccb7ab.jpeg","tags":["大"]},{"title":"很圆","id":5850,"date":"2016/5/14 20:06:00","imageFilename":"a994e8792e9e81ffcadcba8f539616f0.jpeg","bigImageFilename":"83a71828f7bfd4eea3c345e3458ee30d.jpeg","tags":["大"]},{"title":"你好大海","id":5856,"date":"2016/5/14 20:08:00","imageFilename":"3417c824c1895c227668d0f57a547baa.jpeg","bigImageFilename":"172ce85d27817eccd22574453b630d50.jpeg","tags":["风景"]},{"title":"在想什么","id":5847,"date":"2016/5/14 20:02:00","imageFilename":"4622408e5b38689b64f4776ca98aa808.jpeg","bigImageFilename":"2c48ccbb4a4d5fdb24b5830eda1bcd6f.jpeg","tags":["美","风景"]},{"title":"你选哪一个","id":5843,"date":"2016/5/14 19:53:00","imageFilename":"fe79deed50c7447e3e23c516d9b292ac.jpeg","bigImageFilename":"de9a77cb4fd91da6ad4d5d18b15e54f1.jpeg","tags":["Uncategorized"]},{"title":"课间休息","id":5841,"date":"2016/5/14 19:52:00","imageFilename":"bf8db4fba2767fe5134bf791cf31768c.jpeg","bigImageFilename":"bd7378e5ae914119d64de9fd084822a7.jpeg","tags":["贵在真实"]},{"title":"这衣服很少见呢","id":5836,"date":"2016/5/14 19:51:00","imageFilename":"576eac7b9f2bc5d3925ae9889a470c62.jpeg","bigImageFilename":"d0682e1795a7dd3c9d91ba138b62c69a.jpeg","tags":["大"]},{"title":"姑娘你吓到我了","id":5834,"date":"2016/5/14 19:49:00","imageFilename":"8a14b0c4c5e741d20e2c8bd0cf71f42a.jpeg","bigImageFilename":"9db5a4cd8780b85863e6e3f39d6067a9.jpeg","tags":["大"]},{"title":"粉色诱惑","id":5839,"date":"2016/5/14 19:52:00","imageFilename":"a7c0ef2172eec9a58c7377e41574cf0f.jpeg","bigImageFilename":"c61dffe483116f5b12ff1ebeff0fba41.jpeg","tags":["大"]},{"title":"很亮的路灯","id":5830,"date":"2016/5/14 19:47:00","imageFilename":"288029f09514743a405440645c1b6e60.jpeg","bigImageFilename":"c583b2e15a00df525c6eff77b9037644.jpeg","tags":["在路上","好身材","美腿"]},{"title":"愤怒的公仔","id":5832,"date":"2016/5/14 19:48:00","imageFilename":"3ffcc80d2d9f49efcb793c261f2d7c03.jpeg","bigImageFilename":"1cfa3deb826302a41f342b44c7f92a0c.jpeg","tags":["在路上","美腿"]},{"title":"膝盖怎么了","id":5828,"date":"2016/5/14 19:46:00","imageFilename":"331932b772f72e0a719a4e07c3f4ccf2.jpeg","bigImageFilename":"a8943af0c3de18f31fb813a0628ad6bb.jpeg","tags":["美腿"]},{"title":"腿有点粗呢","id":5826,"date":"2016/5/14 19:43:00","imageFilename":"15618f144ffe49cca7f34fe3a785b243.jpeg","bigImageFilename":"cbd82e53b57a5c03281a5047bba5ee55.jpeg","tags":["大","好身材"]}]}