{"totalPage":66,"total":2356,"page":2,"pageSize":36,"list":[{"title":"绿色床单","id":18766,"date":"2022/12/12 11:01:00","imageFilename":"9d4186cd722b654d865995c44789568f.jpeg","bigImageFilename":"79a721bf8eacfc7dd2423201e462a774.jpeg","tags":["大"],"width":1080,"height":810},{"title":"你选哪一个","id":18764,"date":"2022/12/7 09:17:00","imageFilename":"9da36bff385c8a47cf00437aa49123ee.jpeg","bigImageFilename":"a22e6fe4a13a7c6cdc905b661bc013e4.jpeg","tags":["美"],"width":1964,"height":1994},{"title":"试衣间","id":18765,"date":"2022/12/8 08:04:00","imageFilename":"cb807b780b65d195e4404637d83ee7a6.jpeg","bigImageFilename":"699d8d4fd7ee70129318d34ddfc33268.jpeg","tags":["美腿"],"width":1536,"height":2048},{"title":"什么时候摘口罩","id":18762,"date":"2022/11/26 09:37:00","imageFilename":"98c57972c35246a771a95214a6df7d3e.jpeg","bigImageFilename":"41d67c9a1772ee15b1e70286e96c865f.jpeg","tags":["好身材","贵在真实"],"width":1080,"height":1441},{"title":"居家加班","id":18763,"date":"2022/12/4 02:41:00","imageFilename":"f8139b45dda0a7ad190b4cd0454f1bdd.jpeg","bigImageFilename":"f404856e5f2152d311b69a2a0233c320.jpeg","tags":["大","贵在真实"],"width":2048,"height":1536},{"title":"蓝天白云","id":18760,"date":"2022/11/22 08:48:00","imageFilename":"cbed9a80800d0720f589b6626efbb582.jpeg","bigImageFilename":"bbd43666c6a6253f4fb18b0192b052bd.jpeg","tags":["欧美","大","好身材"],"width":640,"height":815},{"title":"下班","id":18761,"date":"2022/11/24 09:03:00","imageFilename":"34022b5f802d079c60d87b502ab1f522.jpeg","bigImageFilename":"b1682ed223f066bbe4fcc23f76a9651c.jpeg","tags":["在路上","贵在真实"],"width":1080,"height":1920},{"title":"Hi","id":18759,"date":"2022/11/22 08:47:00","imageFilename":"0b0c656f97875a2e612a8e61be384dd6.jpeg","bigImageFilename":"da860cf75a209f44983b941454a58982.jpeg","tags":["大","好身材"],"width":1080,"height":1439},{"title":"什么手机","id":18758,"date":"2022/11/22 08:41:00","imageFilename":"5d2fb14d4fb117676f947991bddac148.jpeg","bigImageFilename":"be5ea6b8482c4a65e4997b630af09cc8.jpeg","tags":["大","好身材","美腿"],"width":1080,"height":1440},{"title":"挺大","id":18720,"date":"2022/7/19 05:58:00","imageFilename":"4bb4acde01f4822f32a128a94e540f18.jpeg","bigImageFilename":"8d324b5029d55d80abfa0f0375f06486.jpeg","tags":["大"],"width":2048,"height":1536},{"title":"奶思","id":18721,"date":"2022/7/19 06:00:00","imageFilename":"35e1a961d4eff8bf72f661c8e26416c1.jpeg","bigImageFilename":"6776d9b6609b1773549e57aead673fb4.jpeg","tags":["大"],"width":2048,"height":1536},{"title":"出门","id":18719,"date":"2022/7/19 05:55:00","imageFilename":"fd9d2f262d959a4d19073a2f4213ae2b.jpeg","bigImageFilename":"a1ada847d1fad29119a78e8a993421a8.jpeg","tags":["在路上","好身材"],"width":1536,"height":2048},{"title":"宿舍楼","id":18718,"date":"2022/7/18 05:19:00","imageFilename":"07b8562a6221d8e4ea74a56435c585fc.jpeg","bigImageFilename":"f66e4927a65a9499f295ff085a2281be.jpeg","tags":["好身材"],"width":960,"height":1280},{"title":"拜一拜","id":18717,"date":"2022/7/14 01:38:00","imageFilename":"2b6bc826a8ab33e8c3e407821597978f.jpeg","bigImageFilename":"b11b3337882bce69518927ab068413f7.jpeg","tags":["大","好身材"],"width":937,"height":1705},{"title":"晚霞","id":18716,"date":"2022/7/14 01:16:00","imageFilename":"33bc50f0ce2cccf5330bc2772330e17d.jpeg","bigImageFilename":"1ab80dadd7bbc307d7b91d19c00bc17a.jpeg","tags":["在路上"],"width":1080,"height":1441},{"title":"下午好","id":18715,"date":"2022/7/13 05:55:00","imageFilename":"1185cf9e83bcf514e1f4d0d11ca21a3c.jpeg","bigImageFilename":"e9a3d9002464aa9265da6b404ea9bb8a.jpeg","tags":["大"],"width":640,"height":800},{"title":"去游泳","id":18714,"date":"2022/7/11 16:35:00","imageFilename":"96df23f3d9493ebd338b7706d08430e3.jpeg","bigImageFilename":"46c03dec63a1d9917dbe2a59b4f6a6df.jpeg","tags":["好身材"],"width":805,"height":1442},{"title":"上山","id":18713,"date":"2022/6/18 05:29:00","imageFilename":"2fb725da413b2981f8c66f52285c66dc.jpeg","bigImageFilename":"215d3cfd8d0be26bfafcff3a23683f8d.jpeg","tags":["在路上","好身材"],"width":750,"height":743},{"title":"清水一中","id":18649,"date":"2021/8/31 06:47:00","imageFilename":"62880d7d8914e5ba9a04169ecc893d47.jpeg","bigImageFilename":"9be5a8b220752ce8166b20fff83bb5de.jpeg","tags":["大"],"width":2048,"height":1536},{"title":"早","id":18648,"date":"2021/8/26 02:27:00","imageFilename":"00eed65397729cca29b1f3e8b136c36e.jpeg","bigImageFilename":"05f372338b309d8d6fe368045823dfbd.jpeg","tags":["贵在真实"],"width":1280,"height":853},{"title":"新设备","id":18646,"date":"2021/8/10 01:57:00","imageFilename":"a69f28c93c8422b6d3c432400ee3b3c6.jpeg","bigImageFilename":"1265c5047ff38486d83edad5f4c205e5.jpeg","tags":["好身材","美腿"],"width":544,"height":1024},{"title":"地毯不错","id":18647,"date":"2021/8/16 10:13:00","imageFilename":"922aebfffc171493072260a1e6f296b9.jpeg","bigImageFilename":"92f50f942d0feb6116cea2b4dd1c4a52.jpeg","tags":["美腿"],"width":1536,"height":2048},{"title":"FIT","id":18645,"date":"2021/8/9 13:04:00","imageFilename":"20c108203656330bef52db8215823377.jpeg","bigImageFilename":"704df606a75240b6af3a79e36576c4ce.jpeg","tags":["好身材"],"width":1595,"height":2048},{"title":"约会去","id":18644,"date":"2021/8/9 05:18:00","imageFilename":"51427bccad49ff5d897639927ab0a897.jpeg","bigImageFilename":"0a7b1f4afa34fcd0840629d60cc9cea8.jpeg","tags":["大","好身材"],"width":1333,"height":2048},{"title":"自助查询","id":18643,"date":"2021/8/9 02:57:00","imageFilename":"f77cdb2be47f612ba8a89caee3ac468a.jpeg","bigImageFilename":"0ed308b8bd7f33c6c463f2b1bd6522ea.jpeg","tags":["好身材"],"width":1534,"height":2048},{"title":"热吗","id":18642,"date":"2021/7/31 08:53:00","imageFilename":"7b681ab5b93f365ec810eae446fa2726.jpeg","bigImageFilename":"68a0d3e813f34b5e5aa47998adaf7fdf.jpeg","tags":["美腿"],"width":1080,"height":1480},{"title":"什么车","id":18641,"date":"2021/7/31 08:53:00","imageFilename":"ddbb015db0be9e3002cf8d3cf7de30f9.jpeg","bigImageFilename":"67c9bc813148a9a9d84805e47ba74ed5.jpeg","tags":["好身材","美腿"],"width":1546,"height":2048},{"title":"起床","id":18783,"date":"2023/2/15 01:02:00","imageFilename":"adb51c42d18fa7329e3d8897f62aed50.jpeg","bigImageFilename":"4fb29256f1a5ec18f7aabf48cd9e582b.jpeg","tags":["在路上","大","好身材","贵在真实"],"width":690,"height":920},{"title":"睡觉","id":18782,"date":"2023/2/15 01:02:00","imageFilename":"332e22cd3612f3facb8b06e1ee669599.jpeg","bigImageFilename":"de88ed14f12caa6b0eff76cd6cbd22c9.jpeg","tags":["在路上","大","好身材","贵在真实"],"width":690,"height":854},{"title":"春天近了","id":18784,"date":"2023/2/19 09:48:00","imageFilename":"3fa9bd7f6aabf78aede634c1df15d0e0.jpeg","bigImageFilename":"638ae58c8cf35f1140dabca5a33ee082.jpeg","tags":["美腿"],"width":1323,"height":1764},{"title":"夕阳","id":18780,"date":"2023/2/12 13:47:00","imageFilename":"0d3258689e83c3415dd04c80dd4c394b.jpeg","bigImageFilename":"3bc62dd8f411eb52564735dd0a013f9b.jpeg","tags":["好身材"],"width":888,"height":1204},{"title":"品质租房","id":18781,"date":"2023/2/15 00:59:00","imageFilename":"519a814ad799d5870aedab6a99b2f65e.jpeg","bigImageFilename":"64f405c51fb2186e91825fecbd76ad9b.jpeg","tags":["在路上","好身材","美腿","贵在真实"],"width":1040,"height":1440},{"title":"我猜是iPhone","id":18779,"date":"2023/1/29 10:46:00","imageFilename":"41eb76827043066574a107fc92a490d2.jpeg","bigImageFilename":"a435d25c04261b0f6ca31a6ea3b367a6.jpeg","tags":["贵在真实"],"width":1536,"height":2048},{"title":"胖了吗","id":18778,"date":"2023/1/28 07:00:00","imageFilename":"7212a3a992b9cd6cb90819065d98fa89.jpeg","bigImageFilename":"4225e8a5b33191ec7e66b0f2ca443477.jpeg","tags":["美腿"],"width":1536,"height":2048},{"title":"什么手机","id":18777,"date":"2023/1/28 06:58:00","imageFilename":"04aa3f5d609e1ca59c485c2c4348b6ec.jpeg","bigImageFilename":"ad543fdbd69a4901c55ea1a51018939d.jpeg","tags":["好身材"],"width":1440,"height":1920},{"title":"来杯奶茶","id":18793,"date":"2023/3/7 00:49:00","imageFilename":"d84efdfe7c0041aa31489395d908e53d.jpeg","bigImageFilename":"1951d4440ed04ed1b107449588035ec1.jpeg","tags":["大"],"width":820,"height":1024}],"allTags":["美腿","贵在真实","在路上","好身材","大","美","游客投稿","风景","趣图","欧美","害羞"]}