{"totalPage":66,"total":2356,"page":35,"pageSize":36,"list":[{"title":"什么画","id":17140,"date":"2018/6/13 15:41:00","imageFilename":"695045d1d6d945602627bfaa44d4229c.jpeg","bigImageFilename":"cfd3d566aaad2f618b6b475d542cd048.jpeg","tags":["大"],"width":684,"height":1024},{"title":"好大的浪","id":17145,"date":"2018/6/15 09:32:00","imageFilename":"e8208cf50a5dbfc7beb66c71b9f2932c.jpeg","bigImageFilename":"493acc94dcfb576d9256a506c4a73454.jpeg","tags":["风景"],"width":1080,"height":1120},{"title":"下班","id":17134,"date":"2018/6/11 18:47:00","imageFilename":"60d7ed72b01c6ce4a2e53503571d85b4.jpeg","bigImageFilename":"faac497c09139f9c08764684e215ff62.jpeg","tags":["在路上","大"],"width":675,"height":1200},{"title":"绿意盎然","id":17137,"date":"2018/6/12 14:10:00","imageFilename":"06f74d0b5028d6ea72e1996b1a5f39c3.jpeg","bigImageFilename":"a62e1a4976eedc33f030ae1f21175c82.jpeg","tags":["在路上"],"width":900,"height":1200},{"title":"参加婚礼","id":17125,"date":"2018/6/6 10:03:00","imageFilename":"fa14a0b13dedcdff390cd824dae9f3bd.jpeg","bigImageFilename":"1b7a685d05f62159f4f0ef0a3942a5a7.jpeg","tags":["美腿"],"width":885,"height":1200},{"title":"怎么还没到","id":17116,"date":"2018/5/28 18:02:00","imageFilename":"d2e01824f049a2b46d951829ce054275.jpeg","bigImageFilename":"d2974a0dc8cc6297c458ef432c2d5763.jpeg","tags":["美腿"],"width":636,"height":1024},{"title":"这是什么衣服","id":17121,"date":"2018/5/31 12:45:00","imageFilename":"fa4f3dc350a8aac4f0c9b1d8cece4fb6.jpeg","bigImageFilename":"d52586c85d387e4bcc23005b6644ed03.jpeg","tags":["大"],"width":640,"height":640},{"title":"起飞","id":17114,"date":"2018/5/28 18:01:00","imageFilename":"fa3be649601b6a92b02698422d7312b5.jpeg","bigImageFilename":"e292d2d8aea2db0011042ecbe2fbec07.jpeg","tags":["美腿"],"width":688,"height":1024},{"title":"黄昏","id":17110,"date":"2018/5/28 10:52:00","imageFilename":"a4c89b2cd3a94fc0968e502fa1072701.jpeg","bigImageFilename":"8d783102cbee154b1c4c260b223bd8fd.jpeg","tags":["风景"],"width":750,"height":750},{"title":"有点热","id":17107,"date":"2018/5/25 22:16:00","imageFilename":"e96b4b58b1ef34e5b2fcefbc969fdc15.jpeg","bigImageFilename":"6873bd39caeadf4baf62e3a9c4084e88.jpeg","tags":["大"],"width":618,"height":465},{"title":"这样扎好看不","id":17104,"date":"2018/5/25 16:33:00","imageFilename":"90e87980c89a37dcfae96403b4eebffd.jpeg","bigImageFilename":"753052fce0df86c29f60c10783921463.jpeg","tags":["大"],"width":1200,"height":900},{"title":"扎下头发","id":17101,"date":"2018/5/25 16:32:00","imageFilename":"7d5d4272f4fc2ec831502cf37cf9eeb8.jpeg","bigImageFilename":"5a263d466115ad5344801dd9f1d98a8e.jpeg","tags":["大"],"width":1200,"height":1200},{"title":"碧海蓝天","id":17098,"date":"2018/5/24 13:04:00","imageFilename":"8220460e24611b9a0bb32bea5affa55d.jpeg","bigImageFilename":"99b4623c757baa9d3ca786ec8351c44e.jpeg","tags":["风景"],"width":720,"height":960},{"title":"早安","id":17081,"date":"2018/5/21 10:50:00","imageFilename":"2cc128911d758547c623eb73d4b356ab.jpeg","bigImageFilename":"351791ad5c0a6e61182190d1d099c26c.jpeg","tags":["大"],"width":640,"height":640},{"title":"520加班","id":17084,"date":"2018/5/21 10:54:00","imageFilename":"45a7f3f6f3351baa121882e868858193.jpeg","bigImageFilename":"6659004bb58bc0e573e04ed19b390f08.jpeg","tags":["美腿"],"width":730,"height":1024},{"title":"还可以这样哦","id":17075,"date":"2018/5/17 22:02:00","imageFilename":"99a04f41ce67dc849fedf70b9509af48.jpeg","bigImageFilename":"784ada3f10c31486c0cae4bbfca66c6f.jpeg","tags":["好身材"],"width":770,"height":1024},{"title":"好看不","id":17072,"date":"2018/5/17 21:58:00","imageFilename":"647239d60148e983c6259a0522a46f8d.jpeg","bigImageFilename":"458c55b45e111aaeaeb941d3bf638e60.jpeg","tags":["大"],"width":770,"height":1024},{"title":"新买的背包","id":17069,"date":"2018/5/17 21:57:00","imageFilename":"453c92f55343f254d9e6804a999f6ba1.jpeg","bigImageFilename":"8c488ae25108ced931b4589ea4adff7e.jpeg","tags":["大"],"width":770,"height":1024},{"title":"今天阴天","id":17062,"date":"2018/5/11 14:27:00","imageFilename":"16c1a7b02641a75ea2767ce90dcc8e48.jpeg","bigImageFilename":"5ffcc26f7e5c7fc15b6d0459af7eadce.jpeg","tags":["好身材"],"width":698,"height":1200},{"title":"天热了","id":17066,"date":"2018/5/13 12:45:00","imageFilename":"d4639e98b7262c4633b22d4b8415922e.jpeg","bigImageFilename":"a111ece4d7b74bacebfc755b2a7af0d5.jpeg","tags":["在路上","美腿"],"width":1024,"height":1024},{"title":"小橘车","id":17056,"date":"2018/5/10 16:17:00","imageFilename":"fc9ae3421d980448e9e31bfd6b5f3d00.jpeg","bigImageFilename":"5cf393493a019e9144945059b5b70c86.jpeg","tags":["在路上"],"width":1024,"height":1024},{"title":"后面","id":17059,"date":"2018/5/11 13:57:00","imageFilename":"c4279ecda5a9cf23b4d9f007d82d85f2.jpeg","bigImageFilename":"e7b962fafe7b354d841b00ef8fa16f7d.jpeg","tags":["好身材"],"width":960,"height":1200},{"title":"沙发舒服","id":17049,"date":"2018/5/7 16:27:00","imageFilename":"721c97243cf5bd94a08d0b2b993a6123.jpeg","bigImageFilename":"618d3faee1307afa01254abb4a460451.jpeg","tags":["大"],"width":900,"height":1200},{"title":"午睡吗","id":17039,"date":"2018/5/2 13:50:00","imageFilename":"33c6993630df5cb03d2b7ecf5893ab5b.jpeg","bigImageFilename":"00a4cb0cbd94a88229ed123bc6f27cf7.jpeg","tags":["好身材"],"width":1080,"height":1080},{"title":"有风","id":17052,"date":"2018/5/7 16:29:00","imageFilename":"4b8ae7559d61fba352c560c05acc8d75.jpeg","bigImageFilename":"1844f141b2bbbf8d8e0a3be206e8cd47.jpeg","tags":["美腿"],"width":1024,"height":1042},{"title":"睡个好觉","id":17046,"date":"2018/5/4 16:46:00","imageFilename":"f9d134d9b596f9d7a5d69fb988a02ebd.jpeg","bigImageFilename":"f419882abbea027d9135e7fc6dd24434.jpeg","tags":["美腿"],"width":960,"height":1155},{"title":"今天公交车上人不多","id":17029,"date":"2018/5/1 22:02:00","imageFilename":"c63f1d561b6758750bcd0f2687aef6df.jpeg","bigImageFilename":"7bc8733e0d9e19457573434af8b461a7.jpeg","tags":["在路上","美腿"],"width":600,"height":800},{"title":"2F到了","id":17026,"date":"2018/5/1 22:01:00","imageFilename":"4ff81df206a0d4cada4d4a74f22b852c.jpeg","bigImageFilename":"a88096619ef0664782e16002d39869a5.jpeg","tags":["美腿"],"width":852,"height":1136},{"title":"干嘛呢","id":17020,"date":"2018/5/1 21:59:00","imageFilename":"6f0fb9de85dd7041916bb0b62dcbb47f.jpeg","bigImageFilename":"10002affbda1d1d9b6dbc3f76f788876.jpeg","tags":["美腿"],"width":640,"height":852},{"title":"要读书","id":17023,"date":"2018/5/1 22:00:00","imageFilename":"0e3d0f9d822f80d5fc001d1295321d50.jpeg","bigImageFilename":"50b8bd41c9fbc4ec5abc2f76532de617.jpeg","tags":["在路上","美腿"],"width":960,"height":960},{"title":"请勿停留","id":17032,"date":"2018/5/1 22:03:00","imageFilename":"96c2af82671a03da8297c5644c123134.jpeg","bigImageFilename":"3e0679c9a2d003194aa69f334a039dff.jpeg","tags":["在路上","美腿"],"width":900,"height":1200},{"title":"五一出游","id":16988,"date":"2018/4/30 14:10:00","imageFilename":"2df44875c52bb45033375a1a2d6c4fa3.jpeg","bigImageFilename":"10c909ba4d40d7ea53bc2c768644cc37.jpeg","tags":["在路上","美腿"],"width":768,"height":1024},{"title":"太困了","id":16937,"date":"2018/4/29 18:38:00","imageFilename":"083e0259228c8ea105dc61f95624c94d.jpeg","bigImageFilename":"7c724bc8a63359cfc056932e607461f9.jpeg","tags":["大"],"width":640,"height":480},{"title":"回头率","id":16943,"date":"2018/4/29 21:02:00","imageFilename":"471daa36028c8300c29a1178b2e44fc9.jpeg","bigImageFilename":"5b4a0855fae001a662b74018b64df585.jpeg","tags":["在路上","欧美","美腿"],"width":540,"height":744},{"title":"伸展一下","id":16939,"date":"2018/4/29 18:39:00","imageFilename":"1655a8b8160a66d31745647685451c9d.jpeg","bigImageFilename":"79f857d089c35ae06e1a97021b07abe1.jpeg","tags":["美腿"],"width":900,"height":1200},{"title":"仙人掌","id":16934,"date":"2018/4/29 17:46:00","imageFilename":"6aece66935b37af82aa3f3d4a8925c98.jpeg","bigImageFilename":"fe41a697aa45abcba74901a7fa8e2569.jpeg","tags":["贵在真实"],"width":800,"height":1200}],"allTags":["美腿","贵在真实","在路上","好身材","大","美","游客投稿","风景","趣图","欧美","害羞"]}