{"totalPage":66,"total":2356,"page":5,"pageSize":36,"list":[{"title":"新内衣","id":18621,"date":"2021/7/5 09:00:00","imageFilename":"bc765de1bfb090bd30d9bb134bb6fed1.jpeg","bigImageFilename":"dbd68a2fe7d9466c4309779f112437d6.jpeg","tags":["贵在真实"]},{"title":"买什么呢","id":18622,"date":"2021/7/6 11:17:00","imageFilename":"08684a63d0b7db8439077bf3efe46ba0.jpeg","bigImageFilename":"1143cccac63de45023169598532550b3.jpeg","tags":["好身材"]},{"title":"摘果子","id":18619,"date":"2021/7/1 05:04:00","imageFilename":"e36947d3089fab296d3357ad2c389522.jpeg","bigImageFilename":"fb6c91eecc330b976dbb7b525764a74a.jpeg","tags":["好身材","美腿"]},{"title":"困","id":18620,"date":"2021/7/5 08:44:00","imageFilename":"374a6d55f64536532b4b1c951c9be703.jpeg","bigImageFilename":"258503ffb235295a21d23ee1fb61f00e.jpeg","tags":["美腿"]},{"title":"工具狗","id":18618,"date":"2021/7/1 04:46:00","imageFilename":"c575da03ea666f4b9b4cdf29ea1c1819.jpeg","bigImageFilename":"3fe4fc4ed9fbc5802dbce4469f1e930e.jpeg","tags":["美腿"]},{"title":"下雨了","id":18617,"date":"2021/7/1 03:42:00","imageFilename":"a86a383b12ef61e8e03b75a8191d5a7f.jpeg","bigImageFilename":"ed2270b707ba02ff9efa203a0b831a25.jpeg","tags":["贵在真实"]},{"title":"喝咖啡","id":18615,"date":"2021/6/27 09:11:00","imageFilename":"8c91b4cc03c14306929f59d7e084e4a4.jpeg","bigImageFilename":"87c89dbdaed19cd5440eb92dae18a8d3.jpeg","tags":["美腿"]},{"title":"试婚纱","id":18616,"date":"2021/6/28 07:06:00","imageFilename":"797054754e8c63326a930113912d4c3f.jpeg","bigImageFilename":"9576e1219ea5870e46ec18276c407180.jpeg","tags":["美"]},{"title":"好看不","id":18614,"date":"2021/6/25 11:33:00","imageFilename":"67b8adf8ea5965ce35110019efd7ce30.jpeg","bigImageFilename":"2207b3a199775f41399f8163839d531b.jpeg","tags":["好身材"]},{"title":"你好","id":18613,"date":"2021/6/25 07:39:00","imageFilename":"90706daef4592753083f006d4200dd9a.jpeg","bigImageFilename":"7cbefdd928611ab6e2360300b12a251f.jpeg","tags":["美腿"]},{"title":"不胖呀","id":18612,"date":"2021/6/25 05:44:00","imageFilename":"1d9f37ca29ba02797610fb6cc8c8b14a.jpeg","bigImageFilename":"43486cf6b3d0e039144bc5a3c775da52.jpeg","tags":["美腿"]},{"title":"早","id":18611,"date":"2021/6/25 05:34:00","imageFilename":"bf8b836f517314a279f494351c5d13c1.jpeg","bigImageFilename":"f6e9d06135ee5438bc888ae4a934be88.jpeg","tags":["大"]},{"title":"困吗","id":18610,"date":"2021/6/24 02:08:00","imageFilename":"0abff7b547da58dec348607c91f1d294.jpeg","bigImageFilename":"fb561f6e9cba9671454176c927bb49b1.jpeg","tags":["大"]},{"title":"早","id":18609,"date":"2021/6/22 14:01:00","imageFilename":"f60c2130a48772a64472d6efb6354a87.jpeg","bigImageFilename":"a89aa047454341da03924a0749ef06a6.jpeg","tags":["美"]},{"title":"去游泳","id":18608,"date":"2021/6/18 05:37:00","imageFilename":"28f0c30bb13ff4b5f17942dcb606ab4e.jpeg","bigImageFilename":"f5539cf1cf0d96016becbb3e01faf7dc.jpeg","tags":["好身材"]},{"title":"有点晒","id":18606,"date":"2021/6/10 14:20:00","imageFilename":"d3e3928129b65221a1e9c558776068d8.jpeg","bigImageFilename":"53e3dfd6d16b5390387dda8428fd3a93.jpeg","tags":["大"]},{"title":"说什么呢","id":18607,"date":"2021/6/11 04:55:00","imageFilename":"6df995b417117a86d7d5bf9c231f495b.jpeg","bigImageFilename":"0a84f5af2af2986a706d8ac065ae4020.jpeg","tags":["在路上"]},{"title":"青春感觉","id":18605,"date":"2021/6/4 05:11:00","imageFilename":"1b7550af6fde8109c70ba0dc33a67304.jpeg","bigImageFilename":"83eb00f2b639723318c845454ce2dbbd.jpeg","tags":["大"]},{"title":"什么画","id":18603,"date":"2021/6/1 13:40:00","imageFilename":"7e30f64e76babcdf22dac32fd876ecc8.jpeg","bigImageFilename":"ade25f9ecd4211e7547c50271e1c5f08.jpeg","tags":["大"]},{"title":"什么花","id":18604,"date":"2021/6/3 05:28:00","imageFilename":"e7f7b94c36a716e361a168f9f2220e5e.jpeg","bigImageFilename":"e0e60371b893845b3935414f9e6edf34.jpeg","tags":["大"]},{"title":"你选哪一个","id":18601,"date":"2021/6/1 05:19:00","imageFilename":"29cb4741127af993770af221bd0f1f83.jpeg","bigImageFilename":"5f826f10673a9a577abacf71fea605af.jpeg","tags":["趣图"]},{"title":"你选哪一个","id":18602,"date":"2021/6/1 05:20:00","imageFilename":"a61b9fb1e9674cfaecad567befbaa347.jpeg","bigImageFilename":"8af3c82ff3f1e4ac3cbfd089d1eb4419.jpeg","tags":["趣图"]},{"title":"找什么呐","id":18600,"date":"2021/5/27 02:12:00","imageFilename":"41c107b5885f88a36a38778d560a9d8c.jpeg","bigImageFilename":"bb317b7e6812a6b499bdd44893c88ab1.jpeg","tags":["贵在真实"]},{"title":"听听音乐","id":18598,"date":"2021/5/26 05:42:00","imageFilename":"684f5d20b05d72539425d65237ac67f2.jpeg","bigImageFilename":"7b40411fd9e5d0df9f7f401f941dea5c.jpeg","tags":["好身材","美腿"]},{"title":"什么车","id":18599,"date":"2021/5/26 05:43:00","imageFilename":"babf08618acacd94355239f95010ed2c.jpeg","bigImageFilename":"10799f6af8ab2a7a1ac4dbaa4bd64e7d.jpeg","tags":["好身材","美腿"]},{"title":"好热","id":18597,"date":"2021/5/24 11:17:00","imageFilename":"3db0c8ff5afc3964b4cbd1c7f38c7b72.jpeg","bigImageFilename":"9e827086de302ebbfe9c8edbef8d4acb.jpeg","tags":["好身材"]},{"title":"优衣库","id":18595,"date":"2021/5/19 02:41:00","imageFilename":"103b7da2da29558d0dfa330be02dcd21.jpeg","bigImageFilename":"370b9997d27a9265221d693af1b3fe01.jpeg","tags":["贵在真实"]},{"title":"好大只皮卡丘","id":18594,"date":"2021/5/13 05:29:00","imageFilename":"25334f19bf81a99cf9b799031ffc7789.jpeg","bigImageFilename":"8b6952e7704df1d15630be7fd6d4a01a.jpeg","tags":["大"]},{"title":"鞋子不错","id":18596,"date":"2021/5/22 13:29:00","imageFilename":"946651e4e51d227c2e2ed5e32665b131.jpeg","bigImageFilename":"3dde102121b264345be14096ca9857ea.jpeg","tags":["美腿"]},{"title":"什么手机","id":18592,"date":"2021/5/11 09:19:00","imageFilename":"29efe9a3acd76c87e1f18fd8bd0394ff.jpeg","bigImageFilename":"338b69cdb7f2a2b877324400fb305323.jpeg","tags":["大"]},{"title":"好好休息","id":18593,"date":"2021/5/11 09:20:00","imageFilename":"78312e712e718277aa5e260d145a6341.jpeg","bigImageFilename":"a23c5c17c5465c34f075e99256a1ae32.jpeg","tags":["美腿"]},{"title":"草坪需要灌溉","id":18591,"date":"2021/5/11 07:00:00","imageFilename":"5fa12338fe7e39d654a4024a1ac50509.jpeg","bigImageFilename":"cadc79d3917e29e6cc30530a1cf9db70.jpeg","tags":["美腿"]},{"title":"开线了","id":18589,"date":"2021/5/11 03:49:00","imageFilename":"1c875e90da76065ccceceb6d9ae05346.jpeg","bigImageFilename":"f728fd8a55c5246cac4d1c7e1169d52f.jpeg","tags":["美腿","贵在真实"]},{"title":"哪年的椅子","id":18588,"date":"2021/5/11 03:41:00","imageFilename":"13e32915681282b060d42871ca3bf568.jpeg","bigImageFilename":"fddf0229c63cfb3a396fbe6c8b4881e4.jpeg","tags":["美腿","贵在真实"]},{"title":"什么猫","id":18590,"date":"2021/5/11 05:00:00","imageFilename":"e4cbc2da431afc76472267ff24bddb86.jpeg","bigImageFilename":"e21bf875e9564db8674c720e9526c102.jpeg","tags":["美腿"]},{"title":"COSTCO","id":18587,"date":"2021/5/10 03:20:00","imageFilename":"dc55e1f2c2a4fa2a44dafe9a47050d16.jpeg","bigImageFilename":"e14cfa297e35cbc1bc5959c7ce8b36bb.jpeg","tags":["大"]}],"allTags":["美腿","贵在真实","在路上","好身材","大","美","游客投稿","风景","趣图","欧美","害羞"]}