{"totalPage":66,"total":2356,"page":18,"pageSize":36,"list":[{"title":"伸展运动","id":18153,"date":"2019/4/23 11:21:00","imageFilename":"ce19b0ab74defd1b7b421ab452351b30.jpeg","bigImageFilename":"3619e3768d04f60004e2a8ed7b2638de.jpeg","tags":["大","好身材","美腿"],"width":961,"height":1200},{"title":"什么字母","id":18154,"date":"2019/4/23 11:21:00","imageFilename":"619184daf0621aec551f6ba0793004f1.jpeg","bigImageFilename":"6c3050c7d94d4d076417ee3c96ba0121.jpeg","tags":["大","好身材"],"width":960,"height":1200},{"title":"洞中有洞洞中泉","id":18149,"date":"2019/4/23 10:00:00","imageFilename":"77e61acc9b170b917b514d47280fdd32.jpeg","bigImageFilename":"6fb0a6d6db1bbb4a59d78a2322163eb0.jpeg","tags":["好身材","美腿","风景"],"width":964,"height":1200},{"title":"看什么看","id":18152,"date":"2019/4/23 10:30:00","imageFilename":"feb028320d306240fbd89f1bc061d8fc.jpeg","bigImageFilename":"9ebe4fc05b9f87a096de85ed41860680.jpeg","tags":["大","好身材"],"width":963,"height":1200},{"title":"鹅卵石墙壁","id":18148,"date":"2019/4/23 09:28:00","imageFilename":"0dfb87e24e99cf45b7614d3b09b8d52e.jpeg","bigImageFilename":"4e2a1d5fa886204f81ce227d7696e053.jpeg","tags":["好身材"],"width":1200,"height":1200},{"title":"为什么不开心","id":18145,"date":"2019/4/23 05:14:00","imageFilename":"0cac9c2dfb41e9e8430de4c71fd4244c.jpeg","bigImageFilename":"217bd0ce0ce5bf041c609b068110743f.jpeg","tags":["大","好身材","美腿"],"width":960,"height":1200},{"title":"叶子泳衣","id":18146,"date":"2019/4/23 05:26:00","imageFilename":"518054acd4646667e6cc6ad46bce18cd.jpeg","bigImageFilename":"8cce48f377c8a198da7c7741247235ec.jpeg","tags":["大","好身材","美腿"],"width":961,"height":1200},{"title":"伸展一下","id":18143,"date":"2019/4/23 05:00:00","imageFilename":"0adb19970ad70e227b9ca3e8d7c70161.jpeg","bigImageFilename":"6a78c326cb5e4487dc4691c9bdcef77d.jpeg","tags":["美腿","贵在真实"],"width":900,"height":1200},{"title":"夜色","id":18144,"date":"2019/4/23 05:10:00","imageFilename":"3e9fa480a70d240027da2d85d9a81ecf.jpeg","bigImageFilename":"df1970fb5043cda75fb8df6c96d36234.jpeg","tags":["大","好身材","贵在真实"],"width":1080,"height":1080},{"title":"和小猫一起照镜子","id":18151,"date":"2019/4/23 10:21:00","imageFilename":"3037f199cb8d878a1d7ec21ee564b3fc.jpeg","bigImageFilename":"7d5561d5fee24e153e4408179e191946.jpeg","tags":["大","好身材"],"width":960,"height":1200},{"title":"和小猫一起晒太阳","id":18150,"date":"2019/4/23 10:19:00","imageFilename":"b3421543c2ea023e5002df1bbf09e329.jpeg","bigImageFilename":"8c848b1cb0e6eb049580d48a4e890299.jpeg","tags":["大","好身材"],"width":960,"height":1200},{"title":"拍什么呢","id":18142,"date":"2019/4/23 04:06:00","imageFilename":"87ba7a19dc1cc30a5c02f2f9d1f902ef.jpeg","bigImageFilename":"b757d44cd10e4cec307c2bd30fbd9525.jpeg","tags":["在路上","大","好身材"],"width":736,"height":1200},{"title":"需要我帮忙拍照吗","id":18141,"date":"2019/4/23 03:53:00","imageFilename":"a8cd85cef2ab949d82a0b9f01048a679.jpeg","bigImageFilename":"d6185be9d09316a4ef7263fecf672734.jpeg","tags":["大","好身材"],"width":720,"height":720},{"title":"什么插座","id":18147,"date":"2019/4/23 06:14:00","imageFilename":"4b92c098258a99733ce1ae06809c715d.jpeg","bigImageFilename":"5997b86397b2e9898ecb6c00af464fc4.jpeg","tags":["好身材","美腿"],"width":1080,"height":1080},{"title":"头发扎起来","id":18140,"date":"2019/4/23 01:44:00","imageFilename":"02ffd80d6c20794c94562dc644fc7a56.jpeg","bigImageFilename":"ab9932f2197d5186978ea902cbd804a8.jpeg","tags":["大","好身材"],"width":686,"height":1024},{"title":"黑白分明","id":18138,"date":"2019/4/21 14:38:00","imageFilename":"6f5e40e7d2fbee521fb21fa5ae563191.jpeg","bigImageFilename":"8037865ee63dacfca0a5f3778d5f15b7.jpeg","tags":["大"],"width":1080,"height":1349},{"title":"困了","id":18139,"date":"2019/4/22 05:24:00","imageFilename":"e2bf9397d8b6c9dd1695377a7448540f.jpeg","bigImageFilename":"d0aec6c32f532dcb161ea4b0757c3883.jpeg","tags":["好身材"],"width":682,"height":1024},{"title":"什么鞋子","id":18137,"date":"2019/4/20 12:31:00","imageFilename":"e68c6bdf1bcaab71d9ff2c283c061f0f.jpeg","bigImageFilename":"5e15fbd348fc12dcba9f0af76b4384c3.jpeg","tags":["美腿"],"width":2048,"height":1366},{"title":"快上车","id":18126,"date":"2019/4/12 11:52:00","imageFilename":"7a8085789f9a2da609ede916128778af.jpeg","bigImageFilename":"55c38b5aebc6e3d051cca2e29ca1e832.jpeg","tags":["大","美腿"],"width":690,"height":920},{"title":"早上就很热了","id":18127,"date":"2019/4/15 01:57:00","imageFilename":"44c66ac99f05d54a898ee027aecb32fb.jpeg","bigImageFilename":"60f29db1eb75b2f0104c5a3864fa4d2a.jpeg","tags":["在路上","好身材","美腿"],"width":720,"height":1151},{"title":"准备报个瑜伽班了","id":18125,"date":"2019/4/12 11:51:00","imageFilename":"e6e3e9028c9f664443d72e84798c1403.jpeg","bigImageFilename":"bc985e3ec41f1c10e3d2d864dcb90076.jpeg","tags":["美腿","贵在真实"],"width":600,"height":552},{"title":"BOHO BELLE","id":18124,"date":"2019/4/11 12:12:00","imageFilename":"69d7ef953399d7428bf145b8f0c5f048.jpeg","bigImageFilename":"4043fc488e20afbc63f28ff29431237c.jpeg","tags":["大","好身材"],"width":1199,"height":800},{"title":"你好","id":18122,"date":"2019/4/9 02:54:00","imageFilename":"97e5ce0a3639fb41d9db98d449d695a4.jpeg","bigImageFilename":"7837177dc52d2f5e4d4ec21e503f674a.jpeg","tags":["美"],"width":1200,"height":675},{"title":"雷蛇","id":18121,"date":"2019/4/8 05:46:00","imageFilename":"fa1361578be7decab10ac98a8e129f91.jpeg","bigImageFilename":"e11ecb9c0fe540397f1a6fbcde57a632.jpeg","tags":["大"],"width":600,"height":450},{"title":"小西装","id":18120,"date":"2019/4/8 05:24:00","imageFilename":"9def3f362ad5898abec529c62b22cb22.jpeg","bigImageFilename":"3cb6b6ce80b2641002b7ae7e87eacc8a.jpeg","tags":["好身材"],"width":682,"height":1024},{"title":"春游采花","id":18136,"date":"2019/4/18 06:31:00","imageFilename":"ab9824990f21f8aa903c38ac8a215fdd.jpeg","bigImageFilename":"b349954dfe6fac5aa03623161baa2af7.jpeg","tags":["在路上","美腿"],"width":600,"height":800},{"title":"Girls can do anything","id":18133,"date":"2019/4/17 07:02:00","imageFilename":"0f2ae8f53398cc0caf530a77d1dc2371.jpeg","bigImageFilename":"1d5c8ccb113a0b91a2b24c655ab9c745.jpeg","tags":["在路上","大"],"width":600,"height":938},{"title":"什么车","id":18132,"date":"2019/4/17 04:42:00","imageFilename":"e166aa9ea10530b2b7668dc7126708ad.jpeg","bigImageFilename":"852579b24d56af8a4e63748411ec5268.jpeg","tags":["美腿"],"width":1200,"height":900},{"title":"你选哪一个","id":18123,"date":"2019/4/11 02:20:00","imageFilename":"aad0383aa44b7a17044c4f10f0dcb54f.jpeg","bigImageFilename":"a25d5e39fcaf24493fba58969d1e15b3.jpeg","tags":["好身材","美腿"],"width":680,"height":1200},{"title":"健身间隙","id":18131,"date":"2019/4/16 13:38:00","imageFilename":"8e2b25b5f495ef2040c67638c7c3e47f.jpeg","bigImageFilename":"3864ac56054c21a0117677ba184c9bda.jpeg","tags":["大","好身材","美"],"width":1006,"height":1539},{"title":"多重","id":18130,"date":"2019/4/16 13:37:00","imageFilename":"9616010f2b53e4ec205c3ebfd0ba48e1.jpeg","bigImageFilename":"58a6037bac308ac943fe73f672f26808.jpeg","tags":["大","好身材","美","美腿"],"width":1080,"height":1440},{"title":"海风","id":18119,"date":"2019/4/8 04:51:00","imageFilename":"63ed4e187d63be518d77f38af7e18df8.jpeg","bigImageFilename":"6152fb3b590f23b39a4698977d1500d7.jpeg","tags":["好身材","美腿"],"width":960,"height":1200},{"title":"夜深了","id":18135,"date":"2019/4/18 03:39:00","imageFilename":"1204bd48a0f3de4e54b50a11fac2475c.jpeg","bigImageFilename":"81cfaec269968e405e3642c6321f33f7.jpeg","tags":["好身材"],"width":1200,"height":1200},{"title":"米老鼠","id":18128,"date":"2019/4/16 11:42:00","imageFilename":"8af2257db9946dc226ce6c0ab7bc5fcc.jpeg","bigImageFilename":"14e9c9f40cdc7bc080b22b975b16725e.jpeg","tags":["大","好身材","美腿"],"width":900,"height":1200},{"title":"榨汁机","id":18129,"date":"2019/4/16 11:43:00","imageFilename":"1b27e14e7b308b3b32cec5826f34371c.jpeg","bigImageFilename":"3bd8fef72c65978919f3c8fcc95aade7.jpeg","tags":["好身材","美腿","贵在真实"],"width":541,"height":961},{"title":"大汗淋漓","id":18118,"date":"2019/4/7 13:11:00","imageFilename":"891dc9c544bf8454f2e5faa0da22786b.jpeg","bigImageFilename":"3ddb33112c791b1396d943d8ab34eed9.jpeg","tags":["大","好身材"],"width":540,"height":876}],"allTags":["美腿","贵在真实","在路上","好身材","大","美","游客投稿","风景","趣图","欧美","害羞"]}