{"totalPage":66,"total":2356,"page":0,"pageSize":36,"list":[{"title":"百岁山","id":18669,"date":"2022/2/16 01:14:00","imageFilename":"1f71fc8cea496a2735b320a6b16e4a54.jpeg","bigImageFilename":"2ae2ed1ce3eab9e40e6fe9ae42a7fbdb.jpeg","tags":["美腿"]},{"title":"什么散热器","id":18754,"date":"2022/11/22 08:25:00","imageFilename":"6dbf177e83dd2cc28d13b712821a1b94.jpeg","bigImageFilename":"5febb2dcaa13a51e42b1286c8b20c235.jpeg","tags":["贵在真实"]},{"title":"春节快乐","id":18668,"date":"2022/1/31 09:37:00","imageFilename":"b39a53c6581ba6fc5aec8c99a8697cdd.jpeg","bigImageFilename":"57a6bf0d8a4b07efca476ae349ed1677.jpeg","tags":["在路上","好身材"]},{"title":"什么时候春暖花开","id":18670,"date":"2022/2/16 01:20:00","imageFilename":"87a53d9dd04f11e2bd9e1023631c5352.jpeg","bigImageFilename":"ba99e09151f86a595e88d52fc70d97dc.jpeg","tags":["贵在真实"]},{"title":"早餐","id":18755,"date":"2022/11/22 08:26:00","imageFilename":"2e3db481fa3864832864e0dedb3ddec0.jpeg","bigImageFilename":"1d10af7687d0398c1e077f8ff3d9d66e.jpeg","tags":["好身材"]},{"title":"你选哪个","id":18751,"date":"2022/10/29 10:08:00","imageFilename":"886207b7f11697088ba83070cdf2a6e7.jpeg","bigImageFilename":"15e4b6b90cbcd9dfcd6215658d6f931f.jpeg","tags":["美腿"]},{"title":"KENZO","id":18676,"date":"2022/3/18 05:11:00","imageFilename":"349dbd3ac5ee6945e05917160c7e4a0d.jpeg","bigImageFilename":"8915ad9583aefc7be4a6fda997ad7f19.jpeg","tags":["在路上","大","好身材"]},{"title":"MDAY","id":18749,"date":"2022/10/25 13:51:00","imageFilename":"e877e0a53644b1b72db033a91d7a2f18.jpeg","bigImageFilename":"6f367fa1e4ecb0644d61e7841f438d26.jpeg","tags":["美腿"]},{"title":"春天来了","id":18673,"date":"2022/3/11 05:03:00","imageFilename":"5130fe6150948c5f74301ca8672f2741.jpeg","bigImageFilename":"ae7545f0dd2e90a236e46d05640191b2.jpeg","tags":["美腿"]},{"title":"新内衣","id":18671,"date":"2022/2/20 10:34:00","imageFilename":"2810dca909542bca64c6d37fb7a77781.jpeg","bigImageFilename":"8bde4419947848710a280d9d462686c5.jpeg","tags":["大"]},{"title":"你选哪一个","id":18694,"date":"2022/3/28 08:46:00","imageFilename":"b52e4ecbe399e211795765cb37d7c810.jpeg","bigImageFilename":"b376dcb2bde975f9c4eab188a2e49966.jpeg","tags":["在路上","好身材","美腿"]},{"title":"台州","id":18757,"date":"2022/11/22 08:28:00","imageFilename":"4dccbd3d830ddf6c4f8c069393605ae4.jpeg","bigImageFilename":"29bb79fd989ee407b7ad2f7cf5828676.jpeg","tags":["大","好身材","美腿"]},{"title":"这是哪里","id":18756,"date":"2022/11/22 08:27:00","imageFilename":"94ca7cfc79b403cf88ec23bedc63ab11.jpeg","bigImageFilename":"05e911649fc2da5b9609c36bcaf93327.jpeg","tags":["好身材"]},{"title":"裙","id":18752,"date":"2022/11/3 15:28:00","imageFilename":"d08300036d9ea0e33c794563ccf69965.jpeg","bigImageFilename":"e63c559f4b3551b3e7acc5e0102c4886.jpeg","tags":["好身材"]},{"title":"午后","id":18674,"date":"2022/3/18 02:12:00","imageFilename":"ef054e889c8f3109af983250337040eb.jpeg","bigImageFilename":"4c91d02d5dfe29c0b46576e2ab116a43.jpeg","tags":["在路上","美腿"]},{"title":"去跑步","id":18672,"date":"2022/3/9 03:26:00","imageFilename":"b21ad78529aac5e348eaed4d99b3e583.jpeg","bigImageFilename":"b9f8f25ec45e00ca53b0302cf67fe441.jpeg","tags":["大","好身材"]},{"title":"优衣库","id":18750,"date":"2022/10/29 10:06:00","imageFilename":"9f7e08d45266cae057384dc888249925.jpeg","bigImageFilename":"dfe30164c9beb6a4d6d79a8b605c47fd.jpeg","tags":["好身材","美腿","贵在真实"]},{"title":"花","id":18675,"date":"2022/3/18 02:50:00","imageFilename":"57db52a81bac163482301b21a94655e0.jpeg","bigImageFilename":"cc78cf57b27e461b89c991e0099e1368.jpeg","tags":["美"]},{"title":"上车","id":18692,"date":"2022/3/28 08:45:00","imageFilename":"ac204340785e1e2049b15bc110bb4842.jpeg","bigImageFilename":"c2fb43f94030a1ff33a0def1cacac9cd.jpeg","tags":["在路上","好身材"]},{"title":"今晚吃玉米","id":18753,"date":"2022/11/3 15:29:00","imageFilename":"e9ee4c2f59c4df9f6eb6a6ed7dfa0d6c.jpeg","bigImageFilename":"23b482484c73d79f3d640c7cc0dc547b.jpeg","tags":["大"]},{"title":"看什么","id":18693,"date":"2022/3/28 08:46:00","imageFilename":"0574e71ee4422d6d8d532e2d231dfe96.jpeg","bigImageFilename":"17ada4fbb5110594ded6cb90c7cfcec9.jpeg","tags":["美"]},{"title":"怎么了","id":18690,"date":"2022/3/28 08:43:00","imageFilename":"6797d7152766c9b1fef26e81dc038de8.jpeg","bigImageFilename":"12418805af2011ac332d3a535a2d4aba.jpeg","tags":["好身材"]},{"title":"座椅","id":18691,"date":"2022/3/28 08:44:00","imageFilename":"ab206248cdb4b32dfddad3817f35f4e9.jpeg","bigImageFilename":"1c3d33f84cb78fa18a09ceb502b298b9.jpeg","tags":["大"]},{"title":"期待夏天","id":18689,"date":"2022/3/28 08:43:00","imageFilename":"6d2d359e9f0833cd361b81ef8cb28e84.jpeg","bigImageFilename":"d564231b02bbee1a3dbec4739fe566dc.jpeg","tags":["好身材","美腿"]},{"title":"喝点什么","id":18688,"date":"2022/3/28 08:42:00","imageFilename":"d5de576975e6d72e0feffcec38cdbae0.jpeg","bigImageFilename":"fa4951c7c89bf640b51d49c5cbc6bce1.jpeg","tags":["好身材"]},{"title":"背包","id":18687,"date":"2022/3/28 08:41:00","imageFilename":"be5cae0997bde57069aee0f74263bfe8.jpeg","bigImageFilename":"51fbd2021663844eda98304306f76085.jpeg","tags":["大"]},{"title":"牛仔裤","id":18686,"date":"2022/3/28 08:40:00","imageFilename":"bfe64ba63c636c76ede947c336380381.jpeg","bigImageFilename":"4b8c738655bdf4a66dc718da72c00daf.jpeg","tags":["大"]},{"title":"记得戴口罩","id":18667,"date":"2022/1/10 05:23:00","imageFilename":"8431a37d10060fc577fd61caeb345985.jpeg","bigImageFilename":"d61dcdbd401679f642da26dcc1ac8a7b.jpeg","tags":["美腿"]},{"title":"看","id":18666,"date":"2022/1/5 14:37:00","imageFilename":"b393c06997ad940fc1ab05a079499c06.jpeg","bigImageFilename":"7b11826f4c9b2447141fb21119f192f0.jpeg","tags":["在路上","好身材","美腿"]},{"title":"你选哪一个","id":18663,"date":"2022/1/5 14:29:00","imageFilename":"591328c749141c5b00af821f9b179403.jpeg","bigImageFilename":"2e31c46b403bddcacdb617e9a8c71fb8.jpeg","tags":["大","好身材"]},{"title":"今天很想念夏天","id":18662,"date":"2021/12/25 04:41:00","imageFilename":"0cc3d45e614aec6de83667b6789356a8.jpeg","bigImageFilename":"8461cffc0c37578a0e021391a9884ce0.jpeg","tags":["在路上"]},{"title":"重庆轨道上的女孩","id":18661,"date":"2021/12/17 01:36:00","imageFilename":"70ada55dfec6456709e497ab70e7fb79.jpeg","bigImageFilename":"fe02319d71f0743c93b420952b675a61.jpeg","tags":["在路上","贵在真实"]},{"title":"干啥呢","id":18660,"date":"2021/12/16 06:31:00","imageFilename":"573610f56b659353d0bfd4b0caa65aef.jpeg","bigImageFilename":"44366a7b08c6fac7fc275fddb5daa926.jpeg","tags":["大","好身材"]},{"title":"海浪","id":18665,"date":"2022/1/5 14:36:00","imageFilename":"53fb5974e04b9f7ec9b5ead04cc4614f.jpeg","bigImageFilename":"01daa1e4bf0f5b1bb0928cac14d3646b.jpeg","tags":["游客投稿"]},{"title":"nice","id":18664,"date":"2022/1/5 14:32:00","imageFilename":"65dbea4dc5f5039557894cf566decbe2.jpeg","bigImageFilename":"c7044b2a869f459b67d7ed339f627717.jpeg","tags":["大"]},{"title":"什么沙发","id":18659,"date":"2021/12/14 07:01:00","imageFilename":"3ff20e25e76b91b37b05fafc3c6fa6ae.jpeg","bigImageFilename":"6a5022b2909e1bae0fc852d70cfd276f.jpeg","tags":["美腿"]}]}