{"totalPage":66,"total":2356,"page":3,"pageSize":36,"list":[{"title":"M","id":18792,"date":"2023/3/7 00:48:00","imageFilename":"ea0f3b232027a3dbcfb2951f71095f3c.jpeg","bigImageFilename":"5667249db03ec26298b9c91cf1a1ff8a.jpeg","tags":["大"]},{"title":"筋膜枪","id":18776,"date":"2023/1/28 06:57:00","imageFilename":"00799dddf9a699520b33f45ce3ffbaf0.jpeg","bigImageFilename":"c48a24b25cceb9b2a26843b817dbefeb.jpeg","tags":["美腿"]},{"title":"弯腰","id":18791,"date":"2023/3/7 00:48:00","imageFilename":"eb26920d0f9591fb1babc2ac062e5170.jpeg","bigImageFilename":"7a736991b8cffe1b8387e5fb381f1788.jpeg","tags":["美腿"]},{"title":"看，飞机","id":18790,"date":"2023/3/2 02:15:00","imageFilename":"15295daf35fc4d9f439ed762b3f26a39.jpeg","bigImageFilename":"6f5d08d5b6726fea4b39689d9b718264.jpeg","tags":["趣图"]},{"title":"吃点什么","id":18789,"date":"2023/3/2 02:14:00","imageFilename":"03674f0917afe420c2e2f851dd624240.jpeg","bigImageFilename":"e7b40154cd7a279a3048ce2f41054497.jpeg","tags":["大"]},{"title":"阳光正好","id":18787,"date":"2023/2/28 14:32:00","imageFilename":"9bf66fa73945cb1a7eb4b99b4430d28d.jpeg","bigImageFilename":"a95e32eb75cd020bfe40690be256e821.jpeg","tags":["在路上"]},{"title":"蓝天白云","id":18788,"date":"2023/3/2 02:13:00","imageFilename":"b2a3c8cbc20d6cd8d5ee016e2934778a.jpeg","bigImageFilename":"0453b7bff4cddd4ad5152cab3c5c3e1b.jpeg","tags":["大","好身材","美腿"]},{"title":"开练","id":18785,"date":"2023/2/19 09:50:00","imageFilename":"16c84d4ada3409d9d7169225a75e3cba.jpeg","bigImageFilename":"48ec075ccd12ffe27c829da9ca639ada.jpeg","tags":["大","好身材"]},{"title":"准备下车","id":18786,"date":"2023/2/19 09:50:00","imageFilename":"32d2da197993ec41f1d1d1dffc966926.jpeg","bigImageFilename":"549229d93a9b0ad3de7d51fc3c460577.jpeg","tags":["在路上","大","好身材"]},{"title":"你选哪一个","id":18711,"date":"2022/6/7 12:31:00","imageFilename":"359988d55c93e92f3c354213744bd0d9.jpeg","bigImageFilename":"c5f2f959d0154802456e3fa22e55f80c.jpeg","tags":["大"]},{"title":"什么课","id":18712,"date":"2022/6/8 13:26:00","imageFilename":"5c619ece395a434c5d22d24acae917d8.jpeg","bigImageFilename":"43ca95e51fe6ef26aa709ae35350336f.jpeg","tags":["好身材"]},{"title":"和谁聊呢","id":18710,"date":"2022/6/7 12:31:00","imageFilename":"f7ac86c1ed21e8d061f1cc47ec4590a8.jpeg","bigImageFilename":"6322f5448d9172ce4cdd461defb48532.jpeg","tags":["好身材"]},{"title":"一身黑","id":18709,"date":"2022/6/7 10:37:00","imageFilename":"8f40938dab256e0f41a9d0dd6a3e6148.jpeg","bigImageFilename":"540d8cfd459d12e16eae3efb981f231b.jpeg","tags":["好身材"]},{"title":"调整下坐姿","id":18708,"date":"2022/6/4 08:05:00","imageFilename":"9a512b8baffc0456b0425ffc72bf79ef.jpeg","bigImageFilename":"704184d467f9c063e914c369d61a5255.jpeg","tags":["大"]},{"title":"有点热","id":18707,"date":"2022/4/13 13:50:00","imageFilename":"951805cd24d52fe6d2ff6c601221e16f.jpeg","bigImageFilename":"737d7997efe66472fead7d5cfa58319a.jpeg","tags":["美腿"]},{"title":"什么包","id":18706,"date":"2022/3/28 09:27:00","imageFilename":"a6545d92196539a739201b5fe5e3dc7d.jpeg","bigImageFilename":"e3f554ad00bae5c7bacd95143fb74646.jpeg","tags":["在路上","美腿"]},{"title":"省更多","id":18705,"date":"2022/3/28 09:12:00","imageFilename":"8b3c615c16eece924da7ddd3280ead0f.jpeg","bigImageFilename":"8b659ca37aa93d5b1121bbcd9bb6dfa6.jpeg","tags":["美腿"]},{"title":"醉","id":18704,"date":"2022/3/28 09:10:00","imageFilename":"5440877e52f2290417e2c07af261d6ce.jpeg","bigImageFilename":"cb456da82fc9b2e2d76031e80d9aa5c5.jpeg","tags":["大"]},{"title":"什么车","id":18730,"date":"2022/8/21 11:53:00","imageFilename":"257be26c3c766be29ee33a1ee2220844.jpeg","bigImageFilename":"76adac9170685f8bbdc2774c6edfb472.jpeg","tags":["大"]},{"title":"想啥呢","id":18729,"date":"2022/8/17 05:35:00","imageFilename":"7e21704a0996622617bf9a6b3edfe5e1.jpeg","bigImageFilename":"3f8cea18832f776ca9a4346aa616a074.jpeg","tags":["大"]},{"title":"晚上好","id":18728,"date":"2022/8/17 05:32:00","imageFilename":"6c00d4eade110474e4db62120857eb86.jpeg","bigImageFilename":"918bdab88ae1f55777acacfc5b485c77.jpeg","tags":["在路上","大"]},{"title":"喝点什么","id":18727,"date":"2022/8/8 05:46:00","imageFilename":"d87c3f7a0d15d0ba86b2a9ce60b554f7.jpeg","bigImageFilename":"ee1bbec37fbb13abcf5d4372e9944317.jpeg","tags":["大"]},{"title":"不错的作品","id":18725,"date":"2022/7/31 04:07:00","imageFilename":"dd9df1996e01f64fafabfb5217d818af.jpeg","bigImageFilename":"2eb958ca36c1c7b5527daa7a829037c5.jpeg","tags":["大","好身材"]},{"title":"什么手机","id":18724,"date":"2022/7/31 04:04:00","imageFilename":"158dea77029e39145edf2330043ec15a.jpeg","bigImageFilename":"ce9584f0b813a2c4443f106fa0993ffd.jpeg","tags":["好身材"]},{"title":"刚下过雨","id":18726,"date":"2022/8/3 05:50:00","imageFilename":"0cf0fe75d633b57f748729147b2da002.jpeg","bigImageFilename":"b3d5f3204e4f008f7095bdb5bede4539.jpeg","tags":["在路上"]},{"title":"什么医院","id":18722,"date":"2022/7/22 10:30:00","imageFilename":"18535d21ab0a942e50b93b0d0136d17d.jpeg","bigImageFilename":"6f711a138b6582a6a189bf315afb6577.jpeg","tags":["大"]},{"title":"来下山","id":18723,"date":"2022/7/31 04:02:00","imageFilename":"c00d188aa987261d8daec625ef15831b.jpeg","bigImageFilename":"57541125d352d7c0e94a32c16edc8150.jpeg","tags":["在路上"]},{"title":"今天好热","id":18640,"date":"2021/7/31 08:51:00","imageFilename":"dff8d8d2c5ed9c4620baa3e73bfbf2a2.jpeg","bigImageFilename":"c4be6e033866c87e4e413e8a204a9d2d.jpeg","tags":["贵在真实"]},{"title":"戴好口罩","id":18639,"date":"2021/7/31 04:56:00","imageFilename":"353f9a4c3412ece466673810a144aad4.jpeg","bigImageFilename":"ec33617396a390750ec8137de273cdac.jpeg","tags":["大"]},{"title":"饭后散步","id":18638,"date":"2021/7/28 03:18:00","imageFilename":"814731a343581fc862f04d9b1dcd9b6a.jpeg","bigImageFilename":"099f6aeeaaa7e2f877965ab8697f8bd4.jpeg","tags":["在路上"]},{"title":"你选哪一个","id":18637,"date":"2021/7/26 04:53:00","imageFilename":"c49c129850b7fce3bd5bc209b17a7560.jpeg","bigImageFilename":"522e8d5afcb23d4c0ea87a01e307962a.jpeg","tags":["好身材"]},{"title":"午后小憩","id":18635,"date":"2021/7/26 04:51:00","imageFilename":"97ac9f1f63d38af85d8fe53cf64b74d1.jpeg","bigImageFilename":"db0d7fa8dff41f5737b4a4201b08d94a.jpeg","tags":["美腿"]},{"title":"你选哪一个","id":18636,"date":"2021/7/26 04:53:00","imageFilename":"d0b1e5f9b9c50053046c2fc15b79f9e1.jpeg","bigImageFilename":"d2d124d7b5c0da698274977a8d3ee5db.jpeg","tags":["美腿"]},{"title":"胡萝卜","id":18633,"date":"2021/7/14 05:21:00","imageFilename":"28af5e12c7d0a1ce310a00caaf2d8ca8.jpeg","bigImageFilename":"69f7ed585ecd969cec6f49e43c716690.jpeg","tags":["大"]},{"title":"出发","id":18634,"date":"2021/7/19 06:17:00","imageFilename":"11ec98e9280b92da096961e29beb2ac9.jpeg","bigImageFilename":"883b759170d428ce56c3808deaab02b3.jpeg","tags":["好身材"]},{"title":"好吃吗","id":18632,"date":"2021/7/14 05:21:00","imageFilename":"3374d3eeea7a64be4baed4c589450aa8.jpeg","bigImageFilename":"b18a9c140b06c995b278ed7b9dbea4ce.jpeg","tags":["大"]}],"allTags":["美腿","贵在真实","在路上","好身材","大","美","游客投稿","风景","趣图","欧美","害羞"]}