{"totalPage":66,"total":2356,"page":56,"pageSize":36,"list":[{"title":"我想帮你拍照","id":4632,"date":"2016/2/12 21:47:00","imageFilename":"d6ded9710ea1c8d35f667729542cd75d.jpeg","bigImageFilename":"b3f697165ec872db2bd8c67fd22c04be.jpeg","tags":["好身材","贵在真实"],"width":480,"height":640},{"title":"吊坠陷进去了","id":4634,"date":"2016/2/12 21:48:00","imageFilename":"55241edc1d979ceb2e2b61bcc0b30e39.jpeg","bigImageFilename":"1a9f2ee82d0a2fe14b103f632379a361.jpeg","tags":["大"],"width":500,"height":375},{"title":"春节快乐","id":4628,"date":"2016/2/12 21:46:00","imageFilename":"1b3f8e5250f478baae1acd3a8734e7a0.jpeg","bigImageFilename":"6177367aba5bd7da9c795ad5bc0668c0.jpeg","tags":["大"],"width":604,"height":604},{"title":"好可爱的袜子","id":4630,"date":"2016/2/12 21:46:00","imageFilename":"6bc9480af4f2a49512920f74bd4f4a0d.jpeg","bigImageFilename":"00e7194a288dba3bce2bc043838ab0a2.jpeg","tags":["美腿"],"width":460,"height":613},{"title":"黑衣红裙","id":4624,"date":"2016/2/12 21:45:00","imageFilename":"e1d181ec16e56000c384402cfe1bcd21.jpeg","bigImageFilename":"6f7dc56180666b5bcbab6ff6dd20353c.jpeg","tags":["好身材"],"width":500,"height":500},{"title":"运动装备","id":4626,"date":"2016/2/12 21:46:00","imageFilename":"50222dbb9ab90055c3f8074abb6ecac7.jpeg","bigImageFilename":"869e2b3cc2326b1d387422b6979afd60.jpeg","tags":["大"],"width":500,"height":513},{"title":"准备去锻炼","id":4622,"date":"2016/2/12 21:45:00","imageFilename":"731f45fafbecbf3c4f7cb1d878316295.jpeg","bigImageFilename":"b597c1a8cafbad4f573717b9d4e06e87.jpeg","tags":["大","好身材"],"width":500,"height":360},{"title":"出发去海滩","id":4620,"date":"2016/2/12 21:44:00","imageFilename":"028c11f606d0ea3e4e1579589a9ce611.jpeg","bigImageFilename":"f7baae0f7aac3ea2bf9f8a5a52372ba2.jpeg","tags":["好身材"],"width":500,"height":500},{"title":"中国结","id":4618,"date":"2016/2/12 21:44:00","imageFilename":"abbe1c005940ccfc76ff550459695db6.jpeg","bigImageFilename":"049e25669e78e090d45cac3ce57337d9.jpeg","tags":["好身材"],"width":500,"height":707},{"title":"少一件衣服","id":4616,"date":"2016/2/12 21:43:00","imageFilename":"4ab85f98a546c49f46296fb8c02099a6.jpeg","bigImageFilename":"8c5bcefc3e72db8d22a8f19336d84f3b.jpeg","tags":["贵在真实"],"width":500,"height":1167},{"title":"条纹装","id":4614,"date":"2016/2/12 21:42:00","imageFilename":"f80e238f84a14e1c7aed945622484934.jpeg","bigImageFilename":"d0ae3cc76e62b473a7aeb7d1d40eda5c.jpeg","tags":["大"],"width":500,"height":666},{"title":"运动装","id":4612,"date":"2016/2/12 21:42:00","imageFilename":"c35dc2e54c0ab86de3362e887553c312.jpeg","bigImageFilename":"b62bef96994da7252b2694901fa11b26.jpeg","tags":["大","好身材"],"width":500,"height":496},{"title":"什么项链","id":4610,"date":"2016/2/12 21:41:00","imageFilename":"d57a4bdc587bb6cc1216cbbcc3caa655.jpeg","bigImageFilename":"3e73a5efaca79a428b214f904c0fd083.jpeg","tags":["在路上","大"],"width":500,"height":619},{"title":"这样出门合适不","id":4608,"date":"2016/2/12 21:41:00","imageFilename":"60c0d5f50f06f892cda910557dd3af30.jpeg","bigImageFilename":"d2345ba2b48e03e3212f853f2c92333c.jpeg","tags":["好身材","美腿"],"width":500,"height":638},{"title":"准备出去玩","id":4606,"date":"2016/2/12 21:39:00","imageFilename":"111dfcb610ee9ff630b68208a54920b1.jpeg","bigImageFilename":"2dd7f6fc458022425505bdfbaa68e5fe.jpeg","tags":["好身材"],"width":500,"height":500},{"title":"什么花","id":4602,"date":"2016/2/12 21:38:00","imageFilename":"383e4220d0328050cdbeae4881270e20.jpeg","bigImageFilename":"faf5b0b4265c463f3a012dc0420eeeba.jpeg","tags":["在路上"],"width":500,"height":666},{"title":"黑裙","id":4604,"date":"2016/2/12 21:39:00","imageFilename":"2fd492abc3eab2669fe91835d714d275.jpeg","bigImageFilename":"caa52bf4bff3a844f7a6e4c2e1d2c303.jpeg","tags":["大","好身材"],"width":500,"height":500},{"title":"等车开","id":4526,"date":"2016/2/4 16:19:00","imageFilename":"37fdd69a2dd9be52a75193cb10f7bca7.jpeg","bigImageFilename":"270e7b155ad002114edb1c8f7cfed953.jpeg","tags":["在路上","美腿"],"width":580,"height":772},{"title":"过年回家","id":4502,"date":"2016/2/2 13:18:00","imageFilename":"72f2a5b1a7a1b96a912f413077d79cb0.jpeg","bigImageFilename":"98327eb3707a47cf15d1d99d0c68a314.jpeg","tags":["在路上","好身材","美腿"],"width":511,"height":768},{"title":"选个好坐姿","id":4498,"date":"2016/2/2 13:13:00","imageFilename":"bb13c1a9720120197498f63a4e5599d9.jpeg","bigImageFilename":"9393813278c6426efc821f6320215979.jpeg","tags":["在路上","美腿"],"width":704,"height":1056},{"title":"年会style","id":4484,"date":"2016/2/1 15:49:00","imageFilename":"7b7ad9c18ac0059f0e742c23e141ede8.jpeg","bigImageFilename":"0d3d790aaec2c80b25915d83924bff7a.jpeg","tags":["好身材"],"width":604,"height":804},{"title":"手机和电脑可以兼得","id":4439,"date":"2016/1/28 14:54:00","imageFilename":"8f1cb8a89b8192bf5dc828abe1759e06.jpeg","bigImageFilename":"38621542be0ab45bdac70cd8d97d2573.jpeg","tags":["美腿"],"width":804,"height":804},{"title":"going down","id":4424,"date":"2016/1/27 14:00:00","imageFilename":"f94ca169eade4ccc6902a3946c2815f2.jpeg","bigImageFilename":"943376b5e9967012358c1c9adbaf52a9.jpeg","tags":["好身材","美腿"],"width":960,"height":1280},{"title":"大海夕阳渔船晚霞","id":4417,"date":"2016/1/27 13:48:00","imageFilename":"fe9ca35ed3435e31e8add50ca358cd96.jpeg","bigImageFilename":"9e4c122b9dfadb2cfa2220c578ea884c.jpeg","tags":["风景"],"width":1000,"height":1333},{"title":"蓝天白云公路","id":4414,"date":"2016/1/27 13:36:00","imageFilename":"476c636de8ab6d367143cf138c92ba6d.jpeg","bigImageFilename":"defb965c91f9bb8cb9b666b409c25692.jpeg","tags":["风景"],"width":1008,"height":1344},{"title":"灯好亮","id":4421,"date":"2016/1/27 13:58:00","imageFilename":"ce6d586e7a8722d3b3e0a8613a805266.jpeg","bigImageFilename":"0338503366867e192e2e3290f4b418cb.jpeg","tags":["在路上"],"width":2448,"height":2448},{"title":"公交车上玩手机对眼睛不好","id":4342,"date":"2016/1/21 16:54:00","imageFilename":"a474ecdcd0b1b49d12c30b92d85f9222.jpeg","bigImageFilename":"c3fe4aaa006ecf593cf06cd2cd6aeae7.jpeg","tags":["在路上","大","好身材","美腿"],"width":512,"height":768},{"title":"楼梯的光影","id":4411,"date":"2016/1/27 13:34:00","imageFilename":"10bcc98a9cb897ed694a8e26a0e06b7c.jpeg","bigImageFilename":"12c1598d574e2e63851d5544ff75ecbe.jpeg","tags":["美腿"],"width":3024,"height":4032},{"title":"爱读书的姑娘","id":4295,"date":"2016/1/17 20:41:00","imageFilename":"e76df18c1f4df9abd9e403225f6c5f76.jpeg","bigImageFilename":"454e95f49f2eca4b874fee66c21d33c4.jpeg","tags":["好身材"],"width":496,"height":851},{"title":"扣子是被解开的么","id":4297,"date":"2016/1/17 21:19:00","imageFilename":"dc781cd200bacfb6c356b5dbf87d764b.jpeg","bigImageFilename":"18dbdf36083a78fab56796651be9b8cd.jpeg","tags":["大"],"width":2448,"height":2448},{"title":"这是什么相机","id":4254,"date":"2016/1/14 21:35:00","imageFilename":"ae7478a9cd2af56135381dd037d65752.jpeg","bigImageFilename":"660c5ce8cdd65c53370723abb055e9c8.jpeg","tags":["好身材"],"width":600,"height":854},{"title":"骑车出去玩","id":4293,"date":"2016/1/17 20:36:00","imageFilename":"3728391a2df0e378ff301784229b71c3.jpeg","bigImageFilename":"7589a03b40b2da03164a33857bd22fe1.jpeg","tags":["在路上","美"],"width":850,"height":1280},{"title":"举起手来","id":4245,"date":"2016/1/14 13:09:00","imageFilename":"2abf0299a4763b1cb5d7423eeac91d87.jpeg","bigImageFilename":"712bd8005a57cef11dc2136bf58d3284.jpeg","tags":["大","好身材"],"width":532,"height":532},{"title":"理发师看什么呢","id":4197,"date":"2016/1/11 08:03:00","imageFilename":"7294b1f1cb6a9025765b79cb28c8cf1f.jpeg","bigImageFilename":"17491b6eceb9b6bceb42f0a6a097f1e0.jpeg","tags":["大"],"width":361,"height":480},{"title":"有点胖，但是我喜欢","id":4291,"date":"2016/1/17 19:59:00","imageFilename":"e233a5f20acd905f6fe19b7d2a1396ca.jpeg","bigImageFilename":"a23bfba14c11ef57bdb353cf518f8810.jpeg","tags":["大"],"width":2448,"height":2448},{"title":"腿上放的是啥","id":4172,"date":"2016/1/9 19:29:00","imageFilename":"939c59242cf0e6544840b0511948c75f.jpeg","bigImageFilename":"5b4b816fcaa7c629135e99e7f45a9c4c.jpeg","tags":["在路上","大"],"width":540,"height":540}],"allTags":["美腿","贵在真实","在路上","好身材","大","美","游客投稿","风景","趣图","欧美","害羞"]}