{"totalPage":66,"total":2356,"page":64,"pageSize":36,"list":[{"title":"手刹拉到底容易坏","id":1257,"date":"2015/10/3 20:58:00","imageFilename":"7f59260e4975727529894c780ceb0f5c.jpeg","bigImageFilename":"e1c3abc09b4106e1b2539a4c27e6267c.jpeg","tags":["在路上"],"width":600,"height":800},{"title":"后面是啥","id":1253,"date":"2015/10/3 20:50:00","imageFilename":"369c701c324afade656d55280cac3fda.jpeg","bigImageFilename":"906df3111ae7d938f460d22e2d126a6c.jpeg","tags":["美"],"width":600,"height":600},{"title":"窗外风景不错","id":292,"date":"2015/7/2 09:38:00","imageFilename":"2f918627c7c1e2ef5a7a7ad804e2dc50.jpeg","bigImageFilename":"9132e531695c8df1861917c9a80afe6b.jpeg","tags":["好身材","美腿"],"width":603,"height":803},{"title":"好多电源线","id":288,"date":"2015/6/29 19:04:00","imageFilename":"f072d7d5ccaa7f703c4874218127cbc0.jpeg","bigImageFilename":"43f2f0970ac08606897b2cc5e5f7662e.jpeg","tags":["好身材","美腿"],"width":604,"height":909},{"title":"一身黑衣","id":299,"date":"2015/7/6 13:26:00","imageFilename":"bbbd87cee0ccd3044ec1ed123fb93749.jpeg","bigImageFilename":"621a4f7391ff4c07f964bc57e835fd7f.jpeg","tags":[],"width":720,"height":1280},{"title":"好困","id":276,"date":"2015/6/15 15:27:00","imageFilename":"bc870962898337e1ee820a911c13c4a8.jpeg","bigImageFilename":"1a672d2c448798ca753aff69dcb71a69.jpeg","tags":["在路上","好身材"],"width":658,"height":877},{"title":"这是什么项目","id":270,"date":"2015/6/11 08:27:00","imageFilename":"fa77c1b635749bed5cf085d843c2fb1e.jpeg","bigImageFilename":"bb50c1b7eb11573c9b7a73ea738b37f3.jpeg","tags":["好身材"],"width":640,"height":960},{"title":"沙发不错","id":266,"date":"2015/6/3 14:41:00","imageFilename":"156f3ffee44fff566a2924af5343e349.jpeg","bigImageFilename":"6bf0738242847d6e42eecba25dc8290a.jpeg","tags":["大","好身材"],"width":604,"height":804},{"title":"树叶挺好看的","id":259,"date":"2015/5/27 16:14:00","imageFilename":"6191acec4a03afcaa5efd0aa5a2525f1.jpeg","bigImageFilename":"eee991f30be71d5d576be7e0bd6b2258.jpeg","tags":["风景"],"width":388,"height":529},{"title":"插线板真乱","id":253,"date":"2015/5/27 08:10:00","imageFilename":"1f6a8c7e355f4209e1c0c202a80f69e4.jpeg","bigImageFilename":"070b66f4048143db212c9ffac4dbcc4c.jpeg","tags":["好身材"],"width":404,"height":628},{"title":"摘的是草莓吗","id":262,"date":"2015/5/27 22:59:00","imageFilename":"50c8282d5eb89b93f8d885ab1c109ef6.jpeg","bigImageFilename":"3f4245a077b3d8872b037720d24a8f18.jpeg","tags":["大","好身材"],"width":599,"height":799},{"title":"项链不错","id":250,"date":"2015/5/27 08:08:00","imageFilename":"a376d03520764f2eaee3876ce8bd244a.jpeg","bigImageFilename":"42da51b73b64cf20d0b2133cf2dbc331.jpeg","tags":["好身材"],"width":720,"height":960},{"title":"好长的筷子","id":241,"date":"2015/5/18 14:15:00","imageFilename":"d7ebab166f082d1faeba2ea1674fd6ae.jpeg","bigImageFilename":"2c3aef4be16c9357e5b1d5bc84b3580a.jpeg","tags":["好身材"],"width":1140,"height":856},{"title":"男人喜欢买菜的原因","id":247,"date":"2015/5/25 10:25:00","imageFilename":"e76f187144152aa7d4b3aa0b95ff2a63.jpeg","bigImageFilename":"80bed064c3c34631ae43b5f7bcf0c4f1.jpeg","tags":["在路上"],"width":600,"height":820},{"title":"喝的是啥呢","id":237,"date":"2015/5/18 10:46:00","imageFilename":"4789ec2ce05072d3cf4cd03f2f853dc7.jpeg","bigImageFilename":"5220de29b32ccf8855c609b95466094d.jpeg","tags":["好身材"],"width":544,"height":724},{"title":"玩WOW还是玩腿","id":233,"date":"2015/4/28 18:27:00","imageFilename":"9132b4bf08f93edca5cdbd3a640f27fa.jpeg","bigImageFilename":"32c9f0e0ee8e5d5b72dc1c36ec78f8fd.jpeg","tags":["趣图"],"width":860,"height":1168},{"title":"我只能说太棒了","id":220,"date":"2015/4/10 18:07:00","imageFilename":"642788d4473418c901eba05a850171a5.jpeg","bigImageFilename":"3d32e9b2087a0112d738728e1c7a3c23.jpeg","tags":["好身材"],"width":597,"height":744},{"title":"波涛汹涌","id":211,"date":"2015/3/30 18:38:00","imageFilename":"7d292afd885c5fef69bf2bedf9fd0e5c.jpeg","bigImageFilename":"a903df90119e69e8523f09a31fb07abc.jpeg","tags":["大","好身材"],"width":504,"height":672},{"title":"这是什么酒","id":203,"date":"2015/3/30 10:42:00","imageFilename":"425e14983e52e691c9de8c380c6adc59.jpeg","bigImageFilename":"3323d417a1615e83d208a85f8b87a360.jpeg","tags":["好身材","美腿"],"width":603,"height":799},{"title":"瘦白大","id":207,"date":"2015/3/30 16:55:00","imageFilename":"d3c7a1d682a85261cae8e336cf24e75c.jpeg","bigImageFilename":"3989b78a8786d4bd229cb7c9b56a0476.jpeg","tags":["好身材"],"width":604,"height":805},{"title":"酒窝女","id":199,"date":"2015/3/20 14:04:00","imageFilename":"8eb57eb0cdb758ad4151e58c1a15bbfc.jpeg","bigImageFilename":"7134d4aaf6fe399b56d06dfc2db515d0.jpeg","tags":["好身材"],"width":604,"height":805},{"title":"春天来了","id":195,"date":"2015/3/16 13:30:00","imageFilename":"8d66c0ade5b7073ac96daae60f4b2121.jpeg","bigImageFilename":"638a9011aeb546dc05b26850681fa43c.jpeg","tags":["在路上","好身材","美腿"],"width":319,"height":480},{"title":"mba?","id":191,"date":"2015/3/13 13:22:00","imageFilename":"f35d24bb3d5bbce8494a0ec782084390.jpeg","bigImageFilename":"a70724193db8fe1b076df931698c4b10.jpeg","tags":["在路上"],"width":604,"height":604},{"title":"眼神很魅惑","id":183,"date":"2015/2/26 17:23:00","imageFilename":"eec8ad51349d2ebefdbeed5db12b45aa.jpeg","bigImageFilename":"68b8d646a91b6206293ec0c63d31c4b8.jpeg","tags":["好身材"],"width":603,"height":904},{"title":"这个姿势不错","id":179,"date":"2015/2/26 11:13:00","imageFilename":"e191da77282ca89365d81254338fd426.jpeg","bigImageFilename":"35305fcd3fae3ba8b008119f784416ee.jpeg","tags":["好身材","美腿"],"width":604,"height":774},{"title":"恭喜发财，红包拿来","id":175,"date":"2015/2/22 23:15:00","imageFilename":"69d114d72eb1021a5d828e4ca9819101.jpeg","bigImageFilename":"380d0d4a3e13230f33330450fdd87f91.jpeg","tags":["美腿"],"width":427,"height":598},{"title":"给谁打电话呢","id":170,"date":"2015/2/16 19:12:00","imageFilename":"22d78254968c0d6cb94e4f670da9f67d.jpeg","bigImageFilename":"7dd626c30872c204752dd18cefa9282c.jpeg","tags":["美腿"],"width":690,"height":1227},{"title":"自行车闸坏了怎么修？","id":166,"date":"2015/2/12 14:12:00","imageFilename":"97c50057020e7b0edba7412c5a5aeab1.jpeg","bigImageFilename":"02011415ee792ad3f64181d1a12174e5.jpeg","tags":["趣图"],"width":540,"height":720},{"title":"好虔诚的姑娘","id":164,"date":"2015/2/4 15:21:00","imageFilename":"b551f4ae04ef3d0c831e627b48d30386.jpeg","bigImageFilename":"d6b339ecac44357e72eff926eb549282.jpeg","tags":["好身材","趣图"],"width":604,"height":604},{"title":"谁想成为这只大熊","id":152,"date":"2015/1/19 11:17:00","imageFilename":"42ae1985c86637c7208609cfcb89d851.jpeg","bigImageFilename":"692a74f29a10fad5d0cc2f5f3d1cf705.jpeg","tags":["美腿"],"width":604,"height":836},{"title":"这沙发是什么品牌的","id":143,"date":"2015/1/4 10:35:00","imageFilename":"3dade5e07ca07ce7d1db36bdde728134.jpeg","bigImageFilename":"dbde292134501145b4366d2ea2aad89c.jpeg","tags":["好身材"],"width":383,"height":657},{"title":"减肥成果show","id":156,"date":"2015/1/21 13:35:00","imageFilename":"19669a7cc1877ccc79000e4dbead0f13.jpeg","bigImageFilename":"518fd642d46b327aeeb7ca14a0bef8d1.jpeg","tags":["好身材"],"width":504,"height":1028},{"title":"夕阳无限好","id":128,"date":"2014/11/20 14:06:00","imageFilename":"2344a9ff9cbfe7ae493111d82f11024e.jpeg","bigImageFilename":"105c3fefa814b80747ba67cd1157c29e.jpeg","tags":["好身材","风景"],"width":603,"height":403},{"title":"这项链提供不错的","id":141,"date":"2014/12/18 13:39:00","imageFilename":"ac3b7e342bbc592d1b61498e55d47163.jpeg","bigImageFilename":"e5e5c182ea3e2457a0b8169bd553e74e.jpeg","tags":["好身材","趣图"],"width":444,"height":590},{"title":"这是什么手机","id":133,"date":"2014/12/8 11:00:00","imageFilename":"54e157fbc9a259499a9b2de0c5624bc9.jpeg","bigImageFilename":"929fb3eea1e8ca458b567e8e83c41009.jpeg","tags":["美腿"],"width":542,"height":723},{"title":"论身材对女人气质的影响","id":124,"date":"2014/11/18 16:46:00","imageFilename":"754c1db69219f71a383451550db5227f.jpeg","bigImageFilename":"e83723e36556b38fb3bf1f4276f6faf5.jpeg","tags":["趣图"],"width":604,"height":949}],"allTags":["美腿","贵在真实","在路上","好身材","大","美","游客投稿","风景","趣图","欧美","害羞"]}