{"totalPage":66,"total":2356,"page":54,"pageSize":36,"list":[{"title":"什么牌子牛仔裤","id":5495,"date":"2016/4/25 21:22:00","imageFilename":"532e3c3d080cddf58503c16ce594db37.jpeg","bigImageFilename":"e6f0d6ba6ba5d8a6bf18a79d94e49945.jpeg","tags":["好身材","贵在真实"]},{"title":"头发恰到好处","id":5483,"date":"2016/4/24 14:03:00","imageFilename":"0bfc07def64475e43f6fe19ba5b7067b.jpeg","bigImageFilename":"9510f6a57eec671c2e7e4b75d12470a0.jpeg","tags":["大","好身材","贵在真实"]},{"title":"一起跑步吧","id":5480,"date":"2016/4/24 10:22:00","imageFilename":"c7981498f57346875f43b5581e69cf98.jpeg","bigImageFilename":"2db11135b21966c0a089fe2540ed8c0f.jpeg","tags":["美腿"]},{"title":"好长的镜子","id":5478,"date":"2016/4/24 10:21:00","imageFilename":"cbb6a1efc4edc9c4072af39de7a97af4.jpeg","bigImageFilename":"e50309ebbb76fe6e39ee10caf6c65eb5.jpeg","tags":["好身材","美腿"]},{"title":"女人都喜欢公仔","id":5476,"date":"2016/4/24 10:14:00","imageFilename":"94ae25a4e6487cd7a39185474345b925.jpeg","bigImageFilename":"3f83fb2187e720e2b0f8c11ba1cf424a.jpeg","tags":["美腿"]},{"title":"你选哪一个","id":5472,"date":"2016/4/24 10:13:00","imageFilename":"db02f754c78ade937ed32e1e5af52d81.jpeg","bigImageFilename":"305833be21f903b9a6eabfd746c976eb.jpeg","tags":["在路上"]},{"title":"好奇是什么发型","id":5464,"date":"2016/4/23 23:15:00","imageFilename":"63653b7fbe5f5c1c16e9eba7d19c44e9.jpeg","bigImageFilename":"9c69a0b4f91f46f1bc9678edc4de41be.jpeg","tags":["大","贵在真实"]},{"title":"圆不","id":5460,"date":"2016/4/23 23:13:00","imageFilename":"ba0cd60eefe476667edf16cd25d677fa.jpeg","bigImageFilename":"da035679a0e85554c0184fd0ec129d9a.jpeg","tags":["好身材"]},{"title":"去跑步","id":5362,"date":"2016/4/11 16:25:00","imageFilename":"9fc7b06904078151e41e6ab64a1441fd.jpeg","bigImageFilename":"4b79fdce19210b60dfa0c721100fd8cc.jpeg","tags":["好身材"]},{"title":"郊游去","id":5313,"date":"2016/4/7 08:18:00","imageFilename":"b9b0216c659cd55f990669f202f85c79.jpeg","bigImageFilename":"610323751eed56032c374c1c358bc2b5.jpeg","tags":["在路上","好身材","美腿"]},{"title":"夏天来了","id":5311,"date":"2016/4/7 08:13:00","imageFilename":"e8bdd8aa0047c2e2fefd74652b432ff2.jpeg","bigImageFilename":"61b99013b14fdf6c5d224397c81d21e0.jpeg","tags":["大","好身材"]},{"title":"麻花辫","id":5309,"date":"2016/4/7 08:11:00","imageFilename":"0875b483aced59eab70cb465640a1d34.jpeg","bigImageFilename":"6e25448ad6c21844d17eb4ea3e452505.jpeg","tags":[]},{"title":"是刚取下的吗","id":5307,"date":"2016/4/7 08:10:00","imageFilename":"dfcd196b4888d6d2b0625c005ea5f7c4.jpeg","bigImageFilename":"63ad848805a02d65eacfb3b3bd3534d0.jpeg","tags":["美腿"]},{"title":"毛线材质？","id":5303,"date":"2016/4/7 08:06:00","imageFilename":"5173bce6e5e75dd2a9c4dd28c1a91673.jpeg","bigImageFilename":"e45fd2cddf34d9022d1fe939bac37754.jpeg","tags":["大"]},{"title":"喝的啥","id":5249,"date":"2016/3/30 23:16:00","imageFilename":"2ec1d096cafc622af3565455d4c2098b.jpeg","bigImageFilename":"419478a1dfe9767a03bb0bca7068e09d.jpeg","tags":["美腿","贵在真实"]},{"title":"黑色的夜","id":5261,"date":"2016/3/31 17:06:00","imageFilename":"a1e0dc81ef1ba52b62b217bf10083aaa.jpeg","bigImageFilename":"b7557d4e790d1a2d0a5e9c2bcbb6a881.jpeg","tags":["美腿"]},{"title":"上课有点累","id":5247,"date":"2016/3/30 23:15:00","imageFilename":"b8a4fa5932d8b8c73d0c9d3f6f1373f4.jpeg","bigImageFilename":"e18752c672b08b6141fca54b2d205cbe.jpeg","tags":["美腿"]},{"title":"怎么还没到","id":5245,"date":"2016/3/30 23:14:00","imageFilename":"4d6a520b5d41269ca084728e9582e3ff.jpeg","bigImageFilename":"f2f2f66d404450862f4e7d9abe1948e6.jpeg","tags":["在路上"]},{"title":"白衣仔裤","id":5243,"date":"2016/3/30 23:12:00","imageFilename":"f5f48b943e2e0d61ec0ea04576d5770c.jpeg","bigImageFilename":"84e7aebd954b4e5ccb33c48e4590e542.jpeg","tags":["大"]},{"title":"拉链容易坏","id":5235,"date":"2016/3/30 21:16:00","imageFilename":"454c994469aa668f3e05613b28c8736e.jpeg","bigImageFilename":"35a1cd5ef359da0df78da42bec174ec2.jpeg","tags":["大"]},{"title":"晚上吃凉拌黄瓜","id":5214,"date":"2016/3/28 16:48:00","imageFilename":"f713f8f7f6d0417d9fc56424c72258d9.jpeg","bigImageFilename":"71ecc36105d8b47b4c24a8bc16681333.jpeg","tags":["好身材","美腿"]},{"title":"被发现了","id":5210,"date":"2016/3/28 16:45:00","imageFilename":"8650b8b6b561d58d89f221d685b0fd11.jpeg","bigImageFilename":"5a6c76bce65dbd9bbc9f71456b3fa450.jpeg","tags":["在路上","美腿"]},{"title":"热起来了","id":5205,"date":"2016/3/28 10:12:00","imageFilename":"d2244d5c559a62f09da418c1fca19cde.jpeg","bigImageFilename":"542df2a10493062980d4a9561b5e3a8e.jpeg","tags":["在路上"]},{"title":"夏天快来吧","id":5146,"date":"2016/3/22 10:17:00","imageFilename":"de3a6c4d78dff8a61aa173422af62baa.jpeg","bigImageFilename":"a42f6f47b37d9b5e7ef0a8cef317f8ef.jpeg","tags":["在路上","好身材","美腿"]},{"title":"回眸一笑","id":5125,"date":"2016/3/20 16:44:00","imageFilename":"965350d53ddfbe5ec2ab7960f9707f20.jpeg","bigImageFilename":"4a2347ba4752866dc8a1c3bf9377bb7d.jpeg","tags":["在路上","大","好身材"]},{"title":"红灯停绿灯行","id":5122,"date":"2016/3/20 13:13:00","imageFilename":"8c2d0c5160341ca800e4759739866e07.jpeg","bigImageFilename":"207d3a74847c0bac231234a2558dde74.jpeg","tags":["在路上","大","好身材"]},{"title":"丝袜的季节","id":5094,"date":"2016/3/16 21:59:00","imageFilename":"53ced788f4d632572062137b9b17976d.jpeg","bigImageFilename":"1458f89c94e2b0929c921e289a23d034.jpeg","tags":["在路上","美腿"]},{"title":"彩色毛衣","id":5152,"date":"2016/3/22 10:21:00","imageFilename":"f21ca961f5c405e8f186f11fb8630f74.jpeg","bigImageFilename":"2cee949cbad6a4de88e9847a5c2794e0.jpeg","tags":["好身材"]},{"title":"艺术气息","id":5083,"date":"2016/3/15 22:17:00","imageFilename":"31ab9c63ad5ed2602d8907c8fe8d5ed1.jpeg","bigImageFilename":"9b6f68cef693a4fca333f05717e82a76.jpeg","tags":["好身材"]},{"title":"准备出发","id":5056,"date":"2016/5/8 10:10:00","imageFilename":"544358f93bfebc8d5f7af0efc36ada71.jpeg","bigImageFilename":"c5f5f55d3b4b0587b77d5de33afe716f.jpeg","tags":["游客投稿"]},{"title":"看什么那","id":5053,"date":"2016/3/13 15:44:00","imageFilename":"a3751e4d59599b5b6a8d61a2ea0c2b4c.jpeg","bigImageFilename":"385bb833e270c0ed5544336bc532b92d.jpeg","tags":["大"]},{"title":"女人永远缺一双鞋子","id":5049,"date":"2016/3/13 15:39:00","imageFilename":"3dac7a37d8cef7f7268c2d138c1ef8f1.jpeg","bigImageFilename":"ffe484eeb47350db3201147c37590d69.jpeg","tags":["好身材"]},{"title":"出门穿上衣服","id":5039,"date":"2016/3/12 17:14:00","imageFilename":"bfd91807b7dfa8a999884449cfa14572.jpeg","bigImageFilename":"3d056f6d3cb64d693ee912423d35c2b0.jpeg","tags":["大"]},{"title":"这是什么车","id":5030,"date":"2016/3/10 14:04:00","imageFilename":"6b62792c821585e01499c2140aa0785d.jpeg","bigImageFilename":"49f2fb824f179ed272c03c561e868031.jpeg","tags":["在路上","大"]},{"title":"先喝点东西","id":4990,"date":"2016/3/6 14:59:00","imageFilename":"c901c27274ac59826f326ded00aecfee.jpeg","bigImageFilename":"e70a2bec080e49d9cf95b1999132b08b.jpeg","tags":["大","好身材"]},{"title":"黑白花裙子","id":4987,"date":"2016/3/6 14:42:00","imageFilename":"f0cc1e6acc58706a3e6ba6a2392fb9d5.jpeg","bigImageFilename":"bcac9962c513bb403666d9f250cb19ef.jpeg","tags":["美"]}],"allTags":["美腿","贵在真实","在路上","好身材","大","美","游客投稿","风景","趣图","欧美","害羞"]}