{"totalPage":66,"total":2356,"page":59,"pageSize":36,"list":[{"title":"什么车","id":3877,"date":"2016/1/1 15:36:00","imageFilename":"47262a1fe0eb51751fb5436eec162ebe.jpeg","bigImageFilename":"aa51177d73a9a1545cb63ab7f3156c08.jpeg","tags":["美腿","贵在真实"]},{"title":"下面吃","id":3873,"date":"2016/1/1 15:34:00","imageFilename":"1165dc752761aa986ef92cd544f59ba0.jpeg","bigImageFilename":"8a285bc67f08bcdf872a57d08d31e534.jpeg","tags":["贵在真实"]},{"title":"好吃不","id":3875,"date":"2016/1/1 15:35:00","imageFilename":"e204db5cc7e1b59915ffb36b6a7bae0d.jpeg","bigImageFilename":"931259289d48fbdf9d388723e30c08a3.jpeg","tags":["贵在真实"]},{"title":"什么水","id":3833,"date":"2015/12/31 22:54:00","imageFilename":"be143a6bac54d2a05db79fef40e6ea55.jpeg","bigImageFilename":"fa8cc685036c30e915fec1dc62d5f9fb.jpeg","tags":["大","好身材"]},{"title":"草地都黄了","id":3871,"date":"2016/1/1 15:34:00","imageFilename":"027d9dd2754645575474510128b8b9a1.jpeg","bigImageFilename":"840bf81a8b79786f6d9b5966327e4843.jpeg","tags":["美腿"]},{"title":"大船","id":3830,"date":"2015/12/31 22:12:00","imageFilename":"7d4b7a69f1836bd209bfa0275c15c2c5.jpeg","bigImageFilename":"6044b89d04993d23533d2b6261406db6.jpeg","tags":["在路上"]},{"title":"老师我错了","id":3824,"date":"2015/12/31 17:35:00","imageFilename":"d994cef89b8092e6bf29a29c5ca2f939.jpeg","bigImageFilename":"e278a464eff7d013df2bddcc80c4df80.jpeg","tags":["美","美腿"]},{"title":"今天起的早","id":3819,"date":"2015/12/31 09:05:00","imageFilename":"7d8e18247f1e2e57f9917589eb368dca.jpeg","bigImageFilename":"f05f395fe05fdd0cdfa28f5678194ef3.jpeg","tags":["在路上","美腿"]},{"title":"朝阳","id":3817,"date":"2015/12/31 09:04:00","imageFilename":"2bd795180ade221bc52998ec6b6778f8.jpeg","bigImageFilename":"e941e06a2fbb7a9565899e378753238c.jpeg","tags":["在路上","好身材"]},{"title":"姑娘你衣服滑了","id":3815,"date":"2015/12/31 09:04:00","imageFilename":"413f7b14ca5ec3b15316c4ab0635ec2a.jpeg","bigImageFilename":"9a7ebeeb8b673f5ac41a2c6ff7b2c6bf.jpeg","tags":["在路上","贵在真实"]},{"title":"远处的撞衫","id":3813,"date":"2015/12/31 09:03:00","imageFilename":"2e09da3baaf49cd117e6637182b0b13b.jpeg","bigImageFilename":"814836df6c1c8c36c2820bb403f47d5f.jpeg","tags":["在路上","美腿"]},{"title":"纹的是啥","id":3811,"date":"2015/12/31 09:03:00","imageFilename":"53eb9b052f7fba4c7c9c02da64aae765.jpeg","bigImageFilename":"ee991e12631cf526f2ca802045cb11e2.jpeg","tags":["好身材"]},{"title":"今天地铁人不多","id":3803,"date":"2015/12/31 09:02:00","imageFilename":"6fdcc621f952006574187981714e37af.jpeg","bigImageFilename":"8b0a655c19ea2ac67689f1134cad36b5.jpeg","tags":["在路上","好身材","贵在真实"]},{"title":"认真练习","id":3791,"date":"2015/12/30 19:56:00","imageFilename":"3447bc9d667a475c87dea2504ae72f43.jpeg","bigImageFilename":"9cbeb3cead25d66ef11ace7f3f0cf439.jpeg","tags":["好身材"]},{"title":"沙发好软","id":3784,"date":"2015/12/30 13:06:00","imageFilename":"9fa319fca13df13118aee9ece9d5b4e1.jpeg","bigImageFilename":"bb9b3439233e399aa126586cce57de13.jpeg","tags":["美腿"]},{"title":"水","id":3778,"date":"2015/12/30 08:52:00","imageFilename":"0a34fe627e26e17683b983d97af331e6.jpeg","bigImageFilename":"cdd834b5e8e7bacd47d0d1ed2ea4ca61.jpeg","tags":["美"]},{"title":"我觉得不太真实","id":3766,"date":"2015/12/29 18:17:00","imageFilename":"5585b5076677607695384cf3f1b8960b.jpeg","bigImageFilename":"b01fb8a4908c5feda6b6410c6601bad1.jpeg","tags":["大"]},{"title":"烈焰红唇","id":3720,"date":"2015/12/27 22:22:00","imageFilename":"915f5b46f50565241b1f7921f52032a3.jpeg","bigImageFilename":"cb49f3e91bf1da4aaff03dac96495c6a.jpeg","tags":["在路上","好身材"]},{"title":"哆啦A梦手机套","id":3742,"date":"2015/12/28 23:06:00","imageFilename":"1469f718db40d71b9250d6765f2a8cbb.jpeg","bigImageFilename":"71582aafc938de708aae1fc82a8c2bef.jpeg","tags":["美腿"]},{"title":"吃早饭","id":3718,"date":"2015/12/27 22:19:00","imageFilename":"4ced5b39d2399f77fdced0fa8ae4385f.jpeg","bigImageFilename":"ac117b424d1940818016edbcc4a5de14.jpeg","tags":["好身材","美"]},{"title":"回酒店","id":3716,"date":"2015/12/27 22:19:00","imageFilename":"9f8cc146e8305614376094f047ec29dc.jpeg","bigImageFilename":"a9021495897d5703d9fb48080d1e6e2c.jpeg","tags":["好身材"]},{"title":"小朋友内裤很卡通","id":3711,"date":"2015/12/27 22:18:00","imageFilename":"84fcdcee155d768dff41ac06a8a2d0fd.jpeg","bigImageFilename":"43e351f75c2b31f5fad1f8019fe5d743.jpeg","tags":["好身材"]},{"title":"海风吹","id":3708,"date":"2015/12/27 21:51:00","imageFilename":"d7cc5f38f8a90bfe9390cc4e44f45eaa.jpeg","bigImageFilename":"cbc4582a06ce0dadbf0de980f356573b.jpeg","tags":["好身材","美"]},{"title":"沙滩上小朋友好可爱","id":3705,"date":"2015/12/27 21:47:00","imageFilename":"72df816cf9b602da6b1573d78760f8ff.jpeg","bigImageFilename":"94ed89c0c4d8f1897d125e18ebf01e82.jpeg","tags":["在路上","好身材","美"]},{"title":"去沙滩的路上","id":3702,"date":"2015/12/27 21:46:00","imageFilename":"0340db4cf3b28f16b2835785d2fbc68c.jpeg","bigImageFilename":"ab00500fca3fb8e10454d91a3eb30980.jpeg","tags":["在路上","好身材","美"]},{"title":"记着带上外套","id":3586,"date":"2015/12/21 21:06:00","imageFilename":"b143d1262e0df6cad6d47854f6143746.jpeg","bigImageFilename":"1127c68ed0971fd6a7cb68028fc90868.jpeg","tags":["好身材"]},{"title":"这是什么项目","id":3583,"date":"2015/12/21 21:04:00","imageFilename":"64626ed716e9afa6c5c99121ae3ae7f4.jpeg","bigImageFilename":"f53289856067f8e2528defee9ee55a00.jpeg","tags":["好身材"]},{"title":"出发去沙滩","id":3699,"date":"2015/12/27 21:45:00","imageFilename":"6a461983ec3a9aed7b2f05700cba2293.jpeg","bigImageFilename":"829a89279bd85f6aee787f41fc2b93b0.jpeg","tags":["在路上","好身材","美"]},{"title":"沙滩上人有点多","id":3580,"date":"2015/12/21 21:03:00","imageFilename":"f3f39d78a244b0c735366e3c60b11e90.jpeg","bigImageFilename":"41a9a840f7d14e36b8e9ef9b17401c03.jpeg","tags":["好身材","美腿"]},{"title":"条纹裙","id":3573,"date":"2015/12/21 20:59:00","imageFilename":"0116c2eb0fc00c2f574eacef61d2344d.jpeg","bigImageFilename":"30ad93a4a8ffebfd42511e9ec12877b3.jpeg","tags":["好身材","美腿"]},{"title":"又要加班了","id":3649,"date":"2015/12/23 23:00:00","imageFilename":"4d574fe5b100ec56216be447863b72bf.jpeg","bigImageFilename":"84caeab9c1e8b1f8b2859992eac312f0.jpeg","tags":["美腿"]},{"title":"看，树叶都黄了","id":3570,"date":"2015/12/21 20:58:00","imageFilename":"22994ed59b23db6f8aa62342db75ecf4.jpeg","bigImageFilename":"20cc85058f8572f7512dbedee786f13a.jpeg","tags":["在路上","风景"]},{"title":"秋日","id":3567,"date":"2015/12/21 20:57:00","imageFilename":"6680d9787205eae3c4503ee1f9758971.jpeg","bigImageFilename":"b890069c042533d9c0840c80b5753204.jpeg","tags":["美腿"]},{"title":"风扇不错","id":3564,"date":"2015/12/21 20:55:00","imageFilename":"48db68316553f8a715a73f4ed3261d05.jpeg","bigImageFilename":"fc479516ca04cbfa9cc3473966870481.jpeg","tags":["贵在真实"]},{"title":"买鸭脖去","id":3561,"date":"2015/12/21 20:52:00","imageFilename":"656c5ea2837d77084ad62d48faa2c927.jpeg","bigImageFilename":"2ac9b02549e3287976679b1a30d693ba.jpeg","tags":["在路上","美腿"]},{"title":"什么颜色的","id":3558,"date":"2015/12/21 20:49:00","imageFilename":"85d81c3218f44a22c56af9c3931828d3.jpeg","bigImageFilename":"57f862d01b66ecb801c629635d05a384.jpeg","tags":["大","好身材"]}],"allTags":["美腿","贵在真实","在路上","好身材","大","美","游客投稿","风景","趣图","欧美","害羞"]}