{"totalPage":66,"total":2356,"page":28,"pageSize":36,"list":[{"title":"温泉水","id":17793,"date":"2018/12/29 10:39:00","imageFilename":"b3ab18cb696c2253445bad428c2b3350.jpeg","bigImageFilename":"4cc2d00aa159e02eff6a08bd57168568.jpeg","tags":["好身材"],"width":1200,"height":800},{"title":"你可以吗","id":17792,"date":"2018/12/29 06:53:00","imageFilename":"f28601da6782814ce996b1d60b77b59b.jpeg","bigImageFilename":"b5b51afab26b10aa3aee8ac3e715b0dc.jpeg","tags":["好身材"],"width":818,"height":1024},{"title":"还记得未名湖畔吗","id":17791,"date":"2018/12/29 05:01:00","imageFilename":"670689b01f336f242f296c39c705bbb9.jpeg","bigImageFilename":"be103cba0c107f7c616cf73ea668f9b8.jpeg","tags":["好身材","美腿"],"width":600,"height":867},{"title":"车刚过去","id":17789,"date":"2018/12/29 04:43:00","imageFilename":"82b1201405711696b8e108ef55d6113f.jpeg","bigImageFilename":"0a510ac7206a3b6dc745476712ea6009.jpeg","tags":["在路上","大"],"width":960,"height":1200},{"title":"候车室","id":17790,"date":"2018/12/29 04:44:00","imageFilename":"a6b47528ebb57cd061072ce840aace01.jpeg","bigImageFilename":"42c9720226fd41ba3e4c4dce8ef60cd5.jpeg","tags":["美腿"],"width":902,"height":1200},{"title":"商务座","id":17788,"date":"2018/12/29 04:43:00","imageFilename":"cb7a2046bbb8c36b21793c1fff88803e.jpeg","bigImageFilename":"e0cb79332fd8cb38871a9bd19a8483e7.jpeg","tags":["好身材","贵在真实"],"width":960,"height":1200},{"title":"想健身了","id":17787,"date":"2018/12/29 04:42:00","imageFilename":"90ab041adc5113a0793434ed6192cf8b.jpeg","bigImageFilename":"ec144794ed3572677130cdad8a92605c.jpeg","tags":["大","好身材"],"width":902,"height":1200},{"title":"清新的空气","id":17786,"date":"2018/12/29 02:52:00","imageFilename":"10752c9b7d2b1cbfe1aff2952cb3449a.jpeg","bigImageFilename":"f0265370d62c04f9a1510989b1e977d0.jpeg","tags":["好身材"],"width":1042,"height":1200},{"title":"你选哪一个","id":17785,"date":"2018/12/28 04:56:00","imageFilename":"16a53acfd73a5b054b10d6c23b6445a8.jpeg","bigImageFilename":"c57b115a665bdefba0cfef59a595fdbc.jpeg","tags":["美腿"],"width":600,"height":800},{"title":"来杯咖啡","id":17784,"date":"2018/12/28 04:50:00","imageFilename":"08422dd5a3b6bb92edf83275aae6c388.jpeg","bigImageFilename":"db91bb8296ffddb597798ae7d62631be.jpeg","tags":["好身材"],"width":1080,"height":1116},{"title":"这是几号线","id":17782,"date":"2018/12/28 03:49:00","imageFilename":"25a30ab71420d67ab634921fa2b501e7.jpeg","bigImageFilename":"8f9bf9dc4ee5619fb6c35106dd2ba6eb.jpeg","tags":["在路上","美腿"],"width":720,"height":960},{"title":"阳光正好","id":17783,"date":"2018/12/28 04:42:00","imageFilename":"7f9c1e26c85872f603a8d294e4c1d547.jpeg","bigImageFilename":"9041c4a4e4e26214f04538a910043278.jpeg","tags":["美腿"],"width":800,"height":1200},{"title":"年会时间","id":17780,"date":"2018/12/27 08:25:00","imageFilename":"44f89a824b252fce9e6160686110e5e4.jpeg","bigImageFilename":"eb7172997836a46f651995ccf1079afc.jpeg","tags":["贵在真实"],"width":600,"height":778},{"title":"胖大星","id":17781,"date":"2018/12/27 09:04:00","imageFilename":"27d216ac5fff5547ed2001d7739b78eb.jpeg","bigImageFilename":"5d37d3dda6cda0836f989c0ee621ccf8.jpeg","tags":["好身材"],"width":755,"height":1200},{"title":"伸展","id":17779,"date":"2018/12/27 08:03:00","imageFilename":"514e6e1012230ced498c74ae1ea85a8c.jpeg","bigImageFilename":"b7271588ff750820a04e34fbf8ef6499.jpeg","tags":["好身材"],"width":730,"height":1199},{"title":"腿是冻红的吗","id":17777,"date":"2018/12/27 05:12:00","imageFilename":"6f5849e6a706449be1583996c0a23d80.jpeg","bigImageFilename":"c3c28fe2f684522a0c71160f2ffbe169.jpeg","tags":["美腿","贵在真实"],"width":600,"height":425},{"title":"低难度","id":17778,"date":"2018/12/27 08:03:00","imageFilename":"3b494d220dd9a8df9a308b73fae4d80b.jpeg","bigImageFilename":"abbe8637e6dae8117fe9d4b9c44c722d.jpeg","tags":["好身材"],"width":1200,"height":503},{"title":"宽衣解带","id":17776,"date":"2018/12/26 06:54:00","imageFilename":"648d45407cda9fc86a45bbf444f768bf.jpeg","bigImageFilename":"026e9036d48d4390b33deafed4e4fb1a.jpeg","tags":["好身材"],"width":600,"height":920},{"title":"茶","id":17765,"date":"2018/12/24 08:53:00","imageFilename":"3c4ef691d4e767a3048ce09ed3017148.jpeg","bigImageFilename":"30c5b99dd2e7911449138483760edc5d.jpeg","tags":["美"],"width":682,"height":1024},{"title":"小区绿化不错","id":17766,"date":"2018/12/25 05:00:00","imageFilename":"cdabc493e9a2ae7afd4722ba655b00ca.jpeg","bigImageFilename":"d13791b3ecee5cf7de9d9b9583a77b36.jpeg","tags":["大"],"width":1080,"height":1079},{"title":"好看不","id":17764,"date":"2018/12/22 15:02:00","imageFilename":"60127caee34ec9ead8f458191ea62c50.jpeg","bigImageFilename":"9908a8361098a42470915f53424e757d.jpeg","tags":["美"],"width":960,"height":1200},{"title":"放松","id":17763,"date":"2018/12/22 14:11:00","imageFilename":"b25d8efa8aa8416691f0246382460059.jpeg","bigImageFilename":"12e9d70b26e9201b3601c77199538072.jpeg","tags":["好身材","美"],"width":960,"height":1200},{"title":"秀发","id":17762,"date":"2018/12/22 14:10:00","imageFilename":"f093f3b947f1b669d9622e9f8b0196db.jpeg","bigImageFilename":"ea19052d9d23c427d108e15cd242c183.jpeg","tags":["好身材"],"width":960,"height":1200},{"title":"Coming","id":17761,"date":"2018/12/22 13:47:00","imageFilename":"0e3abc10aa751d4835863a24be766473.jpeg","bigImageFilename":"fa585d43664a465bef576482b5ee6871.jpeg","tags":["美腿"],"width":500,"height":748},{"title":"凉爽","id":17759,"date":"2018/12/22 13:45:00","imageFilename":"ec4f43450d2f25cdc21c9248dad47fd7.jpeg","bigImageFilename":"277c3a2429e1a315b902ccf5c3967d55.jpeg","tags":["好身材","美","美腿"],"width":960,"height":1291},{"title":"别晒着","id":17758,"date":"2018/12/22 13:43:00","imageFilename":"5c527389598b95ebc42f693e16d0f3d1.jpeg","bigImageFilename":"9445379345cc023eaf085b72a7f1b106.jpeg","tags":["在路上","美腿"],"width":500,"height":666},{"title":"风轻云淡","id":17760,"date":"2018/12/22 13:47:00","imageFilename":"efe0752de3ca323772d2934d753ad7bb.jpeg","bigImageFilename":"7af693334318defa0cb671eb2535c644.jpeg","tags":["美腿","贵在真实"],"width":500,"height":666},{"title":"十字架吊坠","id":17774,"date":"2018/12/26 04:46:00","imageFilename":"c7a7b11afc1d62b51ec8e6a87fddbc72.jpeg","bigImageFilename":"24a6ba6e44efe6d69f076cfe65b18860.jpeg","tags":["大"],"width":1080,"height":1080},{"title":"生日快乐","id":17775,"date":"2018/12/26 04:47:00","imageFilename":"a04a9dad66c7832a4bcf35e49583c89d.jpeg","bigImageFilename":"ccfccc219cc4eaafddb81408c1a84fe2.jpeg","tags":["美","风景"],"width":960,"height":1200},{"title":"去坐车","id":17773,"date":"2018/12/26 04:44:00","imageFilename":"e85e0b553d159bc185601f5a45a90021.jpeg","bigImageFilename":"36fd85f216a342cbd6cd625e1c1cc274.jpeg","tags":["在路上"],"width":774,"height":1200},{"title":"要坚持运动","id":17772,"date":"2018/12/25 10:46:00","imageFilename":"0059b4f328860f10009cadaed066339b.jpeg","bigImageFilename":"2e5bf3f2f644a2349fb9213a4de21c07.jpeg","tags":["大"],"width":964,"height":1200},{"title":"圣诞快乐","id":17771,"date":"2018/12/25 09:49:00","imageFilename":"ee4dda72fbaa7b90d1b97fe1f7f8c953.jpeg","bigImageFilename":"abb5904cef53928efef9e056193c67c4.jpeg","tags":["趣图"],"width":1200,"height":1046},{"title":"喝点","id":17770,"date":"2018/12/25 08:15:00","imageFilename":"c1cf0503d570be6aa96acb6286b5b184.jpeg","bigImageFilename":"eb8e8fc05257f0c9805a923db3a7ba28.jpeg","tags":["好身材","贵在真实"],"width":860,"height":860},{"title":"圣诞快乐","id":17769,"date":"2018/12/25 07:01:00","imageFilename":"a96c49bb795969eee3e13ea830fbc266.jpeg","bigImageFilename":"49cd97542a64480e804b33b4978fe195.jpeg","tags":["好身材"],"width":1008,"height":1200},{"title":"什么花","id":17768,"date":"2018/12/25 06:58:00","imageFilename":"8ac6f0dd5000622631f35fccc4b9a587.jpeg","bigImageFilename":"c61e4f278485ea04ad17ca0f35229b01.jpeg","tags":["大"],"width":1055,"height":1200},{"title":"daddy","id":17748,"date":"2018/12/22 13:12:00","imageFilename":"bcc53c60564f8a8cdaa35cca5e55d736.jpeg","bigImageFilename":"fcc1e1af2cc939111e900f7d946deeb2.jpeg","tags":["大"],"width":1080,"height":805}],"allTags":["美腿","贵在真实","在路上","好身材","大","美","游客投稿","风景","趣图","欧美","害羞"]}