{"totalPage":66,"total":2356,"page":22,"pageSize":36,"list":[{"title":"纹的什么","id":18028,"date":"2019/2/25 09:33:00","imageFilename":"4640cfe061e8a89cbdb7d6539f56dc36.jpeg","bigImageFilename":"8a580cd36858d0968a3ba1e7f02be514.jpeg","tags":["大","好身材"]},{"title":"丰盛的早餐","id":18027,"date":"2019/2/22 09:26:00","imageFilename":"7ba51d55eb286e605c069a8421e2b11f.jpeg","bigImageFilename":"420d6f7e7eb6e38b167996a5c1381991.jpeg","tags":["大"]},{"title":"你选哪一个","id":18026,"date":"2019/2/20 09:20:00","imageFilename":"8cf0b3be2c3fff137b65be9d8a2105db.jpeg","bigImageFilename":"2e8d0d38b6ba89595025f1b4a0edf2ce.jpeg","tags":["在路上","美腿"]},{"title":"元宵节快乐","id":18025,"date":"2019/2/20 04:48:00","imageFilename":"fd7ff72f8604eae3418d7bdc995632a2.jpeg","bigImageFilename":"d28d83db0ab54fcee1007b3c0b9d91c1.jpeg","tags":["好身材","美腿"]},{"title":"白雪公主","id":18024,"date":"2019/2/19 10:16:00","imageFilename":"35b3b07ee1b3793c3416df9d13b9172f.jpeg","bigImageFilename":"3d7a4d9ab322b5b17decc8705e96f2e1.jpeg","tags":["美腿"]},{"title":"清晨遛狗","id":18022,"date":"2019/2/19 02:33:00","imageFilename":"fececf724fef63988bfb1e5be941f0dd.jpeg","bigImageFilename":"1e74a19eb205a2ed77cfff35c8f11cd3.jpeg","tags":["在路上","美腿"]},{"title":"有点懵","id":18023,"date":"2019/2/19 05:54:00","imageFilename":"6cc82cc062818ea3feb98e225e3c835c.jpeg","bigImageFilename":"cbbd49eda8812be214d99bf5770e20ce.jpeg","tags":["大"]},{"title":"俯身","id":18021,"date":"2019/2/18 10:43:00","imageFilename":"a3e19703c8aed0da685b663085ca3af8.jpeg","bigImageFilename":"a30ac492990093412794aded4805a665.jpeg","tags":["好身材","美腿"]},{"title":"哪座桥","id":18001,"date":"2019/2/15 05:14:00","imageFilename":"628c0c20ee4add478b90c42b51d0a06d.jpeg","bigImageFilename":"93713124152f4843ed249354328c5cda.jpeg","tags":["好身材"]},{"title":"小鹿","id":18020,"date":"2019/2/18 10:33:00","imageFilename":"49a31a160bb7d31553a12d94aacfb666.jpeg","bigImageFilename":"b8923bea82345a4a7897d4f576f53956.jpeg","tags":["大"]},{"title":"夏天快来","id":18000,"date":"2019/2/15 05:11:00","imageFilename":"7214a06c46e00c673e0dce0ee2a9ede1.jpeg","bigImageFilename":"efedeb8cffc52fa593dbbba2b45ea52f.jpeg","tags":["美腿"]},{"title":"花裙子","id":17999,"date":"2019/2/15 05:08:00","imageFilename":"8ab46aafe6527f754d5508ef5e618751.jpeg","bigImageFilename":"924db854008d76be924facc9aba70492.jpeg","tags":["美腿"]},{"title":"这是什么车","id":17998,"date":"2019/2/15 02:56:00","imageFilename":"f426b67ec2f6e340e11acaf296131134.jpeg","bigImageFilename":"ae847dcb1aec81af22f32eb9808e2df0.jpeg","tags":["美腿"]},{"title":"放松一下","id":17997,"date":"2019/2/15 02:56:00","imageFilename":"a5ce7eee54f70f26d1edfc6b77587d57.jpeg","bigImageFilename":"6015b4e6ce25555b4320fe04fbfbb853.jpeg","tags":["美腿"]},{"title":"竟然有人光膀子","id":17996,"date":"2019/2/14 07:48:00","imageFilename":"2a2666ec17e6643aaab7f8adc0cfcf3a.jpeg","bigImageFilename":"5e2780bb908a1f84350e59a5760e329a.jpeg","tags":["大","好身材"]},{"title":"去植物园","id":17995,"date":"2019/2/14 07:48:00","imageFilename":"35814fdde9f74b60175c1f60d09bb046.jpeg","bigImageFilename":"526d81329210f9ef3e213cf313c1b549.jpeg","tags":["大","好身材"]},{"title":"你选哪一个","id":17994,"date":"2019/2/14 05:26:00","imageFilename":"842b3ef651504cf5c8ce1db499748b61.jpeg","bigImageFilename":"4c64b9546be1ca6af42ba1cf87bd7f25.jpeg","tags":["大","好身材"]},{"title":"元气满满的一天开始了","id":17993,"date":"2019/2/14 01:29:00","imageFilename":"8e55f2e39400c304d2f80ffb537bd922.jpeg","bigImageFilename":"2cfd52fbb8a7228ab1805cddd409ff49.jpeg","tags":["大"]},{"title":"卸下装备","id":17992,"date":"2019/2/13 03:38:00","imageFilename":"866972bdc5797f0b2812de352f676fb5.jpeg","bigImageFilename":"93e99643fca84b961319da9055f4abe1.jpeg","tags":["大","好身材"]},{"title":"小心火车","id":17991,"date":"2019/2/13 01:52:00","imageFilename":"5d4a7b3aa300d3ff9c525b4b62b7dd23.jpeg","bigImageFilename":"9068948e6f6d75619a0c0c6b7a4b6bfb.jpeg","tags":["在路上"]},{"title":"上车","id":17990,"date":"2019/2/10 13:49:00","imageFilename":"3d360eb0bb200d03ca3bd7219d3991de.jpeg","bigImageFilename":"35a3a13e200df88471e1d549f65e0a95.jpeg","tags":["美腿"]},{"title":"还有雨伞呢","id":17989,"date":"2019/2/10 13:48:00","imageFilename":"105044c800c71f1c1547cf7786553ab2.jpeg","bigImageFilename":"6dd78c2c4917c5d646b8a01489e5c843.jpeg","tags":["美腿"]},{"title":"OhYeah","id":17987,"date":"2019/1/30 09:43:00","imageFilename":"ede9c2ea19aca2c5b0580d6b322f83cb.jpeg","bigImageFilename":"85ad3e5164553077e352a61b54e1b203.jpeg","tags":["好身材","贵在真实"]},{"title":"猜猜什么车","id":17986,"date":"2019/1/30 06:23:00","imageFilename":"30723bb498f82422356e199466de2880.jpeg","bigImageFilename":"1e0970d140411e9d2b949d4a88af31dd.jpeg","tags":["美腿"]},{"title":"坚持健身","id":17988,"date":"2019/1/30 09:44:00","imageFilename":"f82652a6527c61e6c433e2504547f03c.jpeg","bigImageFilename":"0d95c6d1a9bb5f111cbd6d33a79da01e.jpeg","tags":["好身材","美腿"]},{"title":"困不困","id":17984,"date":"2019/1/29 13:47:00","imageFilename":"23177806ca420e06b5c169fdbd8ea157.jpeg","bigImageFilename":"b0b5322803255d9ceeca3a4eb6e62278.jpeg","tags":["大"]},{"title":"风轻云淡","id":17985,"date":"2019/1/29 13:48:00","imageFilename":"a8831086a9f06b2d31908c18a680afbc.jpeg","bigImageFilename":"d36e626ea0702434d73851c5b47dd110.jpeg","tags":["大","好身材","美","风景"]},{"title":"晒太阳","id":17983,"date":"2019/1/29 13:47:00","imageFilename":"19d65e2f41ab777662fea6dc4c282530.jpeg","bigImageFilename":"1d2531f6926afdbfb5ea44c092dd57e8.jpeg","tags":["大","好身材"]},{"title":"喝点什么","id":17982,"date":"2019/1/29 13:46:00","imageFilename":"ffa743bfe537e819f492e86bcdfa27e2.jpeg","bigImageFilename":"80c1eb322376e1dddb13933ef9a121bb.jpeg","tags":["贵在真实"]},{"title":"旗袍有点短","id":17981,"date":"2019/1/29 13:46:00","imageFilename":"06cb946432393a06e732cde1b224ab5f.jpeg","bigImageFilename":"9e2a823dd3db0c9c88e93b7b804fbf9b.jpeg","tags":["大","好身材","美腿"]},{"title":"徐老师","id":17980,"date":"2019/1/29 13:29:00","imageFilename":"d39bd9ce7defe0cc869cf63401a78530.jpeg","bigImageFilename":"d2d9ab2b6216622fd9f1d9b5595ed81a.jpeg","tags":[]},{"title":"什么车","id":17978,"date":"2019/1/29 11:48:00","imageFilename":"e186c62cbb84e6aac15215137082bfb9.jpeg","bigImageFilename":"55bfb93a1235c9d5acbd5aa8e06e36e8.jpeg","tags":["在路上","好身材","美腿"]},{"title":"什么字","id":17977,"date":"2019/1/29 11:47:00","imageFilename":"fdde76429f21d3abae98fc1889b9c840.jpeg","bigImageFilename":"454d4f853bd003245e2fcef146343f3a.jpeg","tags":["好身材","美腿"]},{"title":"舒服的沙发床","id":17979,"date":"2019/1/29 11:48:00","imageFilename":"23beb7bd5f7f87f61f739ebb769cd4e3.jpeg","bigImageFilename":"05eb5b3fa8b70b7269acccc7c1b9689c.jpeg","tags":["美腿"]},{"title":"不要松手哦","id":17976,"date":"2019/1/29 11:46:00","imageFilename":"ae136e9984ea2bcf53e3925f59e31131.jpeg","bigImageFilename":"2cd0049f7f524b50722e8c0e7257e546.jpeg","tags":["大","好身材"]},{"title":"运动鞋","id":17973,"date":"2019/1/28 15:08:00","imageFilename":"ede10ec14e0c1b75c29493754cf180bc.jpeg","bigImageFilename":"6e9dc23d3c5d1de04b4108a706c67760.jpeg","tags":["好身材","美腿"]}]}