{"totalPage":66,"total":2356,"page":57,"pageSize":36,"list":[{"title":"漂亮的钱包","id":4380,"date":"2016/1/23 21:04:00","imageFilename":"8987de79884c6b3dd0b16f7b31c48206.jpeg","bigImageFilename":"b2c09e71bdcfda0f0c8b956f994f4c25.jpeg","tags":["在路上","好身材","美腿"],"width":298,"height":651},{"title":"旋转木马","id":4406,"date":"2016/1/27 09:56:00","imageFilename":"f725ca1b987705c0e222c93043a2488e.jpeg","bigImageFilename":"28dd70a2c22e789fd59caf9cffd9dca7.jpeg","tags":["好身材","美腿"],"width":640,"height":853},{"title":"好多鞋子","id":4376,"date":"2016/1/23 21:03:00","imageFilename":"368da7fa84878f2f2801f4fca37c6fb5.jpeg","bigImageFilename":"39659991920f082cb5059b76d8c12b10.jpeg","tags":["好身材"],"width":640,"height":640},{"title":"天开始转暖了","id":4395,"date":"2016/1/25 20:57:00","imageFilename":"e3b2e83fab88a9eb2777408f5d79f465.jpeg","bigImageFilename":"2f26597acd4dca48bb29776d08af5c33.jpeg","tags":["在路上","美腿"],"width":468,"height":709},{"title":"走慢点","id":4353,"date":"2016/1/21 23:23:00","imageFilename":"95d2d26b2077fa8f932f538cc290d7a4.jpeg","bigImageFilename":"66b18f903616d1c3187a8f8cc76437de.jpeg","tags":["在路上","好身材"],"width":500,"height":500},{"title":"好长的吊坠","id":4351,"date":"2016/1/21 23:22:00","imageFilename":"ae4521545ff13f370f2824ec78910a39.jpeg","bigImageFilename":"257625f4d49df8b412e57df6720bcd2a.jpeg","tags":["大"],"width":581,"height":775},{"title":"别害羞","id":4349,"date":"2016/1/21 23:21:00","imageFilename":"3a3b49c4d62fb7a6e138750d332f97d3.jpeg","bigImageFilename":"1d2cab15136329d166e320d50b1abc48.jpeg","tags":["害羞","风景"],"width":600,"height":800},{"title":"加的什么滤镜","id":4347,"date":"2016/1/21 23:20:00","imageFilename":"bab1564451e81a3ba9014ae43fa4b5f0.jpeg","bigImageFilename":"12c672d0b85b3304ea3137f5e02c9bd2.jpeg","tags":["美腿"],"width":768,"height":1024},{"title":"腿不细","id":4345,"date":"2016/1/21 23:19:00","imageFilename":"471d717b4f9c714e15140bdf62456e03.jpeg","bigImageFilename":"ef3ba6f3b5305fc813b9d7f68ab1ec46.jpeg","tags":["大"],"width":1835,"height":2075},{"title":"看什么看","id":4085,"date":"2016/1/3 22:45:00","imageFilename":"eb4a33f978ec0789a872951e924c7079.jpeg","bigImageFilename":"72b9dc447d40c56fd8dda83eaf658f74.jpeg","tags":["美","美腿"],"width":680,"height":1026},{"title":"醉是那一抹红","id":4083,"date":"2016/1/3 22:45:00","imageFilename":"545e32b504e5317f595eaf406b5cf058.jpeg","bigImageFilename":"0e38ecb02106bd30d9de5e54bf0b8bd7.jpeg","tags":["美"],"width":730,"height":1102},{"title":"划船机","id":4081,"date":"2016/1/3 22:44:00","imageFilename":"b562cdc4030cf6cf2b6f7f4dd45582da.jpeg","bigImageFilename":"5a716ee504933f6dc1ead00b84abe6cb.jpeg","tags":["好身材"],"width":720,"height":1280},{"title":"挺起胸","id":4079,"date":"2016/1/3 22:44:00","imageFilename":"443be5f84bfb8d94795eb0a235258fc7.jpeg","bigImageFilename":"635ffbd2591b26a56ab2470d4e67df40.jpeg","tags":["在路上"],"width":1024,"height":1365},{"title":"5号选手","id":4068,"date":"2016/1/3 17:58:00","imageFilename":"3aff020a0945ce258b62c8323556793f.jpeg","bigImageFilename":"8ed9867771ab63a804c9260f9e690280.jpeg","tags":["好身材"],"width":1117,"height":972},{"title":"跑什么","id":4066,"date":"2016/1/3 17:57:00","imageFilename":"0af9a1ed10e157b40769f06de7e26c5f.jpeg","bigImageFilename":"ca5d329032a6e145823903463a3d51d8.jpeg","tags":["在路上","好身材","美腿"],"width":1202,"height":1042},{"title":"楼道里的镜子","id":4077,"date":"2016/1/3 22:43:00","imageFilename":"d170d690c1fc5762a52fc614c406d031.jpeg","bigImageFilename":"8bbb412dc2097c61bf146b03bc66b2ec.jpeg","tags":["好身材"],"width":2448,"height":2448},{"title":"米奇手机套","id":4064,"date":"2016/1/3 17:57:00","imageFilename":"972ba01d536f1a36b94b8c225e4207ba.jpeg","bigImageFilename":"55eceb13aec615e39b9f0f5a118b7a45.jpeg","tags":["好身材"],"width":661,"height":1247},{"title":"地上是小狗？","id":4062,"date":"2016/1/3 17:56:00","imageFilename":"d48d2d541b1fcbb31619440e6552098d.jpeg","bigImageFilename":"b0a15acb141a2888fb8ed63a3e1f3423.jpeg","tags":["好身材"],"width":1280,"height":1280},{"title":"沙滩夜色","id":4060,"date":"2016/1/3 17:55:00","imageFilename":"3d37509caa58961b3ff55d848640181e.jpeg","bigImageFilename":"c43bff826db9d5f393dca6354c6b2724.jpeg","tags":["好身材","美腿"],"width":580,"height":874},{"title":"换双鞋子","id":4058,"date":"2016/1/3 17:54:00","imageFilename":"c56f70d0db1cfcedbc0a5c651e1736ee.jpeg","bigImageFilename":"082f259361dbf52569dc1380cafbd8c8.jpeg","tags":["好身材"],"width":1000,"height":1500},{"title":"公主房","id":4056,"date":"2016/1/3 17:54:00","imageFilename":"b99093fedebe47b6ec50f66f1ee9cacc.jpeg","bigImageFilename":"1a056aaea446ae0373119c20dfea1ecb.jpeg","tags":["好身材"],"width":488,"height":711},{"title":"老式剧院的椅子","id":4054,"date":"2016/1/3 17:53:00","imageFilename":"d7a9cd8af1180ad1f08d72e9f5cfd41f.jpeg","bigImageFilename":"ae78866398344b68daf3fc5bf0b3764a.jpeg","tags":["美腿"],"width":514,"height":714},{"title":"high heel","id":4052,"date":"2016/1/3 17:52:00","imageFilename":"0a328a9da0b8065ab89259ff03e6290a.jpeg","bigImageFilename":"fca8fa87906eba0760dc98712f6e70d2.jpeg","tags":["好身材","美腿"],"width":658,"height":1053},{"title":"什么图案","id":4050,"date":"2016/1/3 17:50:00","imageFilename":"70c3d7ed08edac3cd276cef16584a791.jpeg","bigImageFilename":"7742ad68335a824d17fe51f07cde23e3.jpeg","tags":["美腿"],"width":571,"height":700},{"title":"坐车有点累了","id":4048,"date":"2016/1/3 17:49:00","imageFilename":"d36be25fe84c17e19dda425e23752127.jpeg","bigImageFilename":"d33c7dacdeb222d28ee6f8004766c0bf.jpeg","tags":["在路上","好身材","美腿"],"width":600,"height":421},{"title":"网吧环境有点乱","id":4044,"date":"2016/1/3 17:47:00","imageFilename":"3859278e1f0c9e0540f1514a35822133.jpeg","bigImageFilename":"f696b1333257fe47054d027e90f53a4c.jpeg","tags":["好身材"],"width":530,"height":706},{"title":"街角小憩","id":4042,"date":"2016/1/3 17:46:00","imageFilename":"866d8294ecc6c3020d573c29f811cded.jpeg","bigImageFilename":"2e13f1cd82e2e708c8fa5270eba4192c.jpeg","tags":["在路上","美腿"],"width":600,"height":855},{"title":"去买点东西","id":4039,"date":"2016/1/3 17:45:00","imageFilename":"257934ef713d1fc6660c1e1816671b23.jpeg","bigImageFilename":"c6f825b4a0189e2a9be2170b05213032.jpeg","tags":["在路上","好身材","美腿"],"width":440,"height":700},{"title":"周末加班","id":4037,"date":"2016/1/3 16:58:00","imageFilename":"a6d4a10cfc001960b678ac192db70905.jpeg","bigImageFilename":"79571c11a84966e32f266d1de340fbd4.jpeg","tags":["美腿"],"width":543,"height":725},{"title":"靴子有点大了","id":4035,"date":"2016/1/3 16:57:00","imageFilename":"23d22af912ef03b11c60c9014cdd87ee.jpeg","bigImageFilename":"03611bed6aba9ac29c4cb61f166fb187.jpeg","tags":["贵在真实"],"width":400,"height":756},{"title":"音响什么品牌","id":4033,"date":"2016/1/3 16:56:00","imageFilename":"3add6185936930aa5fb87a519e0aba24.jpeg","bigImageFilename":"43572d491f477c8dd6a400472b863806.jpeg","tags":["美腿"],"width":419,"height":600},{"title":"睡前喝一点","id":4027,"date":"2016/1/3 16:32:00","imageFilename":"999bcff051527be3e537c0f13904168f.jpeg","bigImageFilename":"b305ffa649a67d1c8f9280205f1406e7.jpeg","tags":["美腿"],"width":545,"height":600},{"title":"好大的屏幕","id":4029,"date":"2016/1/3 16:33:00","imageFilename":"52cdc6da6c255f46899eff6d9a3e3eb1.jpeg","bigImageFilename":"9cbb27e5da92e4580d7ff674ca4d2fd5.jpeg","tags":["美腿"],"width":447,"height":600},{"title":"到家先脱鞋","id":4025,"date":"2016/1/3 16:32:00","imageFilename":"60c5c28a4cbde1073f7cf42e5a308035.jpeg","bigImageFilename":"5ae94db735a540400992bc03f24e0040.jpeg","tags":["美腿"],"width":396,"height":600},{"title":"等公共汽车","id":4031,"date":"2016/1/3 16:34:00","imageFilename":"550c268aacb81ef759d602a1b2e12b88.jpeg","bigImageFilename":"aaa9f2cec68450aa8e71652b0d48fc75.jpeg","tags":["在路上","好身材"],"width":286,"height":600},{"title":"到家了","id":4023,"date":"2016/1/3 16:31:00","imageFilename":"640699dc2b7243238b258eba5d4263b3.jpeg","bigImageFilename":"0d0cd536f1f6626850d85bbe460e26f8.jpeg","tags":["美腿"],"width":396,"height":600}],"allTags":["美腿","贵在真实","在路上","好身材","大","美","游客投稿","风景","趣图","欧美","害羞"]}