{"totalPage":66,"total":2356,"page":45,"pageSize":36,"list":[{"title":"准备上岸","id":9941,"date":"2017/5/28 15:45:00","imageFilename":"d3fa4277f0ad8350b15b1524eb4790df.jpeg","bigImageFilename":"7b0159b8aa7ce4fb734872d996da4d22.jpeg","tags":["好身材"]},{"title":"还不困","id":9897,"date":"2017/5/28 15:48:00","imageFilename":"db1e7feaf3b947df697140d5bd371b4c.jpeg","bigImageFilename":"f300f61b4d242720084784ac2d769c57.jpeg","tags":["美腿"]},{"title":"吃的什么","id":9895,"date":"2017/5/28 15:48:00","imageFilename":"687131c2d7d80f0de6130dc7440361df.jpeg","bigImageFilename":"335d114d71743a28d4d1353d6f3b2703.jpeg","tags":["在路上"]},{"title":"太热了","id":9837,"date":"2017/6/1 21:01:00","imageFilename":"2a3b1c12af267254d09486f02f1d5233.jpeg","bigImageFilename":"5ae1a6d1d8ef52bd7ff49b9a17150367.jpeg","tags":["大"]},{"title":"什么表","id":9819,"date":"2017/6/1 21:02:00","imageFilename":"cc21db210fc27e28f8a144bdddf718ce.jpeg","bigImageFilename":"e789f081a20cf1554e512ebcd561f861.jpeg","tags":["美腿"]},{"title":"一览纵山小","id":9805,"date":"2017/6/1 21:03:00","imageFilename":"babe9cbd468e1de8280f799d357724f8.jpeg","bigImageFilename":"3afc5a307752c2f08d0d5a89638fbada.jpeg","tags":["好身材"]},{"title":"什么牌子的牛仔裤","id":9841,"date":"2017/6/1 21:01:00","imageFilename":"613666e54780dd17f11d6d4ad8ebee63.jpeg","bigImageFilename":"91f0e8d473883a28c82e7d7d02592fe7.jpeg","tags":["趣图"]},{"title":"这是什么车","id":9668,"date":"2017/5/12 20:50:00","imageFilename":"b13358b8272d221c3c3d94eb518bf62d.jpeg","bigImageFilename":"57b69e5a446f3ccd15d24c02dac74598.jpeg","tags":["在路上","贵在真实"]},{"title":"猜猜有多高","id":9654,"date":"2017/5/12 20:53:00","imageFilename":"d906159282ada652e20918782ac973ce.jpeg","bigImageFilename":"dd3830b78c3d4dc9dcfecd455d0ef12c.jpeg","tags":["好身材","美腿"]},{"title":"出差挺累","id":9801,"date":"2017/6/1 21:45:00","imageFilename":"5d34fd08915f69d1c8492a1e53d1307e.jpeg","bigImageFilename":"14b6bca2bab1abe9033e1b164e7af193.jpeg","tags":["美腿"]},{"title":"我爱看电影","id":9650,"date":"2017/5/12 20:55:00","imageFilename":"e4553a704f79e39068fe31d6af5c4aba.jpeg","bigImageFilename":"7ba91287fc59e9343c00756575436cd4.jpeg","tags":["美腿","贵在真实"]},{"title":"春暖花开","id":9642,"date":"2017/5/12 20:57:00","imageFilename":"373c786fc50672fd2faba5553880ac76.jpeg","bigImageFilename":"d3674b08fcb90fb3fd93be7f5198c762.jpeg","tags":["好身材","美"]},{"title":"什么牌子的","id":9606,"date":"2017/5/12 21:00:00","imageFilename":"eaf3cc8ba1996140b8bdd1383ab71373.jpeg","bigImageFilename":"ae9a5db8a97bca708a1719cfd9efdb76.jpeg","tags":["大","好身材"]},{"title":"影子代表我的心","id":9632,"date":"2017/5/12 21:05:00","imageFilename":"cb140357e93d246eef2ccf5caaca90c2.jpeg","bigImageFilename":"e77d688a35c5036445f87896449973e4.jpeg","tags":["大","好身材"]},{"title":"准备睡了","id":9566,"date":"2017/5/12 21:19:00","imageFilename":"5a7389931d70f33c91c747b556f45eb2.jpeg","bigImageFilename":"520f373127c2cf199bc9ebb64c9ddb08.jpeg","tags":["好身材"]},{"title":"裤子破了","id":9558,"date":"2017/5/12 21:21:00","imageFilename":"194efc21237dcf8b5b52edef0f86ad16.jpeg","bigImageFilename":"073c4b5066cd1b7daf5ed241c01b87b4.jpeg","tags":["好身材"]},{"title":"头发染的不错","id":9604,"date":"2017/5/12 21:03:00","imageFilename":"87e451ce55feeb3b6b044aebe92c8df2.jpeg","bigImageFilename":"ff72ac62366a5a9fb735e3f1f1b5658b.jpeg","tags":["大"]},{"title":"地砖什么颜色","id":9548,"date":"2017/5/12 21:24:00","imageFilename":"2ff0c22934fd2c9d99403ee5223648cb.jpeg","bigImageFilename":"a7f4bd73542d6cfb4aecf61ac7f14171.jpeg","tags":["美腿"]},{"title":"光线太强了","id":9546,"date":"2017/5/12 21:25:00","imageFilename":"608863ead91b9c2f68b52bdbe1506666.jpeg","bigImageFilename":"0a95671f8933780c5e5f4deead97b1d1.jpeg","tags":["美腿"]},{"title":"什么手机套","id":9544,"date":"2017/5/12 21:28:00","imageFilename":"50e128fc4a499c9fbc61c95809356027.jpeg","bigImageFilename":"2cb039287ad919aa16244d8ce6bde19b.jpeg","tags":["大"]},{"title":"要睡了","id":9542,"date":"2017/5/12 21:29:00","imageFilename":"ffe73f96dd976801aa4c33f7f676d099.jpeg","bigImageFilename":"f93a1c1737a733573fefef11207ed9d2.jpeg","tags":["美腿"]},{"title":"不好意思了","id":9536,"date":"2017/5/12 21:32:00","imageFilename":"bc1944f187c84fc2a9552dd4dbd0eaca.jpeg","bigImageFilename":"5c33ce9a8e20c35ef4c64ff025ac3a37.jpeg","tags":["害羞"]},{"title":"床单有点土","id":9526,"date":"2017/5/12 21:48:00","imageFilename":"f2a78f9af0813e61da2fe99922542f9e.jpeg","bigImageFilename":"9e9d161baf7385ca14efa28a4b914fa7.jpeg","tags":["美腿"]},{"title":"碧海蓝天","id":9520,"date":"2017/5/12 21:52:00","imageFilename":"64f5d5739c9e5eaf7ea5fe2934d86210.jpeg","bigImageFilename":"5ba14d3f233db7884dd70a77dd4c3583.jpeg","tags":["好身材"]},{"title":"灭火器","id":9518,"date":"2017/5/14 10:14:00","imageFilename":"e408dabd7ba4e45086439fdaf0900f9e.jpeg","bigImageFilename":"aafc8f13c0e79f756cdfba156cbeb078.jpeg","tags":["大"]},{"title":"穿的多了","id":9508,"date":"2017/5/14 10:17:00","imageFilename":"32d9d21f4e0bbcd18abefc7d2385dd02.jpeg","bigImageFilename":"0b1b470b0dab7b963258edd03cef12a4.jpeg","tags":["美腿","贵在真实"]},{"title":"小背心","id":9446,"date":"2017/5/14 20:21:00","imageFilename":"9265710599878af5b8d3c823a25b5912.jpeg","bigImageFilename":"d7eb0aeec89f41d205ac4f56dea5ee35.jpeg","tags":["大","好身材"]},{"title":"地下凉","id":9430,"date":"2017/5/14 20:30:00","imageFilename":"1a5999d1ca53a9828439b1c34f86af5e.jpeg","bigImageFilename":"9eff1ec1a0f7c68764eb9a842b7028f6.jpeg","tags":["大","美腿"]},{"title":"挥汗如雨","id":9424,"date":"2017/5/14 20:33:00","imageFilename":"dfaef3872dc259acf303daeb6a2f7d26.jpeg","bigImageFilename":"a2e909b7809844d4d6575dd311c9dfe3.jpeg","tags":["大"]},{"title":"可爱的小花","id":9420,"date":"2017/5/14 20:35:00","imageFilename":"dba6dcf06a465df0b91387a0f8061770.jpeg","bigImageFilename":"46ece58a5875613784e5f2f3cc98fa96.jpeg","tags":["美腿"]},{"title":"好像有点不一样","id":9410,"date":"2017/5/14 20:39:00","imageFilename":"367fab8c85ce603fc2c5309f96d8465d.jpeg","bigImageFilename":"0df8c568aae5aecc7ecd03b08cf3a3a5.jpeg","tags":["大"]},{"title":"撩","id":9418,"date":"2017/5/14 20:36:00","imageFilename":"c4f367da242eaeb46c35de4b80acb638.jpeg","bigImageFilename":"3fefd8905b4d17ee92f8eab521d622ea.jpeg","tags":["好身材"]},{"title":"猜猜什么颜色","id":9408,"date":"2017/5/14 20:42:00","imageFilename":"595d2254d27ca864125841b6475a761c.jpeg","bigImageFilename":"27f2fcd787f0873e398c90e596f7251f.jpeg","tags":["大"]},{"title":"脖子上是什么","id":9406,"date":"2017/5/14 20:44:00","imageFilename":"ae1be16c28754aa45b69b2a050111df2.jpeg","bigImageFilename":"99b2ed7903d7475950926aa0db860684.jpeg","tags":["大"]},{"title":"扣子挣开了","id":9478,"date":"2017/5/14 10:37:00","imageFilename":"23c990f4f7352b22a6c08b29af4aeba5.jpeg","bigImageFilename":"3bcca2ab403e9e23ea2a44e9d2dce896.jpeg","tags":["大"]},{"title":"扣的上不","id":9400,"date":"2017/5/14 20:45:00","imageFilename":"711e7605d43c9c50178a5b1b0e0edfee.jpeg","bigImageFilename":"b3b60ed03b334a7368dbf76b1e02e9c7.jpeg","tags":["大"]}]}